1 0.39223057644110276 0.40664961636828645 0.09398496240601503 0.2020460358056266
0 0.3157894736842105 0.6163682864450127 0.07769423558897243 0.2071611253196931
1 0.3583959899749373 0.5652173913043478 0.043859649122807015 0.13554987212276215
1 0.39724310776942356 0.5140664961636828 0.05764411027568922 0.16112531969309463
1 0.7656641604010025 0.45524296675191817 0.16791979949874686 0.22250639386189258
1 0.6115288220551378 0.4936061381074169 0.09273182957393483 0.19948849104859334
1 0.7606516290726817 0.6112531969309463 0.18421052631578946 0.27365728900255754