1 0.375 0.2277580071174377 0.069 0.07295373665480427
1 0.485 0.23665480427046262 0.14 0.08718861209964412
1 0.634 0.23665480427046262 0.149 0.07473309608540925
1 0.445 0.3594306049822064 0.132 0.10142348754448399
1 0.59 0.35587188612099646 0.141 0.09608540925266904
1 0.406 0.4697508896797153 0.125 0.08718861209964412
1 0.52 0.48398576512455516 0.083 0.0693950177935943
1 0.631 0.4822064056939502 0.126 0.08896797153024912
1 0.462 0.594306049822064 0.118 0.07829181494661921
1 0.576 0.6138790035587188 0.101 0.07829181494661921