1 0.29833333333333334 0.12752721617418353 0.25333333333333335 0.11353032659409021
1 0.5583333333333333 0.09175738724727839 0.21666666666666667 0.1166407465007776
1 0.31833333333333336 0.23950233281493002 0.3233333333333333 0.06687402799377916
1 0.6666666666666666 0.2052877138413686 0.3383333333333333 0.07309486780715396
1 0.22333333333333333 0.6158631415241057 0.30666666666666664 0.1181959564541213
1 0.54 0.5972006220839814 0.27 0.14463452566096424
1 0.8066666666666666 0.5458786936236392 0.13166666666666665 0.041990668740279936
1 0.7983333333333333 0.583203732503888 0.10333333333333333 0.03421461897356143
1 0.9616666666666667 0.3110419906687403 0.07166666666666667 0.04043545878693624
1 0.9583333333333334 0.4727838258164852 0.03833333333333333 0.02332814930015552
1 0.06333333333333334 0.8040435458786936 0.058333333333333334 0.03110419906687403
1 0.06166666666666667 0.8211508553654744 0.06 0.03110419906687403
0 0.056666666666666664 0.8351477449455676 0.058333333333333334 0.02177293934681182
1 0.9733333333333334 0.9455676516329704 0.02666666666666667 0.02177293934681182
0 0.02 0.8880248833592534 0.04 0.029548989113530325
0 0.025 0.8942457231726283 0.04833333333333333 0.03421461897356143
0 0.15166666666666667 0.9035769828926905 0.05 0.03421461897356143
0 0.145 0.9129082426127527 0.07 0.04665629860031104
0 0.6233333333333333 0.926905132192846 0.05 0.05754276827371695
0 0.63 0.9315707620528771 0.056666666666666664 0.06220839813374806
0 0.7733333333333333 0.9206842923794712 0.06166666666666667 0.06531881804043546
0 0.8416666666666667 0.9704510108864697 0.058333333333333334 0.05598755832037325
1 0.9883333333333333 0.9782270606531882 0.02 0.024883359253499222
1 0.7683333333333333 0.03576982892690513 0.10666666666666667 0.029548989113530325
1 0.7616666666666667 0.05909797822706065 0.08333333333333333 0.03265940902021773
0 0.18666666666666668 0.8429237947122862 0.03166666666666667 0.024883359253499222
0 0.185 0.8569206842923794 0.035 0.02177293934681182
1 0.041666666666666664 0.04354587869362364 0.07833333333333334 0.02177293934681182