1 0.41798941798941797 0.25 0.03042328042328042 0.012896825396825396
1 0.44576719576719576 0.25 0.022486772486772486 0.013888888888888888
1 0.4748677248677249 0.24702380952380953 0.03042328042328042 0.012896825396825396
1 0.5079365079365079 0.24503968253968253 0.0291005291005291 0.012896825396825396
1 0.5383597883597884 0.24404761904761904 0.03042328042328042 0.013888888888888888
1 0.5714285714285714 0.24305555555555555 0.03042328042328042 0.011904761904761904
1 0.41534391534391535 0.2757936507936508 0.05952380952380952 0.037698412698412696
1 0.48677248677248675 0.27380952380952384 0.07671957671957672 0.031746031746031744
1 0.548941798941799 0.26587301587301587 0.04497354497354497 0.03869047619047619
1 0.5859788359788359 0.26785714285714285 0.04365079365079365 0.03869047619047619
0 0.2857142857142857 0.2767857142857143 0.021164021164021163 0.021825396825396824
0 0.6931216931216931 0.25892857142857145 0.02513227513227513 0.023809523809523808
1 0.66005291005291 0.5714285714285714 0.0291005291005291 0.005952380952380952
1 0.6825396825396826 0.5714285714285714 0.01455026455026455 0.006944444444444444
1 0.7235449735449735 0.5714285714285714 0.047619047619047616 0.005952380952380952
1 0.7658730158730159 0.5714285714285714 0.03306878306878307 0.005952380952380952
0 0.6825396825396826 0.5763888888888888 0.042328042328042326 0.002976190476190476
1 0.7142857142857143 0.5763888888888888 0.01984126984126984 0.005952380952380952
1 0.7314814814814815 0.5763888888888888 0.01455026455026455 0.003968253968253968
1 0.7579365079365079 0.5763888888888888 0.03439153439153439 0.003968253968253968
0 0.6574074074074074 0.5813492063492064 0.022486772486772486 0.003968253968253968
0 0.7142857142857143 0.5813492063492064 0.08862433862433862 0.003968253968253968
0 0.7751322751322751 0.5793650793650794 0.022486772486772486 0.00496031746031746
0 0.6706349206349206 0.5843253968253969 0.05026455026455026 0.002976190476190476
0 0.6613756613756614 0.6726190476190477 0.01984126984126984 0.00992063492063492
0 0.6574074074074074 0.6448412698412699 0.026455026455026454 0.00496031746031746
1 0.6468253968253969 0.6587301587301587 0.017195767195767195 0.007936507936507936