1 0.30666666666666664 0.4 0.07166666666666667 0.10793650793650794
1 0.4033333333333333 0.3968253968253968 0.09833333333333333 0.09841269841269841
1 0.5033333333333333 0.39365079365079364 0.08333333333333333 0.09206349206349207
1 0.585 0.4 0.07 0.10793650793650794
1 0.665 0.4095238095238095 0.075 0.09206349206349207
1 0.7483333333333333 0.4158730158730159 0.08166666666666667 0.10158730158730159
1 0.835 0.44126984126984126 0.08 0.09523809523809523
1 0.3466666666666667 0.4984126984126984 0.15666666666666668 0.06666666666666667
1 0.5166666666666667 0.4888888888888889 0.155 0.05396825396825397
1 0.6316666666666667 0.49206349206349204 0.05333333333333334 0.05396825396825397
1 0.7716666666666666 0.5142857142857142 0.20666666666666667 0.08571428571428572
1 0.3233333333333333 0.5777777777777777 0.115 0.08571428571428572
1 0.53 0.5777777777777777 0.29833333333333334 0.08253968253968254
1 0.71 0.580952380952381 0.043333333333333335 0.06031746031746032
1 0.8116666666666666 0.5968253968253968 0.14666666666666667 0.0761904761904762