1 0.41770833333333335 0.2791666666666667 0.052083333333333336 0.030555555555555555
1 0.4791666666666667 0.28055555555555556 0.053125 0.022222222222222223
1 0.53125 0.275 0.030208333333333334 0.029166666666666667
1 0.5697916666666667 0.27361111111111114 0.035416666666666666 0.029166666666666667
1 0.6125 0.2791666666666667 0.04375 0.019444444444444445
1 0.47604166666666664 0.3597222222222222 0.16666666666666666 0.12777777777777777
1 0.6552083333333333 0.3680555555555556 0.11666666666666667 0.1
1 0.4 0.5111111111111111 0.12604166666666666 0.10138888888888889
1 0.5729166666666666 0.5013888888888889 0.14895833333333333 0.10694444444444444
1 0.440625 0.6097222222222223 0.042708333333333334 0.0375
1 0.5052083333333334 0.6097222222222223 0.07708333333333334 0.0375
1 0.5947916666666667 0.5986111111111111 0.09479166666666666 0.05138888888888889
0 0.17083333333333334 0.9138888888888889 0.084375 0.025
0 0.17083333333333334 0.9361111111111111 0.084375 0.025
0 0.16979166666666667 0.9541666666666667 0.08645833333333333 0.022222222222222223
0 0.16979166666666667 0.975 0.08645833333333333 0.027777777777777776
0 0.16875 0.9902777777777778 0.08854166666666667 0.015277777777777777
0 0.16979166666666667 0.8819444444444444 0.020833333333333332 0.005555555555555556
0 0.16875 0.8888888888888888 0.06458333333333334 0.006944444444444444
0 0.14270833333333333 0.8652777777777778 0.03229166666666667 0.016666666666666666
0 0.18958333333333333 0.8694444444444445 0.036458333333333336 0.005555555555555556
1 0.96875 0.7944444444444444 0.057291666666666664 0.044444444444444446