1 0.14988425925925927 0.09505208333333333 0.1724537037037037 0.049479166666666664
1 0.0625 0.15625 0.1232638888888889 0.06727430555555555
1 0.2199074074074074 0.1644965277777778 0.1736111111111111 0.05946180555555555
1 0.06655092592592593 0.2638888888888889 0.11226851851851852 0.11458333333333333
1 0.22337962962962962 0.2300347222222222 0.1371527777777778 0.06510416666666667
1 0.22280092592592593 0.3003472222222222 0.14467592592592593 0.07074652777777778
1 0.09143518518518519 0.35546875 0.14467592592592593 0.030381944444444444
1 0.22685185185185186 0.3541666666666667 0.10706018518518519 0.03689236111111111
1 0.07523148148148148 0.3975694444444444 0.11284722222222222 0.036458333333333336
1 0.21354166666666666 0.3932291666666667 0.14351851851851852 0.03298611111111111
1 0.078125 0.4392361111111111 0.11226851851851852 0.04470486111111111
1 0.21643518518518517 0.4379340277777778 0.14583333333333334 0.04774305555555555
1 0.036458333333333336 0.4947916666666667 0.05960648148148148 0.03125
1 0.11747685185185185 0.4956597222222222 0.08680555555555555 0.026909722222222224
1 0.21006944444444445 0.49609375 0.08969907407407407 0.026475694444444444
1 0.2835648148148148 0.4973958333333333 0.03993055555555555 0.024305555555555556
0 0.0931712962962963 0.6328125 0.023148148148148147 0.1506076388888889
0 0.13368055555555555 0.6028645833333334 0.014467592592592593 0.10546875
1 0.36342592592592593 0.5911458333333334 0.019675925925925927 0.008246527777777778
1 0.34664351851851855 0.6024305555555556 0.027777777777777776 0.007378472222222222
0 0.2552083333333333 0.52734375 0.008680555555555556 0.0026041666666666665
0 0.25578703703703703 0.5295138888888888 0.008680555555555556 0.0030381944444444445
0 0.25578703703703703 0.5321180555555556 0.007523148148148148 0.001736111111111111
0 0.25636574074074076 0.5338541666666666 0.008101851851851851 0.002170138888888889
0 0.2569444444444444 0.5360243055555556 0.006944444444444444 0.0013020833333333333
0 0.25752314814814814 0.5386284722222222 0.006944444444444444 0.0026041666666666665
0 0.25752314814814814 0.5407986111111112 0.006944444444444444 0.0030381944444444445
0 0.2800925925925926 0.5325520833333334 0.01678240740740741 0.005208333333333333
0 0.27835648148148145 0.5377604166666666 0.02488425925925926 0.008680555555555556
0 0.27025462962962965 0.5260416666666666 0.008680555555555556 0.0026041666666666665
0 0.2847222222222222 0.5794270833333334 0.016203703703703703 0.00390625
0 0.2824074074074074 0.58203125 0.012152777777777778 0.003472222222222222
0 0.27488425925925924 0.5863715277777778 0.023148148148148147 0.004774305555555556
0 0.25925925925925924 0.5920138888888888 0.008680555555555556 0.0026041666666666665
0 0.25983796296296297 0.5941840277777778 0.006944444444444444 0.0030381944444444445
0 0.26157407407407407 0.6011284722222222 0.009259259259259259 0.003472222222222222
0 0.26157407407407407 0.6032986111111112 0.008680555555555556 0.0030381944444444445
0 0.3443287037037037 0.6076388888888888 0.013310185185185185 0.004340277777777778
0 0.3570601851851852 0.6080729166666666 0.012152777777777778 0.004340277777777778
0 0.2777777777777778 0.5894097222222222 0.017361111111111112 0.006510416666666667
0 0.28530092592592593 0.5959201388888888 0.024305555555555556 0.009548611111111112
0 0.2864583333333333 0.6015625 0.02662037037037037 0.009548611111111112
0 0.33738425925925924 0.20616319444444445 0.02199074074074074 0.013454861111111112
0 0.32233796296296297 0.19835069444444445 0.012152777777777778 0.009548611111111112
0 0.328125 0.2026909722222222 0.016203703703703703 0.012586805555555556
1 0.45023148148148145 0.3702256944444444 0.020833333333333332 0.006944444444444444
1 0.4380787037037037 0.3771701388888889 0.008101851851851851 0.004340277777777778
1 0.44502314814814814 0.3767361111111111 0.005208333333333333 0.005208333333333333
1 0.4508101851851852 0.3767361111111111 0.006944444444444444 0.005208333333333333
1 0.4554398148148148 0.3763020833333333 0.003472222222222222 0.005642361111111111
1 0.45949074074074076 0.3767361111111111 0.007523148148148148 0.005642361111111111
0 0.7962962962962963 0.5056423611111112 0.01273148148148148 0.006944444444444444
0 0.6105324074074074 0.5464409722222222 0.008680555555555556 0.010850694444444444
0 0.5306712962962963 0.3428819444444444 0.008101851851851851 0.00390625
0 0.5381944444444444 0.3441840277777778 0.006944444444444444 0.004340277777777778
0 0.5341435185185185 0.3546006944444444 0.009837962962962963 0.002170138888888889
0 0.5341435185185185 0.3572048611111111 0.013310185185185185 0.0030381944444444445
0 0.6996527777777778 0.3715277777777778 0.01273148148148148 0.005642361111111111
0 0.7887731481481481 0.3385416666666667 0.020833333333333332 0.007378472222222222
0 0.7841435185185185 0.3472222222222222 0.02488425925925926 0.012152777777777778
0 0.8020833333333334 0.3797743055555556 0.007523148148148148 0.004774305555555556
0 0.8564814814814815 0.3615451388888889 0.00636574074074074 0.00390625
0 0.8802083333333334 0.3598090277777778 0.008101851851851851 0.005208333333333333
0 0.8576388888888888 0.3745659722222222 0.007523148148148148 0.00390625
0 0.8680555555555556 0.3802083333333333 0.010416666666666666 0.005642361111111111
1 0.8287037037037037 0.9331597222222222 0.024305555555555556 0.010416666666666666
1 0.8333333333333334 0.9388020833333334 0.028356481481481483 0.009982638888888888