1 0.4849246231155779 0.5159235668789809 0.9371859296482412 0.6157112526539278
1 0.31909547738693467 0.7473460721868365 0.11055276381909548 0.10615711252653928
1 0.46984924623115576 0.7791932059447984 0.17587939698492464 0.11252653927813164
1 0.6080402010050251 0.8067940552016986 0.10552763819095477 0.09554140127388536
1 0.7361809045226131 0.832271762208068 0.15577889447236182 0.11252653927813164
1 0.8969849246231156 0.8704883227176221 0.19095477386934673 0.11464968152866242
1 0.1306532663316583 0.7070063694267515 0.2185929648241206 0.12314225053078556