1 0.08854166666666667 0.059722222222222225 0.175 0.11805555555555555
1 0.01875 0.3013888888888889 0.036458333333333336 0.02638888888888889
1 0.090625 0.3013888888888889 0.10416666666666667 0.02361111111111111
1 0.296875 0.4083333333333333 0.10104166666666667 0.030555555555555555
1 0.29583333333333334 0.4444444444444444 0.071875 0.02638888888888889
1 0.278125 0.4847222222222222 0.025 0.018055555555555554
1 0.2947916666666667 0.4888888888888889 0.009375 0.009722222222222222
1 0.315625 0.4847222222222222 0.027083333333333334 0.020833333333333332
1 0.12916666666666668 0.7527777777777778 0.042708333333333334 0.022222222222222223
1 0.16145833333333334 0.7527777777777778 0.025 0.018055555555555554
0 0.13854166666666667 0.7680555555555556 0.03333333333333333 0.019444444444444445
0 0.4635416666666667 0.7458333333333333 0.015625 0.005555555555555556
0 0.4625 0.7638888888888888 0.020833333333333332 0.022222222222222223
0 0.4635416666666667 0.7902777777777777 0.025 0.022222222222222223
0 0.4635416666666667 0.9041666666666667 0.013541666666666667 0.02638888888888889
1 0.55625 0.2375 0.16458333333333333 0.08333333333333333
1 0.728125 0.2152777777777778 0.16354166666666667 0.11666666666666667
1 0.5364583333333334 0.34444444444444444 0.14583333333333334 0.10416666666666667
1 0.7114583333333333 0.3388888888888889 0.19479166666666667 0.12916666666666668
1 0.4875 0.4486111111111111 0.051041666666666666 0.034722222222222224
1 0.534375 0.4486111111111111 0.035416666666666666 0.03333333333333333
1 0.584375 0.44722222222222224 0.04375 0.030555555555555555
1 0.63125 0.44166666666666665 0.04375 0.03888888888888889
1 0.6979166666666666 0.44305555555555554 0.08645833333333333 0.03888888888888889
1 0.7885416666666667 0.44305555555555554 0.03854166666666667 0.03194444444444444
1 0.665625 0.7791666666666667 0.08541666666666667 0.04583333333333333
1 0.6458333333333334 0.8236111111111111 0.014583333333333334 0.025
1 0.678125 0.8277777777777777 0.040625 0.0375
0 0.9260416666666667 0.575 0.06979166666666667 0.022222222222222223
1 0.9302083333333333 0.5958333333333333 0.027083333333333334 0.013888888888888888