1 0.3832599118942731 0.4512820512820513 0.17400881057268722 0.1641025641025641
1 0.381057268722467 0.6128205128205129 0.1343612334801762 0.11538461538461539
1 0.3370044052863436 0.7333333333333333 0.10572687224669604 0.08205128205128205
1 0.43392070484581496 0.7230769230769231 0.08149779735682819 0.10256410256410256
0 0.022026431718061675 0.5692307692307692 0.02643171806167401 0.020512820512820513
0 0.022026431718061675 0.5897435897435898 0.037444933920704845 0.03333333333333333
0 0.6101321585903083 0.25384615384615383 0.0947136563876652 0.028205128205128206
0 0.6101321585903083 0.2794871794871795 0.0947136563876652 0.03333333333333333
1 0.9074889867841409 0.21794871794871795 0.17180616740088106 0.09230769230769231