1 0.36879432624113473 0.2576832151300236 0.32978723404255317 0.3333333333333333
1 0.7464539007092199 0.23167848699763594 0.3829787234042553 0.3546099290780142
1 0.36524822695035464 0.5981087470449172 0.37056737588652483 0.34515366430260047
1 0.7570921985815603 0.5839243498817966 0.37056737588652483 0.37825059101654845
1 0.41312056737588654 0.9361702127659575 0.4698581560283688 0.12056737588652482