1 0.303125 0.3203125 0.05520833333333333 0.0171875
1 0.3541666666666667 0.321875 0.036458333333333336 0.0171875
0 0.303125 0.33125 0.05520833333333333 0.0046875
0 0.3645833333333333 0.334375 0.016666666666666666 0.0078125
0 0.040625 0.2921875 0.014583333333333334 0.0140625
0 0.0375 0.2984375 0.015625 0.015625
0 0.035416666666666666 0.303125 0.017708333333333333 0.01875
1 0.75625 0.2875 0.07708333333333334 0.0625
1 0.75 0.33125 0.03333333333333333 0.015625
1 0.7864583333333334 0.3296875 0.042708333333333334 0.0171875
1 0.5010416666666667 0.371875 0.026041666666666668 0.034375
1 0.5541666666666667 0.3734375 0.06770833333333333 0.0296875
1 0.625 0.3734375 0.06770833333333333 0.03125
1 0.49375 0.403125 0.06666666666666667 0.0265625
1 0.565625 0.4046875 0.06979166666666667 0.0203125
1 0.6302083333333334 0.4015625 0.05625 0.028125
1 0.6739583333333333 0.40625 0.028125 0.025
1 0.5083333333333333 0.428125 0.04583333333333333 0.0140625
1 0.5489583333333333 0.428125 0.036458333333333336 0.0140625
1 0.5770833333333333 0.428125 0.017708333333333333 0.015625
1 0.6052083333333333 0.428125 0.035416666666666666 0.015625
1 0.6458333333333334 0.428125 0.04479166666666667 0.015625
1 0.06666666666666667 0.6546875 0.009375 0.0453125
0 0.06145833333333333 0.6515625 0.005208333333333333 0.059375
0 0.07708333333333334 0.5859375 0.011458333333333333 0.0234375
0 0.09270833333333334 0.625 0.0125 0.0171875
1 0.19270833333333334 0.6171875 0.03333333333333333 0.0125
0 0.18229166666666666 0.590625 0.0125 0.0265625
1 0.26666666666666666 0.571875 0.011458333333333333 0.01875
1 0.38645833333333335 0.6234375 0.034375 0.021875
1 0.48541666666666666 0.6171875 0.03333333333333333 0.015625
0 0.48125 0.59375 0.014583333333333334 0.021875
0 0.475 0.590625 0.014583333333333334 0.0296875
1 0.5875 0.6203125 0.028125 0.015625
0 0.5770833333333333 0.590625 0.015625 0.03125
0 0.5708333333333333 0.590625 0.015625 0.034375
1 0.69375 0.6203125 0.036458333333333336 0.015625
0 0.6875 0.5921875 0.016666666666666666 0.0234375
0 0.6791666666666667 0.5890625 0.022916666666666665 0.0375
1 0.79375 0.621875 0.040625 0.015625
0 0.7822916666666667 0.5953125 0.015625 0.0203125
1 0.8875 0.60625 0.030208333333333334 0.0171875
0 0.8729166666666667 0.5828125 0.013541666666666667 0.0203125
1 0.9791666666666666 0.5984375 0.03125 0.015625