0 0.7125 0.2171875 0.0609375 0.034375
0 0.753125 0.234375 0.034375 0.025
0 0.7828125 0.24375 0.0390625 0.025
0 0.7109375 0.2390625 0.0328125 0.025
0 0.7421875 0.25 0.0390625 0.028125
0 0.775 0.2578125 0.0296875 0.021875
1 0.503125 0.6203125 0.121875 0.0984375
1 0.63125 0.678125 0.15625 0.11875
1 0.478125 0.7109375 0.140625 0.1125
1 0.621875 0.7703125 0.1703125 0.1203125
1 0.821875 0.85 0.2484375 0.14375
1 0.434375 0.78125 0.10625 0.078125
1 0.5296875 0.8125 0.078125 0.071875
1 0.6265625 0.8515625 0.11875 0.0828125