1 0.146484375 0.225 0.150390625 0.184375
1 0.337890625 0.240625 0.21875 0.25
1 0.65234375 0.303125 0.40625 0.31875
1 0.16796875 0.409375 0.16015625 0.221875
1 0.388671875 0.49375 0.279296875 0.240625
1 0.66796875 0.58125 0.23828125 0.24375