1 0.08985507246376812 0.550561797752809 0.1565217391304348 0.5842696629213483
1 0.3072463768115942 0.5168539325842697 0.24057971014492754 0.6292134831460674
1 0.5942028985507246 0.5393258426966292 0.2927536231884058 0.6292134831460674
1 0.8753623188405797 0.550561797752809 0.21739130434782608 0.651685393258427