1 0.09470304975922954 0.5606060606060606 0.17656500802568217 0.7121212121212122
1 0.24237560192616373 0.6515151515151515 0.10272873194221509 0.6515151515151515
1 0.3756019261637239 0.6363636363636364 0.1492776886035313 0.6212121212121212
1 0.579454253611557 0.6363636363636364 0.23434991974317818 0.5454545454545454
1 0.7431781701444623 0.6515151515151515 0.07865168539325842 0.5757575757575758
1 0.8250401284109149 0.6212121212121212 0.0754414125200642 0.7424242424242424
1 0.9229534510433387 0.6060606060606061 0.10112359550561797 0.6818181818181818