1 0.48613376835236544 0.3218390804597701 0.16476345840130505 0.23563218390804597
1 0.6492659053833605 0.3275862068965517 0.11745513866231648 0.20689655172413793
1 0.7748776508972267 0.3390804597701149 0.08482871125611746 0.16091954022988506
1 0.46166394779771613 0.5402298850574713 0.04404567699836868 0.19540229885057472
1 0.5579119086460033 0.5517241379310345 0.12071778140293637 0.22413793103448276
1 0.7063621533442088 0.5574712643678161 0.13376835236541598 0.20689655172413793
1 0.6084828711256117 0.7586206896551724 0.25774877650897227 0.1781609195402299
1 0.6052202283849919 0.9195402298850575 0.06199021207177814 0.040229885057471264