1 0.2942708333333333 0.23119212962962962 0.2172309027777778 0.19328703703703703
1 0.5062934027777778 0.2456597222222222 0.15928819444444445 0.1640625
1 0.6482204861111112 0.28443287037037035 0.0859375 0.11747685185185185
1 0.7259114583333334 0.2690972222222222 0.029730902777777776 0.07060185185185185
1 0.7495659722222222 0.2829861111111111 0.011067708333333334 0.046875
1 0.7853732638888888 0.28327546296296297 0.05186631944444445 0.06539351851851852
1 0.8335503472222222 0.2873263888888889 0.04513888888888889 0.07060185185185185
1 0.7361111111111112 0.3428819444444444 0.027994791666666668 0.03761574074074074
1 0.8044704861111112 0.3524305555555556 0.10438368055555555 0.04918981481481482
0 0.6106770833333334 0.9146412037037037 0.007595486111111111 0.01707175925925926
1 0.6184895833333334 0.9143518518518519 0.008680555555555556 0.014467592592592593