1 0.40635641316685583 0.3151515151515151 0.2565266742338252 0.24393939393939393
1 0.6889897843359818 0.3515151515151515 0.2304199772985244 0.20606060606060606
1 0.17593643586833144 0.5803030303030303 0.1452894438138479 0.2803030303030303
1 0.4449489216799092 0.6090909090909091 0.19296254256526674 0.24848484848484848
1 0.6799091940976163 0.6742424242424242 0.21679909194097616 0.24545454545454545
1 0.8717366628830874 0.6545454545454545 0.1112372304199773 0.17424242424242425