1 0.9479166666666666 0.24166666666666667 0.09791666666666667 0.135
1 0.31666666666666665 0.21333333333333335 0.028125 0.04
1 0.3489583333333333 0.22333333333333333 0.030208333333333334 0.03833333333333333
1 0.4 0.24166666666666667 0.06875 0.05333333333333334
1 0.4479166666666667 0.25333333333333335 0.03125 0.04
1 0.48333333333333334 0.26 0.041666666666666664 0.045
1 0.515625 0.275 0.029166666666666667 0.03166666666666667
1 0.5583333333333333 0.2866666666666667 0.06041666666666667 0.04666666666666667
1 0.60625 0.3016666666666667 0.034375 0.03666666666666667
1 0.6375 0.31 0.027083333333333334 0.035
1 0.6635416666666667 0.31833333333333336 0.034375 0.03833333333333333
1 0.3072916666666667 0.49166666666666664 0.10104166666666667 0.08
1 0.38645833333333335 0.5083333333333333 0.05416666666666667 0.06166666666666667
1 0.46145833333333336 0.525 0.09583333333333334 0.06666666666666667
1 0.5302083333333333 0.535 0.04895833333333333 0.055
1 0.5885416666666666 0.545 0.065625 0.06333333333333334
1 0.6583333333333333 0.5616666666666666 0.07395833333333333 0.06166666666666667
1 0.73125 0.5766666666666667 0.075 0.06166666666666667
1 0.3125 0.5683333333333334 0.0625 0.07333333333333333
1 0.375 0.5816666666666667 0.065625 0.06333333333333334
1 0.45729166666666665 0.5916666666666667 0.09479166666666666 0.07
1 0.5416666666666666 0.6033333333333334 0.06875 0.07333333333333333
1 0.6229166666666667 0.625 0.090625 0.06333333333333334
1 0.690625 0.63 0.051041666666666666 0.065
1 0.7416666666666667 0.6466666666666666 0.06041666666666667 0.07333333333333333
1 0.2833333333333333 0.67 0.035416666666666666 0.04666666666666667
1 0.3145833333333333 0.6766666666666666 0.03229166666666667 0.041666666666666664
1 0.3489583333333333 0.6833333333333333 0.041666666666666664 0.043333333333333335
1 0.3885416666666667 0.6866666666666666 0.0375 0.04
1 0.434375 0.6916666666666667 0.059375 0.041666666666666664
1 0.48125 0.6966666666666667 0.0375 0.04833333333333333
1 0.51875 0.7033333333333334 0.04583333333333333 0.04666666666666667
1 0.5635416666666667 0.7083333333333334 0.05 0.045
1 0.6083333333333333 0.7133333333333334 0.04479166666666667 0.04666666666666667
1 0.6416666666666667 0.7166666666666667 0.03125 0.043333333333333335
1 0.6708333333333333 0.72 0.029166666666666667 0.041666666666666664
1 0.70625 0.7266666666666667 0.051041666666666666 0.03833333333333333
1 0.74375 0.73 0.029166666666666667 0.03666666666666667
1 0.76875 0.7333333333333333 0.022916666666666665 0.03333333333333333
1 0.7885416666666667 0.7383333333333333 0.030208333333333334 0.041666666666666664
1 0.5 0.7516666666666667 0.040625 0.03666666666666667
1 0.5864583333333333 0.7616666666666667 0.11041666666666666 0.04666666666666667