1 0.37222222222222223 0.25 0.14305555555555555 0.058333333333333334
1 0.49583333333333335 0.2552083333333333 0.09444444444444444 0.06354166666666666
1 0.5888888888888889 0.2552083333333333 0.0875 0.05416666666666667
1 0.6694444444444444 0.2552083333333333 0.06666666666666667 0.057291666666666664
1 0.49722222222222223 0.41354166666666664 0.32916666666666666 0.22708333333333333
1 0.3625 0.5697916666666667 0.08611111111111111 0.05625
1 0.4791666666666667 0.5739583333333333 0.13333333333333333 0.06041666666666667
1 0.6097222222222223 0.5729166666666666 0.12083333333333333 0.05625