1 0.44875 0.495 0.12875 0.06666666666666667
1 0.57875 0.5016666666666667 0.11125 0.06
1 0.225 0.6366666666666667 0.35 0.225
1 0.54875 0.66 0.26875 0.19333333333333333
1 0.82875 0.6583333333333333 0.23375 0.18166666666666667
1 0.065 0.8066666666666666 0.0525 0.04666666666666667
1 0.1125 0.8083333333333333 0.035 0.043333333333333335
1 0.15625 0.805 0.04 0.05
1 0.205 0.8133333333333334 0.05 0.055
1 0.28625 0.8033333333333333 0.10125 0.051666666666666666
1 0.42 0.805 0.12625 0.05
1 0.495 0.8083333333333333 0.0175 0.04
1 0.54375 0.8083333333333333 0.04 0.04
1 0.6 0.8033333333333333 0.0725 0.04666666666666667
1 0.67625 0.805 0.07375 0.041666666666666664
1 0.75 0.8083333333333333 0.05 0.041666666666666664
1 0.86625 0.8066666666666666 0.17375 0.041666666666666664