1 0.4296875 0.30973451327433627 0.0732421875 0.038348082595870206
1 0.5234375 0.31268436578171094 0.09375 0.03687315634218289
1 0.6025390625 0.30973451327433627 0.048828125 0.035398230088495575
0 0.3134765625 0.7507374631268436 0.0361328125 0.01032448377581121
0 0.314453125 0.7610619469026548 0.037109375 0.0058997050147492625
0 0.314453125 0.7684365781710915 0.04296875 0.007374631268436578
0 0.7119140625 0.7477876106194691 0.0458984375 0.011799410029498525
0 0.712890625 0.7566371681415929 0.04296875 0.007374631268436578
1 0.7138671875 0.7654867256637168 0.03125 0.0058997050147492625