1 0.28625 0.24666666666666667 0.0475 0.05333333333333334
1 0.34625 0.24666666666666667 0.065 0.06666666666666667
1 0.2575 0.34444444444444444 0.055 0.08666666666666667
1 0.31875 0.3466666666666667 0.06375 0.06
1 0.38 0.3422222222222222 0.05125 0.07111111111111111
1 0.30625 0.6911111111111111 0.01 0.017777777777777778
1 0.365 0.6911111111111111 0.025 0.022222222222222223
1 0.36 0.66 0.01625 0.015555555555555555
1 0.3625 0.72 0.02125 0.035555555555555556
1 0.305 0.7444444444444445 0.01625 0.013333333333333334
0 0.58625 0.7444444444444445 0.015 0.008888888888888889
0 0.54125 0.15555555555555556 0.035 0.013333333333333334
0 0.20375 0.20666666666666667 0.01375 0.015555555555555555
0 0.19875 0.2222222222222222 0.00625 0.013333333333333334
0 0.20125 0.2311111111111111 0.0175 0.011111111111111112
0 0.19875 0.3088888888888889 0.0125 0.015555555555555555
0 0.2125 0.31555555555555553 0.01 0.013333333333333334
1 0.2225 0.46 0.02625 0.03333333333333333
0 0.04625 0.5288888888888889 0.0175 0.015555555555555555
0 0.045 0.5377777777777778 0.0125 0.006666666666666667
0 0.045 0.5555555555555556 0.0175 0.017777777777777778
0 0.006875 0.5777777777777777 0.01375 0.03111111111111111
0 0.006875 0.6022222222222222 0.01375 0.028888888888888888
0 0.01 0.7 0.0075 0.042222222222222223
0 0.045 0.7533333333333333 0.00875 0.08
0 0.08375 0.6555555555555556 0.01125 0.013333333333333334
0 0.08625 0.6777777777777778 0.005 0.02666666666666667
0 0.08375 0.7066666666666667 0.01 0.015555555555555555
0 0.33625 0.5355555555555556 0.01375 0.011111111111111112
0 0.33125 0.5822222222222222 0.015 0.013333333333333334
0 0.33125 0.6022222222222222 0.01375 0.013333333333333334
0 0.2225 0.6444444444444445 0.00375 0.024444444444444446
1 0.7 0.7622222222222222 0.0225 0.02666666666666667
0 0.93375 0.5511111111111111 0.0075 0.006666666666666667
0 0.94125 0.56 0.00625 0.0044444444444444444
1 0.5775 0.4066666666666667 0.01875 0.022222222222222223