1 0.45703125 0.048316251830161056 0.0341796875 0.03367496339677892
1 0.619140625 0.03367496339677892 0.236328125 0.06734992679355783
1 0.5615234375 0.06588579795021962 0.0400390625 0.021961932650073207
1 0.5927734375 0.06149341142020498 0.017578125 0.01903367496339678
1 0.6220703125 0.05710102489019034 0.033203125 0.017569546120058566
1 0.6669921875 0.05417276720351391 0.0224609375 0.014641288433382138
1 0.5634765625 0.08784773060029283 0.0419921875 0.017569546120058566
1 0.6357421875 0.07906295754026355 0.09765625 0.021961932650073207
1 0.7109375 0.07174231332357248 0.013671875 0.014641288433382138
1 0.41015625 0.13177159590043924 0.017578125 0.014641288433382138
1 0.4267578125 0.1273792093704246 0.01171875 0.016105417276720352
1 0.4580078125 0.12445095168374817 0.0478515625 0.01903367496339678
1 0.505859375 0.1171303074670571 0.025390625 0.017569546120058566
1 0.53515625 0.11420204978038068 0.0283203125 0.014641288433382138
1 0.5625 0.10834553440702782 0.021484375 0.01903367496339678
1 0.587890625 0.10980966325036604 0.025390625 0.017569546120058566
1 0.6123046875 0.10688140556368961 0.015625 0.016105417276720352
1 0.6318359375 0.10395314787701318 0.0205078125 0.014641288433382138
1 0.658203125 0.10102489019033675 0.0244140625 0.016105417276720352
1 0.6865234375 0.09956076134699854 0.025390625 0.017569546120058566
1 0.7099609375 0.09663250366032211 0.015625 0.017569546120058566
1 0.7353515625 0.0951683748169839 0.0302734375 0.017569546120058566
1 0.7685546875 0.09370424597364568 0.0302734375 0.017569546120058566
1 0.439453125 0.16251830161054173 0.0302734375 0.013177159590043924
1 0.439453125 0.17569546120058566 0.03125 0.017569546120058566
1 0.537109375 0.1478770131771596 0.060546875 0.05710102489019034
1 0.6240234375 0.15373352855051245 0.115234375 0.032210834553440704
1 0.740234375 0.11859443631039532 0.037109375 0.010248901903367497
1 0.2724609375 0.26500732064421667 0.0234375 0.029282576866764276
1 0.30078125 0.2635431918008785 0.037109375 0.014641288433382138
0 0.298828125 0.27379209370424595 0.02734375 0.010248901903367497
1 0.435546875 0.2108345534407028 0.0927734375 0.0424597364568082
1 0.533203125 0.2005856515373353 0.0888671875 0.03953147877013177
1 0.630859375 0.18740849194729137 0.087890625 0.0424597364568082
1 0.74609375 0.18301610541727673 0.1318359375 0.043923865300146414
1 0.310546875 0.3206442166910688 0.072265625 0.03953147877013177
1 0.3671875 0.31771595900439237 0.03515625 0.03074670571010249
1 0.29296875 0.37774524158125916 0.017578125 0.02342606149341142
1 0.3154296875 0.37774524158125916 0.0283203125 0.01903367496339678
1 0.357421875 0.3762811127379209 0.03125 0.021961932650073207
1 0.5 0.23865300146412885 0.041015625 0.02342606149341142
1 0.54296875 0.232796486090776 0.0380859375 0.021961932650073207
1 0.580078125 0.22986822840409957 0.025390625 0.017569546120058566
1 0.611328125 0.22840409956076135 0.0322265625 0.02342606149341142
1 0.6474609375 0.2225475841874085 0.03125 0.02635431918008785
1 0.4423828125 0.26939970717423134 0.0390625 0.02635431918008785
1 0.46875 0.2664714494875549 0.005859375 0.017569546120058566
1 0.4951171875 0.2635431918008785 0.03515625 0.020497803806734993
1 0.537109375 0.25768667642752563 0.0419921875 0.02342606149341142
1 0.5751953125 0.2562225475841874 0.025390625 0.017569546120058566
1 0.6083984375 0.2562225475841874 0.03125 0.02342606149341142
1 0.6435546875 0.25036603221083453 0.029296875 0.01903367496339678
1 0.6767578125 0.24597364568081992 0.0322265625 0.02635431918008785
1 0.7119140625 0.2430453879941435 0.0302734375 0.021961932650073207
1 0.48828125 0.36603221083455345 0.025390625 0.010248901903367497
1 0.505859375 0.3645680819912152 0.005859375 0.01171303074670571
1 0.578125 0.35871156661786235 0.021484375 0.010248901903367497
1 0.6044921875 0.35871156661786235 0.0302734375 0.010248901903367497
1 0.626953125 0.35724743777452417 0.009765625 0.008784773060029283
1 0.6416015625 0.3557833089311859 0.017578125 0.010248901903367497
1 0.7470703125 0.06881405563689605 0.0546875 0.01903367496339678
1 0.724609375 0.3528550512445095 0.0224609375 0.008784773060029283
1 0.740234375 0.3528550512445095 0.00390625 0.008784773060029283
1 0.4755859375 0.37774524158125916 0.0224609375 0.01171303074670571
0 0.4931640625 0.37774524158125916 0.009765625 0.008784773060029283
1 0.5087890625 0.3762811127379209 0.0224609375 0.01171303074670571
1 0.5908203125 0.3718887262079063 0.0234375 0.01171303074670571
0 0.6083984375 0.37042459736456806 0.0107421875 0.008784773060029283
1 0.6259765625 0.3689604685212299 0.021484375 0.01171303074670571
1 0.7109375 0.3645680819912152 0.0205078125 0.010248901903367497
1 0.7275390625 0.363103953147877 0.0107421875 0.01171303074670571
1 0.7451171875 0.363103953147877 0.0224609375 0.01171303074670571
0 0.8955078125 0.3206442166910688 0.0703125 0.07320644216691069
1 0.8623046875 0.1390922401171303 0.03125 0.07027818448023426
1 0.892578125 0.09077598828696926 0.0302734375 0.0746705710102489
0 0.87890625 0.1478770131771596 0.046875 0.0849194729136164
1 0.87109375 0.24158125915080528 0.0185546875 0.04538799414348463
0 0.8916015625 0.21815519765739386 0.0244140625 0.0424597364568082
0 0.890625 0.23133235724743778 0.0205078125 0.029282576866764276
1 0.015625 0.5256222547584187 0.0146484375 0.016105417276720352
1 0.0068359375 0.5373352855051244 0.013671875 0.017569546120058566
1 0.0205078125 0.5109809663250366 0.0185546875 0.021961932650073207
1 0.0185546875 0.5446559297218155 0.0322265625 0.0527086383601757
1 0.04296875 0.4992679355783309 0.0244140625 0.043923865300146414
1 0.0615234375 0.46266471449487556 0.02734375 0.04685212298682284
0 0.5 0.4773060029282577 0.0224609375 0.01903367496339678
0 0.5 0.48462664714494874 0.0224609375 0.021961932650073207
0 0.900390625 0.40263543191800877 0.0615234375 0.024890190336749635
1 0.8818359375 0.4216691068814056 0.0146484375 0.014641288433382138
1 0.8955078125 0.41874084919472915 0.009765625 0.013177159590043924
1 0.91015625 0.4158125915080527 0.013671875 0.016105417276720352
1 0.9228515625 0.4143484626647145 0.0107421875 0.01171303074670571