1 0.18676470588235294 0.20484581497797358 0.06764705882352941 0.05066079295154185
1 0.5117647058823529 0.31938325991189426 0.20441176470588235 0.09030837004405286
1 0.3558823529411765 0.4647577092511013 0.10588235294117647 0.16740088105726872
1 0.48970588235294116 0.4889867841409692 0.12941176470588237 0.15638766519823788
1 0.6514705882352941 0.46255506607929514 0.15735294117647058 0.18061674008810572
1 0.34558823529411764 0.6167400881057269 0.047058823529411764 0.05726872246696035
1 0.4 0.6167400881057269 0.052941176470588235 0.05286343612334802
1 0.4514705882352941 0.6211453744493393 0.039705882352941174 0.04405286343612335
1 0.5044117647058823 0.6189427312775331 0.05588235294117647 0.04405286343612335
1 0.5573529411764706 0.6167400881057269 0.04852941176470588 0.05286343612334802
1 0.5911764705882353 0.6189427312775331 0.016176470588235296 0.03303964757709251
1 0.6191176470588236 0.6145374449339207 0.04411764705882353 0.046255506607929514
1 0.6470588235294118 0.6189427312775331 0.016176470588235296 0.03524229074889868
1 0.6808823529411765 0.6145374449339207 0.05 0.05066079295154185