1 0.503125 0.33766233766233766 0.13541666666666666 0.15769944341372913
1 0.42083333333333334 0.5064935064935064 0.07916666666666666 0.06679035250463822
1 0.5052083333333334 0.5139146567717996 0.06458333333333334 0.05380333951762523
1 0.5916666666666667 0.5139146567717996 0.08333333333333333 0.05009276437847866
1 0.11041666666666666 0.5992578849721707 0.090625 0.05194805194805195
1 0.21979166666666666 0.6048237476808905 0.10520833333333333 0.04452690166975881
1 0.33229166666666665 0.6122448979591837 0.09166666666666666 0.05194805194805195
1 0.43125 0.5992578849721707 0.07291666666666667 0.05380333951762523
1 0.5395833333333333 0.608534322820037 0.11354166666666667 0.0575139146567718
1 0.653125 0.6048237476808905 0.08125 0.05380333951762523
1 0.765625 0.6066790352504638 0.10833333333333334 0.0575139146567718
1 0.8895833333333333 0.6159554730983302 0.103125 0.04267161410018553
1 0.08333333333333333 0.6549165120593692 0.05416666666666667 0.027829313543599257
1 0.14270833333333333 0.6549165120593692 0.057291666666666664 0.027829313543599257
1 0.228125 0.6586270871985158 0.09791666666666667 0.03339517625231911
1 0.31354166666666666 0.6586270871985158 0.04791666666666667 0.027829313543599257
1 0.39166666666666666 0.6567717996289425 0.08229166666666667 0.025974025974025976
1 0.490625 0.6586270871985158 0.08958333333333333 0.03710575139146568
1 0.5729166666666666 0.6567717996289425 0.05 0.029684601113172542
1 0.6489583333333333 0.660482374768089 0.08020833333333334 0.03710575139146568
1 0.7364583333333333 0.6641929499072357 0.07395833333333333 0.03153988868274583
1 0.828125 0.6641929499072357 0.09270833333333334 0.027829313543599257
1 0.9177083333333333 0.6679035250463822 0.071875 0.03710575139146568
1 0.07083333333333333 0.6920222634508348 0.04895833333333333 0.027829313543599257
1 0.18958333333333333 0.6938775510204082 0.18229166666666666 0.027829313543599257
1 0.5677083333333334 0.6957328385899815 0.065625 0.025974025974025976
1 0.784375 0.7012987012987013 0.359375 0.03339517625231911