1 0.251171875 0.1265625 0.308203125 0.153125
1 0.54921875 0.15 0.2078125 0.125
1 0.828125 0.1625 0.275390625 0.128125
1 0.166015625 0.453125 0.009375 0.005729166666666666
1 0.175 0.453125 0.00703125 0.00625
1 0.163671875 0.45989583333333334 0.006640625 0.00625
1 0.173828125 0.45989583333333334 0.01328125 0.00625
0 0.29140625 0.40989583333333335 0.00546875 0.0020833333333333333
0 0.29609375 0.40989583333333335 0.004296875 0.003125
0 0.290234375 0.41302083333333334 0.004296875 0.003125
0 0.295703125 0.41354166666666664 0.0046875 0.003125
1 0.69609375 0.45677083333333335 0.008984375 0.005729166666666666
1 0.704296875 0.4578125 0.00703125 0.005208333333333333
1 0.69453125 0.4635416666666667 0.00625 0.00625
1 0.702734375 0.4635416666666667 0.009375 0.005729166666666666