1 0.26639344262295084 0.18543046357615894 0.14344262295081966 0.11920529801324503
1 0.38114754098360654 0.18543046357615894 0.07991803278688525 0.12582781456953643
1 0.4692622950819672 0.18543046357615894 0.06352459016393443 0.12582781456953643
1 0.5491803278688525 0.19205298013245034 0.08196721311475409 0.11920529801324503
1 0.625 0.1986754966887417 0.0430327868852459 0.11920529801324503
1 0.42008196721311475 0.41721854304635764 0.4057377049180328 0.25165562913907286
1 0.26639344262295084 0.6490066225165563 0.2540983606557377 0.11920529801324503
1 0.47950819672131145 0.6556291390728477 0.15778688524590165 0.11920529801324503
1 0.6311475409836066 0.6490066225165563 0.12704918032786885 0.11258278145695365