1 0.2115839243498818 0.19848771266540643 0.20094562647754138 0.1947069943289225
1 0.4101654846335697 0.2665406427221172 0.16430260047281323 0.14744801512287334
1 0.5898345153664303 0.30245746691871456 0.15130023640661938 0.13799621928166353
1 0.7541371158392435 0.31001890359168244 0.14420803782505912 0.17391304347826086
1 0.18203309692671396 0.43289224952741023 0.3416075650118203 0.3629489603024575
1 0.5070921985815603 0.5141776937618148 0.27541371158392436 0.31001890359168244
1 0.8037825059101655 0.5595463137996219 0.2647754137115839 0.28544423440453687
1 0.03664302600472813 0.6635160680529301 0.06501182033096926 0.08128544423440454
1 0.07565011820330969 0.6786389413988658 0.010638297872340425 0.015122873345935728
1 0.10047281323877069 0.6767485822306238 0.041371158392434985 0.07561436672967864
1 0.16430260047281323 0.6862003780718336 0.06855791962174941 0.07939508506616257
1 0.2364066193853428 0.6937618147448015 0.05200945626477541 0.06994328922495274
1 0.2730496453900709 0.7051039697542533 0.01182033096926714 0.013232514177693762
1 0.31796690307328607 0.7126654064272212 0.07919621749408984 0.09073724007561437
1 0.3900709219858156 0.7164461247637051 0.04964539007092199 0.07750472589792061
1 0.4385342789598109 0.722117202268431 0.031914893617021274 0.07561436672967864
1 0.4598108747044917 0.7315689981096408 0.010638297872340425 0.026465028355387523
1 0.48699763593380613 0.725897920604915 0.04609929078014184 0.07939508506616257
1 0.5437352245862884 0.7372400756143668 0.057919621749408984 0.06805293005671077
1 0.7151300236406619 0.7618147448015122 0.17375886524822695 0.08695652173913043
1 0.8865248226950354 0.7844990548204159 0.13829787234042554 0.07750472589792061
1 0.8108747044917257 0.776937618147448 0.008274231678486997 0.03213610586011342