1 0.22594142259414227 0.38866396761133604 0.3682008368200837 0.6720647773279352
1 0.7266387726638772 0.39271255060728744 0.5425383542538355 0.7125506072874493
1 0.41283124128312415 0.8178137651821862 0.09205020920502092 0.13360323886639677
1 0.5244072524407253 0.8097165991902834 0.11576011157601115 0.1862348178137652
1 0.6415620641562064 0.7894736842105263 0.11576011157601115 0.17408906882591094
1 0.7615062761506276 0.7773279352226721 0.11157601115760112 0.1700404858299595