0 0.24262820512820513 0.4391826923076923 0.020833333333333332 0.01730769230769231
0 0.2618589743589744 0.4408653846153846 0.020833333333333332 0.019471153846153846
1 0.4426282051282051 0.32716346153846154 0.04230769230769231 0.013221153846153846
1 0.40673076923076923 0.3170673076923077 0.12275641025641025 0.03918269230769231
1 0.6282051282051282 0.30673076923076925 0.047115384615384615 0.01826923076923077
1 0.6717948717948717 0.3057692307692308 0.04006410256410257 0.015625
1 0.7121794871794872 0.3021634615384615 0.041666666666666664 0.018028846153846152
1 0.4948717948717949 0.36754807692307695 0.24166666666666667 0.047596153846153844
1 0.5217948717948718 0.4028846153846154 0.0810897435897436 0.03293269230769231
1 0.5913461538461539 0.3992788461538462 0.05352564102564102 0.030048076923076924
1 0.43141025641025643 0.42283653846153846 0.10865384615384616 0.05048076923076923
1 0.5217948717948718 0.43485576923076924 0.07179487179487179 0.03173076923076923
1 0.5858974358974359 0.43173076923076925 0.05929487179487179 0.027884615384615386
1 0.6653846153846154 0.35504807692307694 0.02980769230769231 0.011298076923076923
1 0.6833333333333333 0.3557692307692308 0.010897435897435897 0.010817307692307692
1 0.6657051282051282 0.36706730769230766 0.027884615384615386 0.014663461538461538
1 0.6493589743589744 0.3802884615384615 0.029166666666666667 0.012980769230769231
1 0.6794871794871795 0.38293269230769234 0.03717948717948718 0.015865384615384615
1 0.4112179487179487 0.4733173076923077 0.040705128205128206 0.015384615384615385
1 0.441025641025641 0.46971153846153846 0.01955128205128205 0.007211538461538462
1 0.44134615384615383 0.47668269230769234 0.019230769230769232 0.007692307692307693
1 0.41762820512820514 0.4966346153846154 0.05416666666666667 0.02235576923076923
1 0.4592948717948718 0.4896634615384615 0.028205128205128206 0.010336538461538461
1 0.4596153846153846 0.5004807692307692 0.029487179487179487 0.010336538461538461
1 0.5131410256410256 0.4721153846153846 0.04519230769230769 0.015384615384615385
1 0.5455128205128205 0.4685096153846154 0.01987179487179487 0.007932692307692307
1 0.5455128205128205 0.47596153846153844 0.020192307692307693 0.007451923076923077
1 0.5205128205128206 0.49399038461538464 0.06314102564102564 0.02235576923076923
1 0.5669871794871795 0.4894230769230769 0.028525641025641025 0.00985576923076923
1 0.5676282051282051 0.4997596153846154 0.03012820512820513 0.010576923076923078
1 0.6198717948717949 0.47091346153846153 0.04038461538461539 0.014663461538461538
1 0.6487179487179487 0.4668269230769231 0.021153846153846155 0.007211538461538462
1 0.6496794871794872 0.4737980769230769 0.020192307692307693 0.0069711538461538465
1 0.6333333333333333 0.4932692307692308 0.06538461538461539 0.02139423076923077
1 0.6801282051282052 0.4879807692307692 0.03205128205128205 0.011057692307692308
1 0.6807692307692308 0.4987980769230769 0.03173076923076923 0.010336538461538461
0 0.4131410256410256 0.7108173076923077 0.017948717948717947 0.004086538461538462
1 0.41474358974358977 0.7158653846153846 0.04230769230769231 0.007932692307692307
0 0.41474358974358977 0.7213942307692308 0.023397435897435898 0.0033653846153846156
1 0.5041666666666667 0.7199519230769231 0.06442307692307692 0.008653846153846154
1 0.6073717948717948 0.7225961538461538 0.06153846153846154 0.010096153846153847
1 0.7022435897435897 0.7247596153846154 0.05993589743589744 0.00985576923076923
1 0.42980769230769234 0.7319711538461539 0.03397435897435897 0.009375
1 0.4599358974358974 0.7322115384615384 0.026923076923076925 0.009615384615384616
1 0.4862179487179487 0.7324519230769231 0.02403846153846154 0.010096153846153847
1 0.5044871794871795 0.7329326923076923 0.01217948717948718 0.009375
1 0.5253205128205128 0.7331730769230769 0.03012820512820513 0.008413461538461538
1 0.551923076923077 0.734375 0.020512820512820513 0.008173076923076924
1 0.5801282051282052 0.7348557692307692 0.03621794871794872 0.008173076923076924
1 0.6157051282051282 0.7370192307692308 0.032371794871794875 0.010096153846153847
1 0.6439102564102565 0.7377403846153846 0.023076923076923078 0.00985576923076923
1 0.6631410256410256 0.7377403846153846 0.015064102564102564 0.008413461538461538
1 0.6810897435897436 0.7389423076923077 0.01987179487179487 0.010336538461538461
1 0.9538461538461539 0.6771634615384615 0.05416666666666667 0.04014423076923077