1 0.6246153846153846 0.345 0.09692307692307692 0.0525
1 0.7076923076923077 0.3375 0.06 0.0525
1 0.6584615384615384 0.41 0.04 0.0275
1 0.5353846153846153 0.485 0.02923076923076923 0.03
1 0.5769230769230769 0.48 0.05076923076923077 0.035
1 0.6415384615384615 0.4825 0.07076923076923076 0.0375
1 0.703076923076923 0.4775 0.046153846153846156 0.0475
1 0.7523076923076923 0.4775 0.04923076923076923 0.04
1 0.5446153846153846 0.525 0.04461538461538461 0.0375
1 0.5892307692307692 0.5275 0.036923076923076927 0.0375
1 0.6461538461538462 0.5225 0.07230769230769231 0.0375
1 0.7046153846153846 0.52 0.036923076923076927 0.0375
1 0.74 0.5225 0.026153846153846153 0.035
1 0.5538461538461539 0.5675 0.05846153846153846 0.035
1 0.6076923076923076 0.5675 0.04461538461538461 0.035
1 0.6538461538461539 0.5675 0.043076923076923075 0.035
1 0.6938461538461539 0.57 0.03538461538461538 0.03
1 0.7353846153846154 0.5675 0.036923076923076927 0.035
1 0.7846153846153846 0.57 0.052307692307692305 0.03
1 0.5523076923076923 0.62 0.05076923076923077 0.035
1 0.6123076923076923 0.625 0.06153846153846154 0.03
1 0.6676923076923077 0.6225 0.04461538461538461 0.0425
1 0.7307692307692307 0.6225 0.07538461538461538 0.0375
1 0.5646153846153846 0.6625 0.07076923076923076 0.0375
1 0.6261538461538462 0.665 0.046153846153846156 0.04
1 0.6630769230769231 0.665 0.024615384615384615 0.0375
1 0.6923076923076923 0.67 0.03076923076923077 0.0425
1 0.7307692307692307 0.6675 0.04 0.04
1 0.7784615384615384 0.675 0.05076923076923077 0.04
1 0.5553846153846154 0.705 0.046153846153846156 0.0375
1 0.556923076923077 0.7575 0.043076923076923075 0.0375
1 0.5984615384615385 0.765 0.036923076923076927 0.0375
1 0.64 0.7625 0.043076923076923075 0.0375
1 0.6953846153846154 0.77 0.05846153846153846 0.0375
1 0.7569230769230769 0.775 0.05846153846153846 0.04
1 0.5553846153846154 0.8 0.04461538461538461 0.0375
1 0.5923076923076923 0.805 0.024615384615384615 0.0325
1 0.6353846153846154 0.805 0.05384615384615385 0.0375
1 0.6892307692307692 0.8125 0.046153846153846156 0.03
1 0.8969230769230769 0.8225 0.09384615384615384 0.1425
1 0.6630769230769231 0.9025 0.06 0.0325
1 0.7153846153846154 0.91 0.033846153846153845 0.03
1 0.7584615384615384 0.91 0.04461538461538461 0.0375
1 0.803076923076923 0.9175 0.03538461538461538 0.035