1 0.40914158305462656 0.153184165232358 0.16387959866220736 0.11359724612736662
1 0.5663322185061316 0.1549053356282272 0.13377926421404682 0.12220309810671257
1 0.45819397993311034 0.42168674698795183 0.09587513935340022 0.07401032702237521
1 0.5529542920847269 0.4199655765920826 0.08249721293199554 0.0757314974182444