1 0.3086283185840708 0.1640625 0.08960176991150443 0.228515625
1 0.38716814159292035 0.166015625 0.08185840707964602 0.255859375
1 0.5088495575221239 0.1328125 0.17146017699115043 0.251953125
1 0.4424778761061947 0.609375 0.20243362831858408 0.208984375
1 0.4303097345132743 0.8203125 0.28650442477876104 0.251953125