1 0.05269607843137255 0.18913398692810457 0.022365196078431373 0.009395424836601307
1 0.10998774509803921 0.2332516339869281 0.020526960784313725 0.01184640522875817
1 0.1056985294117647 0.24673202614379086 0.027879901960784315 0.010212418300653595
1 0.03707107843137255 0.28431372549019607 0.02267156862745098 0.008986928104575163
1 0.16697303921568626 0.24673202614379086 0.023284313725490197 0.010212418300653595
1 0.14276960784313725 0.315359477124183 0.028799019607843136 0.025326797385620915
1 0.17616421568627452 0.3006535947712418 0.030943627450980393 0.02369281045751634
1 0.2193627450980392 0.289624183006536 0.05545343137254902 0.023284313725490197
1 0.18474264705882354 0.3737745098039216 0.02971813725490196 0.02165032679738562
1 0.21966911764705882 0.3713235294117647 0.03462009803921569 0.017973856209150325
1 0.25980392156862747 0.37336601307189543 0.03707107843137255 0.016339869281045753
1 0.3011642156862745 0.3709150326797386 0.03860294117647059 0.018790849673202614
1 0.33486519607843135 0.3668300653594771 0.02144607843137255 0.018790849673202614
1 0.36642156862745096 0.36560457516339867 0.034926470588235295 0.017565359477124183
1 0.39950980392156865 0.36560457516339867 0.022058823529411766 0.016748366013071895
1 0.4414828431372549 0.3639705882352941 0.04963235294117647 0.021241830065359478
1 0.4837622549019608 0.3619281045751634 0.02542892156862745 0.020833333333333332
1 0.5159313725490197 0.3619281045751634 0.03002450980392157 0.02165032679738562
1 0.18351715686274508 0.39419934640522875 0.03799019607843137 0.015931372549019607
1 0.24479166666666666 0.39052287581699346 0.05912990196078431 0.020833333333333332
1 0.3017769607843137 0.3901143790849673 0.029411764705882353 0.02165032679738562
1 0.35110294117647056 0.38766339869281047 0.048100490196078434 0.02369281045751634
1 0.40870098039215685 0.38562091503267976 0.041666666666666664 0.02369281045751634
1 0.45925245098039214 0.3831699346405229 0.031862745098039214 0.024101307189542485
1 0.5104166666666666 0.3827614379084967 0.040747549019607844 0.01838235294117647
1 0.17892156862745098 0.4187091503267974 0.03615196078431373 0.02246732026143791
1 0.2190563725490196 0.4150326797385621 0.03860294117647059 0.01838235294117647
1 0.2417279411764706 0.4170751633986928 0.011029411764705883 0.018790849673202614
1 0.6075367647058824 0.4722222222222222 0.027879901960784315 0.024918300653594773
1 0.6510416666666666 0.47058823529411764 0.05422794117647059 0.024509803921568627
1 0.6948529411764706 0.46977124183006536 0.029411764705882353 0.02165032679738562
1 0.7282475490196079 0.46772875816993464 0.03431372549019608 0.025735294117647058
1 0.7702205882352942 0.4665032679738562 0.044730392156862746 0.02369281045751634
1 0.6078431372549019 0.4987745098039216 0.0272671568627451 0.02246732026143791
1 0.6409313725490197 0.4950980392156863 0.02389705882352941 0.02042483660130719
1 0.6767769607843137 0.49673202614379086 0.04350490196078431 0.024101307189542485
1 0.7313112745098039 0.4950980392156863 0.06158088235294118 0.024509803921568627
1 0.6133578431372549 0.5228758169934641 0.037377450980392156 0.021241830065359478
1 0.6556372549019608 0.5220588235294118 0.04381127450980392 0.02369281045751634
1 0.7034313725490197 0.5208333333333334 0.03952205882352941 0.02165032679738562
1 0.7536764705882353 0.5183823529411765 0.05667892156862745 0.02246732026143791
1 0.6130514705882353 0.548202614379085 0.03400735294117647 0.022058823529411766
1 0.6498161764705882 0.548202614379085 0.030943627450980393 0.02287581699346405
1 0.508578431372549 0.6617647058823529 0.03615196078431373 0.026552287581699346
1 0.5441176470588235 0.6576797385620915 0.030330882352941176 0.03145424836601307
1 0.5824142156862745 0.6589052287581699 0.04442401960784314 0.026552287581699346
1 0.6283700980392157 0.6593137254901961 0.04381127450980392 0.03227124183006536
1 0.48284313725490197 0.6924019607843137 0.0585171568627451 0.03390522875816993
1 0.5379901960784313 0.6981209150326797 0.046875 0.03104575163398693
1 0.5729166666666666 0.6973039215686274 0.017769607843137254 0.024509803921568627
1 0.6069240196078431 0.6968954248366013 0.04871323529411765 0.030637254901960783
1 0.6599264705882353 0.7001633986928104 0.05422794117647059 0.03308823529411765
1 0.5419730392156863 0.7328431372549019 0.04258578431372549 0.03390522875816993
1 0.5903799019607843 0.7340686274509803 0.04656862745098039 0.03594771241830065