1 0.18375 0.2633333333333333 0.0225 0.011666666666666667
1 0.1975 0.19 0.07375 0.075
1 0.35625 0.17333333333333334 0.0925 0.1
1 0.44875 0.16666666666666666 0.075 0.08666666666666667
1 0.53 0.155 0.08 0.09833333333333333
1 0.6375 0.16 0.125 0.105
1 0.26875 0.315 0.0625 0.09833333333333333
1 0.355 0.295 0.09875 0.10166666666666667
1 0.4475 0.2816666666666667 0.07375 0.10833333333333334
1 0.54375 0.27666666666666667 0.09875 0.10166666666666667
1 0.6425 0.27166666666666667 0.0875 0.10166666666666667
1 0.74 0.27166666666666667 0.09375 0.12333333333333334
1 0.165 0.425 0.07625 0.115
1 0.2575 0.43833333333333335 0.11125 0.09833333333333333
1 0.35375 0.43333333333333335 0.05875 0.11333333333333333
1 0.45625 0.42 0.1425 0.125
1 0.59 0.405 0.10625 0.105
1 0.73125 0.4033333333333333 0.1575 0.12166666666666667
1 0.8625 0.3933333333333333 0.1075 0.11833333333333333
1 0.21 0.5616666666666666 0.08875 0.11666666666666667
1 0.2925 0.5666666666666667 0.06875 0.105
1 0.37 0.5516666666666666 0.07875 0.11
1 0.455 0.54 0.07875 0.11333333333333333
1 0.5575 0.5416666666666666 0.11 0.10833333333333334
1 0.63875 0.5366666666666666 0.04875 0.11166666666666666
1 0.7175 0.55 0.0975 0.11166666666666666
1 0.8225 0.53 0.095 0.10833333333333334
1 0.3325 0.6883333333333334 0.0825 0.11333333333333333
1 0.43375 0.6883333333333334 0.10625 0.11833333333333333
1 0.55 0.6816666666666666 0.11125 0.10833333333333334
1 0.68875 0.69 0.15125 0.12
1 0.27625 0.6633333333333333 0.02375 0.028333333333333332
1 0.20375 0.8183333333333334 0.0875 0.11
1 0.2975 0.8233333333333334 0.08875 0.13666666666666666
1 0.4025 0.825 0.11125 0.11833333333333333
1 0.52875 0.8216666666666667 0.1275 0.13666666666666666
1 0.6425 0.82 0.09125 0.11166666666666666
1 0.7525 0.825 0.1225 0.09833333333333333
1 0.83 0.7966666666666666 0.02125 0.02666666666666667
1 0.865 0.83 0.0275 0.10166666666666667
1 0.20625 0.26166666666666666 0.0225 0.01