1 0.333984375 0.18529411764705883 0.048828125 0.05
1 0.375 0.19117647058823528 0.025390625 0.061764705882352944
1 0.40234375 0.19117647058823528 0.02734375 0.047058823529411764
1 0.44140625 0.19411764705882353 0.05078125 0.047058823529411764
1 0.486328125 0.19117647058823528 0.037109375 0.04411764705882353
1 0.521484375 0.19411764705882353 0.02734375 0.047058823529411764
1 0.5546875 0.19411764705882353 0.03515625 0.04411764705882353
1 0.599609375 0.19705882352941176 0.046875 0.04411764705882353
1 0.654296875 0.2 0.05859375 0.058823529411764705
1 0.705078125 0.2 0.041015625 0.047058823529411764
1 0.32421875 0.25 0.05078125 0.05588235294117647
1 0.37109375 0.2529411764705882 0.041015625 0.05588235294117647
1 0.42578125 0.25 0.05859375 0.05
1 0.482421875 0.2529411764705882 0.046875 0.05
1 0.525390625 0.25588235294117645 0.037109375 0.05
1 0.568359375 0.26176470588235295 0.048828125 0.05588235294117647
1 0.62109375 0.25882352941176473 0.044921875 0.05
1 0.671875 0.26176470588235295 0.05078125 0.052941176470588235
1 0.716796875 0.26176470588235295 0.03515625 0.05
1 0.13671875 0.6823529411764706 0.056640625 0.07941176470588235
1 0.193359375 0.6970588235294117 0.0625 0.08823529411764706
1 0.251953125 0.6882352941176471 0.048828125 0.08235294117647059
1 0.3125 0.6941176470588235 0.064453125 0.08235294117647059
1 0.365234375 0.7058823529411765 0.03515625 0.06470588235294118
1 0.4140625 0.7029411764705882 0.064453125 0.08235294117647059
1 0.484375 0.7029411764705882 0.064453125 0.07647058823529412
1 0.55078125 0.711764705882353 0.05859375 0.07941176470588235
1 0.595703125 0.7176470588235294 0.033203125 0.06470588235294118
1 0.640625 0.7235294117647059 0.05078125 0.07647058823529412
1 0.69921875 0.7147058823529412 0.0546875 0.07058823529411765