1 0.02 0.27166666666666667 0.0175 0.021666666666666667
0 0.01625 0.2916666666666667 0.0225 0.01
0 0.0125 0.31 0.0175 0.015
0 0.015 0.33666666666666667 0.01125 0.015
0 0.0125 0.36 0.01625 0.011666666666666667
0 0.00875 0.3883333333333333 0.015 0.016666666666666666
0 0.005 0.415 0.01 0.021666666666666667
1 0.165 0.20333333333333334 0.1225 0.12166666666666667
1 0.31375 0.19333333333333333 0.17375 0.13666666666666666
1 0.50875 0.14666666666666667 0.18375 0.14
1 0.7125 0.10833333333333334 0.19375 0.15833333333333333
1 0.26625 0.345 0.21125 0.14666666666666667
1 0.45125 0.3333333333333333 0.14375 0.16666666666666666
1 0.62625 0.30666666666666664 0.17375 0.135
1 0.1025 0.5416666666666666 0.0875 0.14333333333333334
1 0.22875 0.5266666666666666 0.1575 0.15666666666666668
1 0.38625 0.535 0.14625 0.14333333333333334
1 0.54625 0.52 0.15625 0.15166666666666667
1 0.74125 0.47833333333333333 0.19875 0.17833333333333334
1 0.05125 0.7266666666666667 0.1025 0.16833333333333333
1 0.19625 0.7166666666666667 0.18625 0.16666666666666666
1 0.42625 0.7316666666666667 0.2375 0.13333333333333333
1 0.6375 0.7183333333333334 0.14 0.13833333333333334
1 0.82875 0.6883333333333334 0.22 0.17666666666666667