1 0.29021372328458944 0.13818722139673106 0.27671541057367827 0.2763744427934621
1 0.5973003374578177 0.1812778603268945 0.3093363329583802 0.26448736998514116
1 0.8672665916760405 0.2303120356612184 0.22384701912260968 0.23922734026745915
1 0.3937007874015748 0.3447251114413076 0.2283464566929134 0.17087667161961367
1 0.7041619797525309 0.38781575037147104 0.37907761529808776 0.18424962852897475
1 0.25646794150731156 0.5007429420505201 0.18110236220472442 0.10401188707280833
1 0.46006749156355453 0.512630014858841 0.19010123734533182 0.10549777117384844
1 0.6625421822272216 0.5423476968796433 0.1856017997750281 0.11292719167904904
1 0.8818897637795275 0.5661218424962853 0.22609673790776152 0.09063893016344725
1 0.2722159730033746 0.586924219910847 0.1327334083239595 0.09658246656760773
1 0.4420697412823397 0.5973254086181278 0.19347581552305962 0.08469539375928678
1 0.6501687289088864 0.6166419019316494 0.2092238470191226 0.09361069836552749
1 0.8661417322834646 0.6463595839524517 0.20022497187851518 0.09063893016344725
1 0.2283464566929134 0.6641901931649331 0.03487064116985377 0.05052005943536404
1 0.28008998875140606 0.6731054977711739 0.05849268841394826 0.04606240713224369
1 0.33858267716535434 0.6790490341753344 0.04499437570303712 0.04011887072808321
1 0.37682789651293586 0.6805349182763745 0.03262092238470191 0.04606240713224369
1 0.4229471316085489 0.6894502228826151 0.0562429696287964 0.05646359583952452
1 0.9257592800899888 0.7310549777117384 0.1327334083239595 0.0475482912332838