1 0.09625 0.2683333333333333 0.10875 0.26666666666666666
1 0.25875 0.2966666666666667 0.21375 0.3283333333333333
1 0.445 0.30666666666666664 0.16375 0.3333333333333333
1 0.12375 0.485 0.0975 0.12666666666666668
1 0.22875 0.48333333333333334 0.11125 0.12666666666666668
1 0.16125 0.6983333333333334 0.19375 0.30333333333333334
1 0.36 0.51 0.09625 0.07333333333333333
1 0.3475 0.5983333333333334 0.0575 0.07166666666666667
1 0.41625 0.6016666666666667 0.09125 0.09
1 0.36375 0.685 0.10375 0.07166666666666667
1 0.4675 0.68 0.11125 0.08666666666666667
1 0.37 0.7783333333333333 0.10625 0.07
1 0.35375 0.86 0.0625 0.07833333333333334
1 0.4275 0.8566666666666667 0.0875 0.07666666666666666