1 0.15625 0.1111111111111111 0.048828125 0.041666666666666664
1 0.22265625 0.1111111111111111 0.0703125 0.034722222222222224
1 0.31640625 0.10416666666666667 0.09765625 0.03819444444444445
1 0.41015625 0.10069444444444445 0.072265625 0.03819444444444445
1 0.5 0.10069444444444445 0.0859375 0.041666666666666664
1 0.615234375 0.09027777777777778 0.130859375 0.04513888888888889
1 0.732421875 0.08333333333333333 0.083984375 0.04513888888888889
1 0.10546875 0.1701388888888889 0.12109375 0.09375
1 0.30859375 0.1701388888888889 0.25390625 0.09027777777777778
1 0.6640625 0.16319444444444445 0.416015625 0.09722222222222222
1 0.111328125 0.2847222222222222 0.052734375 0.0625
1 0.171875 0.2777777777777778 0.064453125 0.0625
1 0.259765625 0.2743055555555556 0.09765625 0.06597222222222222
1 0.3515625 0.2743055555555556 0.076171875 0.06597222222222222
1 0.4453125 0.2743055555555556 0.1015625 0.0625
1 0.54296875 0.2708333333333333 0.08203125 0.06597222222222222
1 0.6171875 0.2708333333333333 0.0546875 0.0625
1 0.697265625 0.2777777777777778 0.09375 0.0625
1 0.796875 0.2638888888888889 0.09375 0.06597222222222222
1 0.091796875 0.3576388888888889 0.095703125 0.05555555555555555
1 0.169921875 0.3541666666666667 0.05078125 0.059027777777777776
1 0.23828125 0.34375 0.080078125 0.06944444444444445
1 0.310546875 0.34375 0.056640625 0.059027777777777776
1 0.388671875 0.3506944444444444 0.099609375 0.059027777777777776
1 0.498046875 0.34375 0.1015625 0.06597222222222222
1 0.615234375 0.34375 0.1171875 0.06597222222222222
1 0.728515625 0.3402777777777778 0.0859375 0.06944444444444445
1 0.833984375 0.3368055555555556 0.109375 0.06597222222222222
0 0.326171875 0.6458333333333334 0.0546875 0.013888888888888888
1 0.30078125 0.6770833333333334 0.01171875 0.041666666666666664
1 0.314453125 0.6770833333333334 0.021484375 0.03819444444444445
1 0.33984375 0.6770833333333334 0.03125 0.03819444444444445
0 0.650390625 0.6597222222222222 0.02734375 0.020833333333333332
0 0.673828125 0.6597222222222222 0.01953125 0.024305555555555556
0 0.646484375 0.6805555555555556 0.021484375 0.020833333333333332
0 0.666015625 0.6840277777777778 0.021484375 0.020833333333333332
1 0.66015625 0.7013888888888888 0.046875 0.020833333333333332