1 0.21145833333333333 0.39436619718309857 0.036458333333333336 0.03169014084507042
1 0.253125 0.38204225352112675 0.042708333333333334 0.02992957746478873
1 0.2947916666666667 0.3714788732394366 0.0375 0.02640845070422535
1 0.20625 0.4225352112676056 0.01875 0.02112676056338028
1 0.225 0.41901408450704225 0.017708333333333333 0.02640845070422535
1 0.24791666666666667 0.4137323943661972 0.028125 0.028169014084507043
1 0.26979166666666665 0.40492957746478875 0.011458333333333333 0.022887323943661973
1 0.28229166666666666 0.40316901408450706 0.0125 0.01936619718309859
1 0.3177083333333333 0.39436619718309857 0.057291666666666664 0.03345070422535211
1 0.2552083333333333 0.49119718309859156 0.11041666666666666 0.09859154929577464
1 0.3614583333333333 0.4595070422535211 0.08125 0.0880281690140845
1 0.25729166666666664 0.5704225352112676 0.08645833333333333 0.08450704225352113
1 0.365625 0.5422535211267606 0.109375 0.09683098591549295
1 0.459375 0.5105633802816901 0.06354166666666666 0.07394366197183098
1 0.13854166666666667 0.43485915492957744 0.015625 0.061619718309859156
1 0.14791666666666667 0.5052816901408451 0.015625 0.07394366197183098
1 0.15625 0.579225352112676 0.014583333333333334 0.06690140845070422
1 0.17395833333333333 0.7323943661971831 0.017708333333333333 0.06866197183098592
1 0.18125 0.7992957746478874 0.017708333333333333 0.0528169014084507
1 0.1875 0.8626760563380281 0.015625 0.06338028169014084
1 0.196875 0.9330985915492958 0.017708333333333333 0.07394366197183098
1 0.20208333333333334 0.9841549295774648 0.010416666666666666 0.02112676056338028