1 0.40512820512820513 0.39110576923076923 0.24871794871794872 0.12524038461538461
1 0.42243589743589743 0.5045673076923077 0.2375 0.12596153846153846
1 0.3769230769230769 0.5896634615384615 0.11570512820512821 0.048317307692307694
1 0.4894230769230769 0.5728365384615385 0.10705128205128205 0.05048076923076923
0 0.8253205128205128 0.4252403846153846 0.015064102564102564 0.006009615384615385
1 0.8163461538461538 0.43365384615384617 0.03461538461538462 0.013461538461538462
0 0.6669871794871794 0.3769230769230769 0.014423076923076924 0.004086538461538462
1 0.7733974358974359 0.5651442307692308 0.01730769230769231 0.014182692307692308
0 0.8955128205128206 0.5639423076923077 0.04935897435897436 0.027403846153846154
0 0.9214743589743589 0.5677884615384615 0.07916666666666666 0.04975961538461538
0 0.9887820512820513 0.5754807692307692 0.021153846153846155 0.015384615384615385
1 0.510576923076923 0.24879807692307693 0.05096153846153846 0.04879807692307692
1 0.6387820512820512 0.2074519230769231 0.0798076923076923 0.07115384615384615
1 0.6932692307692307 0.1971153846153846 0.017628205128205128 0.014423076923076924
1 0.7458333333333333 0.1685096153846154 0.07916666666666666 0.08653846153846154
1 0.8621794871794872 0.14567307692307693 0.14358974358974358 0.08341346153846153
1 0.6785256410256411 0.23076923076923078 0.021794871794871794 0.019951923076923075
1 0.7384615384615385 0.21466346153846153 0.09647435897435898 0.041346153846153845
1 0.7939102564102564 0.20096153846153847 0.010256410256410256 0.009134615384615385
1 0.8660256410256411 0.18028846153846154 0.13397435897435897 0.05504807692307692
0 0.5016025641025641 0.2778846153846154 0.027243589743589744 0.01730769230769231
0 0.08782051282051281 0.6112980769230769 0.041987179487179484 0.010817307692307692
0 0.013782051282051282 0.6721153846153847 0.027564102564102563 0.013942307692307693
0 0.8919871794871795 0.6548076923076923 0.06282051282051282 0.041826923076923074
1 0.9605769230769231 0.6576923076923077 0.05512820512820513 0.03942307692307692