1 0.07421875 0.12268518518518519 0.049262152777777776 0.02806712962962963
1 0.13758680555555555 0.12384259259259259 0.06901041666666667 0.03125
1 0.1990017361111111 0.12586805555555555 0.044487847222222224 0.026909722222222224
1 0.24500868055555555 0.12962962962962962 0.04079861111111111 0.030671296296296297
1 0.09526909722222222 0.15335648148148148 0.0234375 0.03211805555555555
1 0.1284722222222222 0.15653935185185186 0.038628472222222224 0.02806712962962963
1 0.16710069444444445 0.15711805555555555 0.03624131944444445 0.02922453703703704
1 0.1996527777777778 0.15914351851851852 0.025390625 0.030671296296296297
1 0.22135416666666666 0.1629050925925926 0.013888888888888888 0.023148148148148147
1 0.3337673611111111 0.15856481481481483 0.10698784722222222 0.05439814814814815
1 0.4264322916666667 0.16377314814814814 0.0642361111111111 0.052662037037037035