1 0.3390625 0.22109375 0.1 0.034765625
1 0.4317708333333333 0.223828125 0.06510416666666667 0.032421875
1 0.5072916666666667 0.219921875 0.07239583333333334 0.052734375
1 0.6041666666666666 0.225390625 0.1 0.0375
1 0.4203125 0.265625 0.0609375 0.036328125
1 0.5078125 0.26640625 0.08958333333333333 0.034765625
1 0.21614583333333334 0.342578125 0.053125 0.0375
1 0.2875 0.340234375 0.08229166666666667 0.0453125
1 0.22708333333333333 0.380078125 0.020833333333333332 0.026953125
1 0.265625 0.380078125 0.05677083333333333 0.0296875
1 0.55 0.345703125 0.0765625 0.038671875
1 0.6046875 0.349609375 0.022395833333333334 0.028515625
1 0.6625 0.34765625 0.07916666666666666 0.042578125
1 0.7328125 0.35234375 0.0515625 0.028515625
1 0.6067708333333334 0.385546875 0.043229166666666666 0.030859375
1 0.6614583333333334 0.38828125 0.059895833333333336 0.030859375
1 0.7380208333333333 0.406640625 0.0515625 0.0234375
0 0.8895833333333333 0.523828125 0.044270833333333336 0.012890625
0 0.8838541666666667 0.534765625 0.07083333333333333 0.008984375
0 0.8541666666666666 0.559375 0.011979166666666667 0.011328125
1 0.8692708333333333 0.56015625 0.013541666666666667 0.01015625
1 0.8854166666666666 0.560546875 0.015625 0.008984375
0 0.9083333333333333 0.5609375 0.027604166666666666 0.01171875
1 0.8552083333333333 0.578125 0.034375 0.023046875
1 0.8989583333333333 0.580859375 0.04635416666666667 0.0234375
0 0.8640625 0.598046875 0.020833333333333332 0.008984375
0 0.8890625 0.598828125 0.026041666666666668 0.010546875
0 0.9119791666666667 0.598828125 0.0171875 0.010546875
0 0.8578125 0.609765625 0.029166666666666667 0.014453125
0 0.8802083333333334 0.611328125 0.011979166666666667 0.0140625
0 0.9 0.6078125 0.0203125 0.010546875
0 0.8614583333333333 0.6265625 0.036458333333333336 0.011328125
0 0.9432291666666667 0.475 0.023958333333333335 0.015625
0 0.95625 0.46953125 0.015625 0.012890625
0 0.9708333333333333 0.46796875 0.020833333333333332 0.0140625
1 0.9645833333333333 0.490234375 0.06354166666666666 0.030859375
0 0.9484375 0.51484375 0.020833333333333332 0.010546875
0 0.9661458333333334 0.510546875 0.022395833333333334 0.01171875
0 0.9880208333333333 0.5078125 0.020833333333333332 0.014453125
0 0.9630208333333333 0.525390625 0.06041666666666667 0.0203125
0 0.3380208333333333 0.52578125 0.025520833333333333 0.006640625
0 0.33489583333333334 0.53359375 0.026041666666666668 0.011328125
1 0.4640625 0.510546875 0.029166666666666667 0.01953125
0 0.5036458333333333 0.5125 0.03958333333333333 0.015625
1 0.1734375 0.44765625 0.051041666666666666 0.02890625
1 0.22604166666666667 0.447265625 0.049479166666666664 0.0296875
1 0.26614583333333336 0.445703125 0.033854166666666664 0.022265625
1 0.328125 0.44609375 0.10208333333333333 0.021875
1 0.6072916666666667 0.787890625 0.03697916666666667 0.026171875
1 0.5473958333333333 0.5515625 0.022395833333333334 0.00859375
1 0.1828125 0.583984375 0.013020833333333334 0.01953125
1 0.328125 0.5875 0.0265625 0.01015625
1 0.721875 0.5578125 0.015104166666666667 0.015625
1 0.7166666666666667 0.58515625 0.01875 0.011328125