1 0.48 0.08166666666666667 0.1025 0.12333333333333334
1 0.41625 0.17166666666666666 0.05125 0.11333333333333333
1 0.45375 0.17833333333333334 0.035 0.11833333333333333
1 0.4925 0.19333333333333333 0.04875 0.13333333333333333
1 0.54375 0.22166666666666668 0.055 0.12166666666666667
1 0.8175 0.34 0.17375 0.11666666666666667
1 0.735 0.46166666666666667 0.08875 0.11333333333333333
1 0.86625 0.435 0.16375 0.13
1 0.075 0.6733333333333333 0.0225 0.028333333333333332