1 0.05416666666666667 0.20841346153846155 0.09134615384615384 0.03774038461538461
1 0.12692307692307692 0.20432692307692307 0.04935897435897436 0.036298076923076926
1 0.19326923076923078 0.20264423076923077 0.0810897435897436 0.039663461538461536
1 0.12371794871794872 0.2644230769230769 0.2076923076923077 0.06610576923076923
1 0.3262820512820513 0.253125 0.19326923076923078 0.057692307692307696
1 0.6349358974358974 0.8637019230769231 0.38237179487179485 0.05432692307692308
1 0.4878205128205128 0.9048076923076923 0.07019230769230769 0.014663461538461538
1 0.5647435897435897 0.9045673076923076 0.08365384615384615 0.020673076923076922
1 0.6346153846153846 0.9052884615384615 0.05384615384615385 0.01730769230769231
1 0.701602564102564 0.9028846153846154 0.0782051282051282 0.020673076923076922
1 0.7762820512820513 0.9057692307692308 0.06923076923076923 0.021634615384615384
1 0.32724358974358975 0.9740384615384615 0.052884615384615384 0.019951923076923075
1 0.5131410256410256 0.9709134615384616 0.05064102564102564 0.01971153846153846
1 0.6907051282051282 0.9706730769230769 0.058333333333333334 0.024759615384615383
1 0.75 0.9699519230769231 0.05384615384615385 0.018028846153846152
1 0.8163461538461538 0.9699519230769231 0.07275641025641026 0.018028846153846152