1 0.45490981963927857 0.8263305322128851 0.17635270541082165 0.07282913165266107
1 0.6172344689378757 0.8263305322128851 0.1523046092184369 0.07282913165266107
1 0.218436873747495 0.9187675070028011 0.21042084168336672 0.1568627450980392
1 0.5410821643286573 0.9411764705882353 0.3847695390781563 0.11484593837535013
1 0.8597194388777555 0.938375350140056 0.21643286573146292 0.11764705882352941