1 0.44142857142857145 0.2780952380952381 0.11857142857142858 0.05714285714285714
1 0.5342857142857143 0.2723809523809524 0.054285714285714284 0.045714285714285714
1 0.6042857142857143 0.26666666666666666 0.07571428571428572 0.05142857142857143
1 0.34285714285714286 0.3619047619047619 0.05714285714285714 0.05333333333333334
1 0.39714285714285713 0.3466666666666667 0.047142857142857146 0.07238095238095238
1 0.43714285714285717 0.3466666666666667 0.03571428571428571 0.06095238095238095
1 0.49857142857142855 0.34285714285714286 0.08142857142857143 0.07428571428571429
1 0.5785714285714286 0.3352380952380952 0.07 0.06476190476190476
1 0.6685714285714286 0.3295238095238095 0.09714285714285714 0.08
0 0.42857142857142855 0.7333333333333333 0.017142857142857144 0.005714285714285714
0 0.4257142857142857 0.7428571428571429 0.02 0.015238095238095238
0 0.29 0.8133333333333334 0.055714285714285716 0.09333333333333334
0 0.34 0.8095238095238095 0.02857142857142857 0.013333333333333334
1 0.3385714285714286 0.8266666666666667 0.027142857142857142 0.011428571428571429