1 0.22125 0.08216783216783216 0.2975 0.12762237762237763
1 0.4325 0.06818181818181818 0.11 0.12412587412587413
1 0.69125 0.06118881118881119 0.39875 0.12237762237762238
1 0.15125 0.19755244755244755 0.05625 0.02972027972027972
1 0.21125 0.19755244755244755 0.06125 0.03146853146853147
1 0.27125 0.1958041958041958 0.04875 0.02972027972027972
1 0.34375 0.19230769230769232 0.08875 0.033216783216783216
1 0.095 0.24475524475524477 0.0975 0.0472027972027972
1 0.16 0.24125874125874125 0.03125 0.04020979020979021
1 0.24 0.23776223776223776 0.11875 0.0472027972027972
1 0.35125 0.23426573426573427 0.09125 0.05244755244755245
1 0.435 0.23251748251748253 0.0675 0.05244755244755245
1 0.5925 0.21678321678321677 0.13 0.03671328671328671
1 0.7375 0.21328671328671328 0.0425 0.026223776223776224
1 0.81 0.1958041958041958 0.11125 0.057692307692307696
1 0.77 0.24125874125874125 0.0375 0.027972027972027972
1 0.81 0.24125874125874125 0.0425 0.03146853146853147
1 0.85 0.24125874125874125 0.035 0.03146853146853147
1 0.8875 0.23776223776223776 0.03625 0.03146853146853147
1 0.04875 0.3968531468531469 0.05375 0.026223776223776224
1 0.085 0.3968531468531469 0.0175 0.026223776223776224
1 0.1275 0.3968531468531469 0.06625 0.03146853146853147
1 0.19375 0.42132867132867136 0.04 0.06293706293706294
1 0.06 0.28321678321678323 0.0125 0.013986013986013986
1 0.07375 0.27972027972027974 0.015 0.012237762237762238
1 0.09 0.27972027972027974 0.0175 0.012237762237762238
1 0.105 0.27972027972027974 0.01875 0.015734265734265736
1 0.11875 0.27972027972027974 0.00625 0.013986013986013986
1 0.12875 0.2762237762237762 0.01125 0.012237762237762238
1 0.14375 0.27797202797202797 0.01875 0.013986013986013986
1 0.16125 0.2762237762237762 0.01625 0.015734265734265736
1 0.1825 0.2762237762237762 0.02625 0.015734265734265736
1 0.22375 0.2762237762237762 0.015 0.013986013986013986
1 0.2425 0.2744755244755245 0.0175 0.013986013986013986
1 0.26 0.2727272727272727 0.0175 0.015734265734265736
1 0.27625 0.2744755244755245 0.01375 0.013986013986013986
1 0.29 0.2727272727272727 0.01375 0.015734265734265736
1 0.33125 0.270979020979021 0.07 0.019230769230769232
1 0.37 0.2692307692307692 0.005 0.005244755244755245
1 0.38 0.2692307692307692 0.0125 0.017482517482517484
1 0.42 0.2674825174825175 0.07125 0.019230769230769232
1 0.205 0.2762237762237762 0.01875 0.013986013986013986
0 0.09375 0.493006993006993 0.025 0.02972027972027972
0 0.08375 0.513986013986014 0.04875 0.02972027972027972
0 0.07875 0.5192307692307693 0.03125 0.019230769230769232
0 0.07375 0.5244755244755245 0.02875 0.019230769230769232
0 0.0575 0.5297202797202797 0.01625 0.006993006993006993
0 0.16125 0.5297202797202797 0.03875 0.006993006993006993
0 0.1625 0.5367132867132867 0.02 0.0034965034965034965
0 0.22625 0.5332167832167832 0.0325 0.005244755244755245
0 0.22625 0.5384615384615384 0.02875 0.005244755244755245
0 0.27 0.541958041958042 0.02625 0.0472027972027972
0 0.27 0.5541958041958042 0.035 0.06118881118881119
0 0.13875 0.6468531468531469 0.00875 0.024475524475524476
0 0.1425 0.5157342657342657 0.015 0.012237762237762238
1 0.15875 0.5157342657342657 0.01875 0.015734265734265736
0 0.175 0.5174825174825175 0.01 0.012237762237762238
0 0.18375 0.5174825174825175 0.0075 0.012237762237762238
0 0.20125 0.5332167832167832 0.0125 0.024475524475524476
0 0.2075 0.5524475524475524 0.00625 0.01048951048951049
1 0.20875 0.5227272727272727 0.01375 0.015734265734265736
1 0.225 0.5209790209790209 0.01625 0.017482517482517484
0 0.24125 0.5227272727272727 0.01625 0.013986013986013986
1 0.3275 0.4772727272727273 0.03875 0.026223776223776224
1 0.3575 0.4772727272727273 0.0175 0.024475524475524476
0 0.355 0.4527972027972028 0.025 0.013986013986013986
0 0.46625 0.4493006993006993 0.035 0.012237762237762238
1 0.46875 0.47202797202797203 0.03625 0.024475524475524476
1 0.51 0.47202797202797203 0.035 0.026223776223776224
0 0.335 0.5 0.03375 0.013986013986013986
0 0.36 0.5 0.00875 0.006993006993006993
0 0.33375 0.506993006993007 0.03375 0.012237762237762238
0 0.2875 0.5332167832167832 0.02125 0.033216783216783216
0 0.36 0.5104895104895105 0.0075 0.006993006993006993
0 0.3975 0.5297202797202797 0.04375 0.050699300699300696
0 0.4025 0.5804195804195804 0.0375 0.05944055944055944
1 0.30875 0.6503496503496503 0.01 0.017482517482517484
1 0.3125 0.6625874125874126 0.00625 0.008741258741258742
0 0.32 0.6765734265734266 0.01125 0.02097902097902098
1 0.29625 0.6381118881118881 0.01125 0.017482517482517484
1 0.3025 0.6555944055944056 0.0125 0.026223776223776224
0 0.5925 0.7255244755244755 0.01875 0.033216783216783216
1 0.72125 0.6555944055944056 0.01625 0.02097902097902098
1 0.72875 0.6678321678321678 0.0075 0.006993006993006993
1 0.70625 0.6433566433566433 0.0125 0.019230769230769232
1 0.71625 0.6643356643356644 0.0175 0.026223776223776224
1 0.60625 0.5227272727272727 0.03875 0.038461538461538464
1 0.61 0.5681818181818182 0.0375 0.03496503496503497
1 0.615 0.6101398601398601 0.03875 0.038461538461538464
0 0.6125 0.6555944055944056 0.015 0.045454545454545456
1 0.66625 0.47027972027972026 0.02375 0.015734265734265736
1 0.70375 0.46153846153846156 0.05625 0.03146853146853147
0 0.70875 0.48426573426573427 0.0675 0.008741258741258742
0 0.67375 0.49475524475524474 0.03375 0.006993006993006993
0 0.675 0.506993006993007 0.0375 0.006993006993006993
0 0.7375 0.4982517482517482 0.04 0.012237762237762238
0 0.73625 0.5104895104895105 0.03875 0.01048951048951049
0 0.7975 0.5384615384615384 0.01625 0.019230769230769232
0 0.81125 0.5227272727272727 0.01625 0.026223776223776224
1 0.82375 0.5052447552447552 0.0125 0.019230769230769232
1 0.83125 0.493006993006993 0.01375 0.017482517482517484
0 0.845 0.493006993006993 0.01 0.017482517482517484
0 0.85375 0.5034965034965035 0.01625 0.013986013986013986
0 0.86625 0.534965034965035 0.01125 0.024475524475524476
0 0.8875 0.5157342657342657 0.01625 0.033216783216783216
1 0.82375 0.5594405594405595 0.0125 0.006993006993006993
1 0.8325 0.5576923076923077 0.0025 0.008741258741258742
0 0.84125 0.5594405594405595 0.01375 0.008741258741258742
0 0.8325 0.5227272727272727 0.00625 0.005244755244755245
0 0.84 0.5227272727272727 0.00625 0.006993006993006993
0 0.8475 0.5209790209790209 0.005 0.005244755244755245
0 0.85625 0.5227272727272727 0.0075 0.006993006993006993
0 0.86375 0.5209790209790209 0.00625 0.005244755244755245
0 0.83875 0.5437062937062938 0.00875 0.005244755244755245
0 0.8475 0.541958041958042 0.00875 0.005244755244755245
0 0.85625 0.5437062937062938 0.005 0.0034965034965034965
0 0.91625 0.4807692307692308 0.0125 0.026223776223776224
0 0.92375 0.5034965034965035 0.01 0.019230769230769232
0 0.93125 0.5227272727272727 0.01 0.019230769230769232
0 0.9425 0.541958041958042 0.00375 0.006993006993006993
1 0.94875 0.5384615384615384 0.00375 0.008741258741258742
1 0.95875 0.5367132867132867 0.01375 0.013986013986013986
1 0.9725 0.5314685314685315 0.01125 0.012237762237762238
0 0.9875 0.527972027972028 0.015 0.012237762237762238
0 0.97 0.541958041958042 0.04 0.015734265734265736
0 0.89625 0.5332167832167832 0.005 0.017482517482517484
0 0.89875 0.5174825174825175 0.005 0.012237762237762238
0 0.90375 0.5017482517482518 0.0075 0.027972027972027972
1 0.83375 0.5332167832167832 0.0175 0.012237762237762238
1 0.85375 0.5314685314685315 0.02 0.012237762237762238
0 0.87625 0.5314685314685315 0.01375 0.013986013986013986
1 0.91 0.5157342657342657 0.015 0.012237762237762238
1 0.91375 0.527972027972028 0.02375 0.017482517482517484
1 0.94375 0.5209790209790209 0.02125 0.024475524475524476
1 0.86125 0.6451048951048951 0.0125 0.02097902097902098
1 0.86625 0.6573426573426573 0.00625 0.01048951048951049
0 0.8725 0.6625874125874126 0.01 0.012237762237762238
1 0.84375 0.6328671328671329 0.01375 0.02097902097902098
1 0.85375 0.6520979020979021 0.0175 0.027972027972027972
1 0.865 0.6695804195804196 0.015 0.019230769230769232