1 0.13960546282245828 0.10669975186104218 0.10773899848254932 0.17369727047146402
1 0.1244309559939302 0.22332506203473945 0.051593323216995446 0.05707196029776675
1 0.16843702579666162 0.22084367245657568 0.03793626707132018 0.06451612903225806
1 0.3095599393019727 0.034739454094292806 0.07435508345978756 0.06947890818858561
1 0.38239757207890746 0.022332506203473945 0.030349013657056147 0.04466501240694789
0 0.4264036418816389 0.017369727047146403 0.04400606980273141 0.034739454094292806
1 0.25948406676783003 0.16129032258064516 0.1047040971168437 0.16129032258064516
1 0.3975720789074355 0.12655086848635236 0.15326251896813353 0.18114143920595532
1 0.4977238239757208 0.12406947890818859 0.03186646433990895 0.04714640198511166
1 0.5872534142640364 0.08933002481389578 0.13050075872534142 0.1761786600496278
1 0.7025796661608498 0.06947890818858561 0.07738998482549317 0.13895781637717122
1 0.11836115326251896 0.37220843672456577 0.08042488619119878 0.20595533498759305
1 0.2503793626707132 0.3746898263027295 0.165402124430956 0.1935483870967742
1 0.40364188163884673 0.34491315136476425 0.11380880121396054 0.20843672456575682
1 0.543247344461305 0.34739454094292804 0.1411229135053111 0.23325062034739455
1 0.7040971168437026 0.29280397022332505 0.15174506828528073 0.27791563275434245
0 0.11077389984825493 0.5459057071960298 0.05918057663125948 0.05459057071960298
0 0.10773899848254932 0.5930521091811415 0.0409711684370258 0.01240694789081886
0 0.11077389984825493 0.6104218362282878 0.036418816388467376 0.009925558312655087
0 0.11077389984825493 0.6203473945409429 0.03793626707132018 0.007444168734491315
0 0.10925644916540213 0.6327543424317618 0.030349013657056147 0.009925558312655087
1 0.21396054628224584 0.5632754342431762 0.019726858877086494 0.034739454094292806
1 0.24430955993930198 0.5732009925558312 0.036418816388467376 0.04466501240694789
1 0.21547799696509864 0.5880893300248139 0.012139605462822459 0.017369727047146403
0 0.23975720789074356 0.5955334987593052 0.03338391502276176 0.02729528535980149
1 0.2306525037936267 0.6203473945409429 0.0622154779969651 0.03970223325062035
0 0.07283763277693475 0.9081885856079405 0.009104704097116844 0.019851116625310174
1 0.07890743550834597 0.9478908188585607 0.05311077389984825 0.04218362282878412
1 0.3990895295902883 0.890818858560794 0.021244309559939303 0.03970223325062035
1 0.4279210925644917 0.890818858560794 0.03793626707132018 0.03722084367245657
1 0.4218512898330804 0.9379652605459057 0.04552352048558422 0.034739454094292806
1 0.6009104704097117 0.8362282878411911 0.019726858877086494 0.03970223325062035
1 0.6267071320182094 0.8362282878411911 0.027314112291350532 0.03722084367245657
1 0.6160849772382397 0.8784119106699751 0.024279210925644917 0.034739454094292806
0 0.7526555386949925 0.9230769230769231 0.06069802731411229 0.14640198511166252
1 0.7602427921092565 0.4119106699751861 0.0834597875569044 0.1662531017369727
1 0.8831562974203339 0.40198511166253104 0.15933232169954475 0.1761786600496278
1 0.7723823975720789 0.5359801488833746 0.09408194233687406 0.07692307692307693
1 0.8952959028831563 0.5210918114143921 0.1456752655538695 0.09429280397022333
1 0.8528072837632777 0.6277915632754343 0.2321699544764795 0.13399503722084366
1 0.8649468892261002 0.7915632754342432 0.20637329286798178 0.20099255583126552
0 0.952959028831563 0.02729528535980149 0.08649468892261002 0.05459057071960298
1 0.08952959028831563 0.9057071960297767 0.021244309559939303 0.017369727047146403