1 0.2791666666666667 0.12109375 0.13645833333333332 0.0578125
1 0.5395833333333333 0.14453125 0.36666666666666664 0.07578125
1 0.478125 0.19453125 0.30416666666666664 0.071875
1 0.47291666666666665 0.29140625 0.5291666666666667 0.16015625
1 0.29583333333333334 0.40859375 0.25833333333333336 0.13984375
1 0.596875 0.4375 0.3125 0.1640625
1 0.39895833333333336 0.525 0.2 0.0671875
1 0.5739583333333333 0.5359375 0.14583333333333334 0.05703125
1 0.21041666666666667 0.60546875 0.16354166666666667 0.1171875
1 0.38333333333333336 0.6125 0.16979166666666667 0.103125
1 0.55 0.61171875 0.153125 0.09453125
1 0.7135416666666666 0.62265625 0.17291666666666666 0.090625
1 0.18333333333333332 0.73359375 0.14270833333333333 0.13125
1 0.35625 0.746875 0.20208333333333334 0.121875
1 0.5458333333333333 0.73515625 0.16770833333333332 0.09453125
1 0.721875 0.74765625 0.16666666666666666 0.12734375
1 0.19791666666666666 0.83984375 0.084375 0.04140625
1 0.28229166666666666 0.83984375 0.058333333333333334 0.040625
1 0.3729166666666667 0.84296875 0.09166666666666666 0.046875
1 0.45729166666666665 0.84140625 0.052083333333333336 0.03984375
1 0.55 0.84375 0.10729166666666666 0.05078125
1 0.6354166666666666 0.846875 0.057291666666666664 0.0453125
1 0.734375 0.8421875 0.09479166666666666 0.0390625
1 0.671875 0.85546875 0.0125 0.01640625
1 0.14166666666666666 0.8953125 0.090625 0.04140625
1 0.34791666666666665 0.896875 0.296875 0.0390625
1 0.6833333333333333 0.89375 0.290625 0.03828125