1 0.0947867298578199 0.9259259259259259 0.12559241706161137 0.08518518518518518
1 0.1943127962085308 0.9222222222222223 0.07345971563981042 0.06666666666666667
1 0.2843601895734597 0.9259259259259259 0.0971563981042654 0.07037037037037037
1 0.38388625592417064 0.9259259259259259 0.08530805687203792 0.05555555555555555
1 0.46445497630331756 0.9296296296296296 0.06635071090047394 0.07407407407407407
1 0.5379146919431279 0.9259259259259259 0.07345971563981042 0.06666666666666667
1 0.6066350710900474 0.9222222222222223 0.054502369668246446 0.08148148148148149
1 0.7440758293838863 0.9296296296296296 0.2014218009478673 0.06666666666666667