1 0.6466942148760331 0.3237410071942446 0.09917355371900827 0.23741007194244604
1 0.7272727272727273 0.2949640287769784 0.0640495867768595 0.2302158273381295
1 0.871900826446281 0.2446043165467626 0.11983471074380166 0.2589928057553957
1 0.8512396694214877 0.4460431654676259 0.08471074380165289 0.2517985611510791
1 0.7871900826446281 0.2733812949640288 0.05785123966942149 0.2517985611510791
1 0.6694214876033058 0.5323741007194245 0.08057851239669421 0.2589928057553957
1 0.7644628099173554 0.5107913669064749 0.1012396694214876 0.22302158273381295