1 0.5385416666666667 0.08981481481481482 0.021875 0.026851851851851852
1 0.5697916666666667 0.08981481481481482 0.03697916666666667 0.028703703703703703
1 0.6052083333333333 0.09351851851851851 0.03177083333333333 0.024074074074074074
1 0.6348958333333333 0.09166666666666666 0.021875 0.024074074074074074
1 0.6630208333333333 0.09259259259259259 0.034895833333333334 0.025925925925925925
1 0.6973958333333333 0.09444444444444444 0.03125 0.023148148148148147
1 0.7302083333333333 0.09351851851851851 0.030208333333333334 0.025925925925925925
1 0.7630208333333334 0.0962962962962963 0.03125 0.026851851851851852
1 0.5864583333333333 0.12037037037037036 0.0640625 0.024074074074074074
1 0.6416666666666667 0.12129629629629629 0.040625 0.020370370370370372
1 0.6880208333333333 0.12037037037037036 0.04635416666666667 0.021296296296296296
1 0.7328125 0.12037037037037036 0.035416666666666666 0.024074074074074074
1 0.603125 0.19814814814814816 0.14427083333333332 0.06111111111111111
1 0.7317708333333334 0.19537037037037036 0.10833333333333334 0.07222222222222222
1 0.5166666666666667 0.25925925925925924 0.0625 0.03796296296296296
1 0.5770833333333333 0.2611111111111111 0.05260416666666667 0.03518518518518519
1 0.6177083333333333 0.262037037037037 0.0234375 0.03518518518518519
1 0.6432291666666666 0.26296296296296295 0.027604166666666666 0.032407407407407406
1 0.6744791666666666 0.26296296296296295 0.030729166666666665 0.03518518518518519
1 0.7114583333333333 0.262037037037037 0.0375 0.03888888888888889
1 0.7546875 0.26481481481481484 0.04375 0.03796296296296296
1 0.7989583333333333 0.2675925925925926 0.04010416666666667 0.04259259259259259
1 0.5270833333333333 0.30092592592592593 0.022916666666666665 0.03981481481481482
1 0.5510416666666667 0.3055555555555556 0.0234375 0.028703703703703703
1 0.5869791666666667 0.3037037037037037 0.04375 0.03611111111111111
1 0.6302083333333334 0.30648148148148147 0.03802083333333333 0.03333333333333333
1 0.6786458333333333 0.30462962962962964 0.05260416666666667 0.03611111111111111
1 0.7276041666666667 0.30648148148148147 0.03854166666666667 0.03425925925925926
1 0.7692708333333333 0.30925925925925923 0.04010416666666667 0.03333333333333333
1 0.5630208333333333 0.3472222222222222 0.033854166666666664 0.026851851851851852
1 0.5942708333333333 0.34814814814814815 0.028125 0.03333333333333333
1 0.6229166666666667 0.3509259259259259 0.028645833333333332 0.030555555555555555
1 0.6453125 0.3490740740740741 0.0140625 0.024074074074074074
1 0.6708333333333333 0.3509259259259259 0.034375 0.03148148148148148
1 0.6958333333333333 0.34814814814814815 0.015625 0.025
1 0.7166666666666667 0.35 0.027083333333333334 0.023148148148148147
1 0.7447916666666666 0.3490740740740741 0.030208333333333334 0.026851851851851852
1 0.09270833333333334 0.5574074074074075 0.017708333333333333 0.013888888888888888