1 0.3008130081300813 0.14928057553956833 0.483739837398374 0.29856115107913667
1 0.7479674796747967 0.16906474820143885 0.35365853658536583 0.29856115107913667
1 0.3170731707317073 0.3920863309352518 0.3617886178861789 0.17266187050359713
1 0.6707317073170732 0.41007194244604317 0.2886178861788618 0.1510791366906475
1 0.15853658536585366 0.8741007194244604 0.18699186991869918 0.08273381294964029
1 0.2804878048780488 0.8741007194244604 0.044715447154471545 0.046762589928057555
1 0.4146341463414634 0.8741007194244604 0.17886178861788618 0.06115107913669065
1 0.5528455284552846 0.8705035971223022 0.044715447154471545 0.046762589928057555
1 0.6382113821138211 0.8741007194244604 0.10975609756097561 0.06115107913669065
1 0.7601626016260162 0.8669064748201439 0.1016260162601626 0.0683453237410072
1 0.23577235772357724 0.9568345323741008 0.2804878048780488 0.07553956834532374
1 0.4878048780487805 0.9460431654676259 0.2073170731707317 0.10431654676258993
1 0.6910569105691057 0.9496402877697842 0.16260162601626016 0.07194244604316546