1 0.16153846153846155 0.17632241813602015 0.16538461538461538 0.10831234256926953
1 0.2865384615384615 0.19395465994962216 0.075 0.08816120906801007
1 0.40384615384615385 0.19899244332493704 0.1519230769230769 0.09571788413098237
1 0.551923076923077 0.1964735516372796 0.12692307692307692 0.12594458438287154
1 0.7076923076923077 0.19395465994962216 0.18269230769230768 0.11838790931989925
1 0.8692307692307693 0.19395465994962216 0.12692307692307692 0.12090680100755667
1 0.2173076923076923 0.48866498740554154 0.25 0.34005037783375314
1 0.4519230769230769 0.5012594458438288 0.19807692307692307 0.3123425692695214
1 0.6576923076923077 0.4987405541561713 0.18269230769230768 0.31738035264483627
1 0.8346153846153846 0.5314861460957179 0.175 0.2619647355163728