1 0.20987654320987653 0.6168831168831169 0.38117283950617287 0.37987012987012986
1 0.7067901234567902 0.6103896103896104 0.5416666666666666 0.37662337662337664
1 0.3194444444444444 0.9025974025974026 0.12962962962962962 0.17532467532467533
1 0.48148148148148145 0.9155844155844156 0.16358024691358025 0.16883116883116883
1 0.6388888888888888 0.9058441558441559 0.12345679012345678 0.1525974025974026
1 0.7685185185185185 0.8831168831168831 0.11574074074074074 0.17207792207792208