1 0.215 0.2674825174825175 0.068 0.03146853146853147
0 0.214 0.3723776223776224 0.03 0.02097902097902098
1 0.401 0.2902097902097902 0.023 0.04895104895104895
1 0.448 0.2937062937062937 0.069 0.04020979020979021
1 0.52 0.29545454545454547 0.066 0.04195804195804196
1 0.576 0.29545454545454547 0.043 0.04195804195804196
1 0.624 0.29545454545454547 0.046 0.038461538461538464
1 0.344 0.36538461538461536 0.114 0.0472027972027972
1 0.485 0.3688811188811189 0.16 0.04895104895104895
1 0.629 0.3706293706293706 0.129 0.0472027972027972
1 0.726 0.3706293706293706 0.054 0.050699300699300696
1 0.371 0.4388111888111888 0.1 0.05244755244755245
1 0.488 0.4405594405594406 0.127 0.0472027972027972
1 0.635 0.44405594405594406 0.158 0.0472027972027972
1 0.463 0.5034965034965035 0.016 0.026223776223776224
1 0.511 0.5034965034965035 0.074 0.027972027972027972
1 0.579 0.5052447552447552 0.011 0.026223776223776224
0 0.05 0.6468531468531469 0.031 0.02097902097902098
0 0.1 0.6451048951048951 0.023 0.01048951048951049
0 0.164 0.6590909090909091 0.058 0.024475524475524476
0 0.046 0.6608391608391608 0.024 0.019230769230769232
0 0.162 0.6713286713286714 0.04 0.017482517482517484
0 0.224 0.6608391608391608 0.023 0.015734265734265736
0 0.281 0.6765734265734266 0.057 0.019230769230769232
0 0.281 0.6923076923076923 0.038 0.013986013986013986
0 0.34 0.6748251748251748 0.023 0.013986013986013986
0 0.396 0.6835664335664335 0.055 0.012237762237762238
0 0.395 0.6958041958041958 0.041 0.01048951048951049
0 0.453 0.6765734265734266 0.021 0.01048951048951049
0 0.509 0.6818181818181818 0.057 0.01048951048951049
0 0.51 0.6940559440559441 0.04 0.01048951048951049
0 0.566 0.6695804195804196 0.023 0.01048951048951049
0 0.624 0.6835664335664335 0.053 0.008741258741258742
0 0.622 0.6940559440559441 0.035 0.006993006993006993
0 0.679 0.6783216783216783 0.023 0.01048951048951049
0 0.737 0.6818181818181818 0.054 0.013986013986013986
0 0.738 0.6923076923076923 0.036 0.01048951048951049
0 0.795 0.6643356643356644 0.024 0.01048951048951049
0 0.854 0.6643356643356644 0.058 0.022727272727272728
0 0.855 0.6800699300699301 0.04 0.02097902097902098
0 0.912 0.6416083916083916 0.025 0.015734265734265736
0 0.961 0.6416083916083916 0.032 0.017482517482517484
1 0.967 0.6520979020979021 0.022 0.013986013986013986