1 0.19428571428571428 0.2799227799227799 0.07 0.10231660231660232
1 0.29714285714285715 0.26640926640926643 0.11428571428571428 0.13127413127413126
1 0.42142857142857143 0.26833976833976836 0.11571428571428571 0.12162162162162163
1 0.5442857142857143 0.2972972972972973 0.10857142857142857 0.12162162162162163
1 0.6457142857142857 0.27413127413127414 0.07571428571428572 0.11776061776061776
1 0.7171428571428572 0.27606177606177607 0.04857142857142857 0.11969111969111969
1 0.78 0.27606177606177607 0.07 0.12355212355212356
1 0.24428571428571427 0.42277992277992277 0.06714285714285714 0.13513513513513514
1 0.3342857142857143 0.42277992277992277 0.09714285714285714 0.12548262548262548
1 0.43 0.4266409266409266 0.08428571428571428 0.11583011583011583
1 0.5614285714285714 0.4266409266409266 0.16285714285714287 0.11196911196911197
1 0.7157142857142857 0.42277992277992277 0.12857142857142856 0.12162162162162163
1 0.15857142857142856 0.5598455598455598 0.017142857142857144 0.0888030888030888
1 0.25 0.5579150579150579 0.15 0.07142857142857142
1 0.36142857142857143 0.555984555984556 0.05142857142857143 0.07335907335907337
1 0.4342857142857143 0.5540540540540541 0.07857142857142857 0.07142857142857142
1 0.5442857142857143 0.5521235521235521 0.11714285714285715 0.07142857142857142
1 0.7157142857142857 0.5463320463320464 0.21285714285714286 0.07722007722007722
1 0.47 0.6447876447876448 0.12142857142857143 0.07528957528957529
1 0.6085714285714285 0.637065637065637 0.11285714285714285 0.07528957528957529
1 0.7357142857142858 0.6312741312741312 0.11857142857142858 0.07335907335907337
1 0.81 0.6254826254826255 0.017142857142857144 0.07915057915057915