1 0.135 0.349862258953168 0.13333333333333333 0.18181818181818182
1 0.2633333333333333 0.36363636363636365 0.11833333333333333 0.23140495867768596
1 0.38666666666666666 0.33884297520661155 0.12166666666666667 0.19008264462809918
1 0.47833333333333333 0.3608815426997245 0.04833333333333333 0.14325068870523416
1 0.19666666666666666 0.6666666666666666 0.25833333333333336 0.30578512396694213
1 0.43 0.6308539944903582 0.18333333333333332 0.24517906336088155
1 0.82 0.1487603305785124 0.021666666666666667 0.06336088154269973
1 0.845 0.1322314049586777 0.028333333333333332 0.07988980716253444
1 0.8683333333333333 0.12121212121212122 0.015 0.06611570247933884
0 0.6833333333333333 0.2231404958677686 0.013333333333333334 0.01652892561983471
0 0.6833333333333333 0.2369146005509642 0.015 0.01652892561983471
1 0.685 0.2699724517906336 0.013333333333333334 0.05234159779614325