1 0.30033003300330036 0.14476190476190476 0.17491749174917492 0.08
1 0.4900990099009901 0.13333333333333333 0.19141914191419143 0.07428571428571429
1 0.6237623762376238 0.12380952380952381 0.07755775577557755 0.06285714285714286
1 0.698019801980198 0.12380952380952381 0.08085808580858085 0.06285714285714286
1 0.5165016501650165 0.2742857142857143 0.2887788778877888 0.1676190476190476
1 0.4240924092409241 0.44 0.16501650165016502 0.12761904761904763
1 0.5396039603960396 0.3923809523809524 0.06765676567656766 0.1219047619047619
1 0.6023102310231023 0.3904761904761905 0.0627062706270627 0.10095238095238095
1 0.665016501650165 0.3657142857142857 0.0627062706270627 0.10476190476190476
1 0.33828382838283827 0.5980952380952381 0.18976897689768976 0.15619047619047619
1 0.49174917491749176 0.5352380952380953 0.13366336633663367 0.15047619047619049
1 0.6270627062706271 0.49142857142857144 0.14026402640264027 0.14666666666666667
1 0.731023102310231 0.45904761904761904 0.06765676567656766 0.10666666666666667