0 0.206266318537859 0.232421875 0.0783289817232376 0.005859375
0 0.20887728459530025 0.24609375 0.0731070496083551 0.00390625
0 0.19843342036553524 0.259765625 0.10966057441253264 0.0234375
0 0.7310704960835509 0.275390625 0.04177545691906005 0.0078125
0 0.7310704960835509 0.263671875 0.033942558746736295 0.015625
1 0.360313315926893 0.37890625 0.10443864229765012 0.052734375
1 0.4595300261096606 0.375 0.0731070496083551 0.04296875
1 0.5404699738903395 0.373046875 0.07049608355091384 0.05078125
1 0.6005221932114883 0.375 0.018276762402088774 0.04296875
1 0.4595300261096606 0.423828125 0.12010443864229765 0.025390625
1 0.381201044386423 0.470703125 0.007832898172323759 0.01953125
1 0.5013054830287206 0.46875 0.21409921671018275 0.02734375
1 0.46736292428198434 0.625 0.08877284595300261 0.03515625
1 0.5535248041775457 0.625 0.06266318537859007 0.03515625
1 0.6005221932114883 0.630859375 0.010443864229765013 0.025390625
1 0.4725848563968668 0.65625 0.04177545691906005 0.021484375
1 0.5378590078328982 0.66015625 0.06788511749347259 0.021484375
1 0.4725848563968668 0.68359375 0.08093994778067885 0.017578125
1 0.556135770234987 0.68359375 0.07049608355091384 0.0234375
1 0.4621409921671018 0.705078125 0.08093994778067885 0.021484375
1 0.556135770234987 0.708984375 0.09138381201044386 0.025390625