1 0.2816666666666667 0.352549889135255 0.12666666666666668 0.15077605321507762
1 0.42 0.3614190687361419 0.13 0.13082039911308205
1 0.5733333333333334 0.36585365853658536 0.14833333333333334 0.12638580931263857
1 0.245 0.4878048780487805 0.04 0.057649667405764965
1 0.3283333333333333 0.49002217294900224 0.10666666666666667 0.05543237250554324
1 0.415 0.49223946784922396 0.05 0.04434589800443459
1 0.4633333333333333 0.4878048780487805 0.03666666666666667 0.05543237250554324
1 0.5016666666666667 0.49223946784922396 0.025 0.03547671840354767
1 0.57 0.49002217294900224 0.09833333333333333 0.05321507760532151
1 0.27 0.5609756097560976 0.09833333333333333 0.06430155210643015
1 0.35333333333333333 0.5609756097560976 0.056666666666666664 0.057649667405764965
1 0.42833333333333334 0.5631929046563193 0.08 0.06208425720620843
1 0.49666666666666665 0.5631929046563193 0.043333333333333335 0.057649667405764965
1 0.56 0.5609756097560976 0.07333333333333333 0.05321507760532151
1 0.27666666666666667 0.6385809312638581 0.09833333333333333 0.06430155210643015
1 0.37333333333333335 0.6407982261640798 0.085 0.07538802660753881
1 0.47 0.6297117516629712 0.09666666666666666 0.06208425720620843
1 0.565 0.6252771618625277 0.07 0.06430155210643015
1 0.6333333333333333 0.623059866962306 0.05 0.050997782705099776