1 0.105 0.2688888888888889 0.12166666666666667 0.044444444444444446
1 0.36833333333333335 0.24444444444444444 0.325 0.09111111111111111
1 0.67 0.2644444444444444 0.21833333333333332 0.08222222222222222
1 0.33166666666666667 0.31333333333333335 0.17 0.044444444444444446
1 0.4633333333333333 0.32 0.07833333333333334 0.04666666666666667
1 0.56 0.32222222222222224 0.09666666666666666 0.042222222222222223
1 0.645 0.32666666666666666 0.058333333333333334 0.044444444444444446
1 0.7116666666666667 0.3244444444444444 0.058333333333333334 0.03777777777777778
1 0.31666666666666665 0.4288888888888889 0.4166666666666667 0.1711111111111111
1 0.7216666666666667 0.44666666666666666 0.31166666666666665 0.12666666666666668
1 0.06833333333333333 0.5577777777777778 0.12833333333333333 0.051111111111111114
1 0.18333333333333332 0.5577777777777778 0.09 0.04
1 0.28 0.56 0.09 0.04888888888888889
1 0.36833333333333335 0.5577777777777778 0.075 0.044444444444444446
1 0.47833333333333333 0.5622222222222222 0.12666666666666668 0.04888888888888889
1 0.5916666666666667 0.5622222222222222 0.09166666666666666 0.044444444444444446
1 0.68 0.5555555555555556 0.07 0.04666666666666667
1 0.7733333333333333 0.5622222222222222 0.11166666666666666 0.04666666666666667
1 0.865 0.5577777777777778 0.06833333333333333 0.04
1 0.9033333333333333 0.5644444444444444 0.018333333333333333 0.013333333333333334
1 0.9483333333333334 0.56 0.07333333333333333 0.04
1 0.26 0.6133333333333333 0.09166666666666666 0.05333333333333334
1 0.34833333333333333 0.6155555555555555 0.08 0.05333333333333334
1 0.4 0.62 0.011666666666666667 0.013333333333333334
1 0.43833333333333335 0.62 0.051666666666666666 0.042222222222222223
1 0.49666666666666665 0.6177777777777778 0.055 0.04666666666666667
1 0.535 0.62 0.013333333333333334 0.011111111111111112
1 0.5933333333333334 0.6177777777777778 0.09666666666666666 0.057777777777777775
1 0.71 0.6266666666666667 0.12666666666666668 0.051111111111111114
1 0.016666666666666666 0.7044444444444444 0.02666666666666667 0.044444444444444446
1 0.09166666666666666 0.7066666666666667 0.125 0.051111111111111114
1 0.2 0.7088888888888889 0.09833333333333333 0.04888888888888889
1 0.26 0.7066666666666667 0.016666666666666666 0.011111111111111112
1 0.295 0.7044444444444444 0.051666666666666666 0.044444444444444446
1 0.42833333333333334 0.7044444444444444 0.065 0.04666666666666667
1 0.5816666666666667 0.7044444444444444 0.23333333333333334 0.042222222222222223
1 0.7816666666666666 0.7044444444444444 0.13666666666666666 0.044444444444444446
1 0.9233333333333333 0.7022222222222222 0.14833333333333334 0.042222222222222223