0 0.41875 0.7236533957845434 0.0171875 0.02576112412177986
1 0.71875 0.7798594847775175 0.0390625 0.06323185011709602
1 0.753125 0.7892271662763466 0.0296875 0.06088992974238876
1 0.803125 0.7096018735362998 0.0265625 0.01639344262295082
0 0.803125 0.7236533957845434 0.0140625 0.0117096018735363
1 0.734375 0.34192037470725994 0.028125 0.04449648711943794
1 0.771875 0.31381733021077285 0.0515625 0.06323185011709602
1 0.759375 0.35362997658079626 0.05 0.05152224824355972
1 0.9015625 0.8056206088992974 0.0921875 0.03278688524590164