1 0.2828125 0.19305555555555556 0.221875 0.15555555555555556
1 0.53984375 0.17222222222222222 0.2109375 0.17083333333333334
1 0.22578125 0.5027777777777778 0.24296875 0.3236111111111111
1 0.565625 0.4888888888888889 0.3125 0.38472222222222224