1 0.18085106382978725 0.39705882352941174 0.06231003039513678 0.061274509803921566
1 0.2689969604863222 0.375 0.0972644376899696 0.08333333333333333
1 0.3723404255319149 0.35784313725490197 0.09878419452887538 0.0784313725490196
1 0.44984802431610943 0.3382352941176471 0.04559270516717325 0.061274509803921566
1 0.5075987841945289 0.39215686274509803 0.08662613981762918 0.08823529411764706
1 0.5835866261398176 0.3897058823529412 0.057750759878419454 0.061274509803921566
1 0.4817629179331307 0.5490196078431373 0.13829787234042554 0.18872549019607843
1 0.6033434650455927 0.5294117647058824 0.07598784194528875 0.18137254901960784
1 0.723404255319149 0.5318627450980392 0.13677811550151975 0.15196078431372548
1 0.34194528875379937 0.5931372549019608 0.1276595744680851 0.21568627450980393
1 0.4270516717325228 0.6911764705882353 0.04711246200607903 0.041666666666666664
1 0.5699088145896657 0.6715686274509803 0.23708206686930092 0.07598039215686274
1 0.029635258358662615 0.8504901960784313 0.05927051671732523 0.031862745098039214
1 0.19148936170212766 0.8284313725490197 0.0243161094224924 0.031862745098039214
1 0.2188449848024316 0.8235294117647058 0.028875379939209727 0.029411764705882353
1 0.24468085106382978 0.8186274509803921 0.015197568389057751 0.03676470588235294
1 0.2750759878419453 0.821078431372549 0.0425531914893617 0.041666666666666664
1 0.3130699088145897 0.8137254901960784 0.0243161094224924 0.04411764705882353
1 0.35714285714285715 0.8063725490196079 0.0425531914893617 0.029411764705882353
1 0.3966565349544073 0.7965686274509803 0.03343465045592705 0.03676470588235294
1 0.7203647416413373 0.7598039215686274 0.025835866261398176 0.031862745098039214
1 0.7522796352583586 0.7549019607843137 0.03343465045592705 0.029411764705882353
0 0.8115501519756839 0.7475490196078431 0.019756838905775075 0.024509803921568627
1 0.8753799392097265 0.7401960784313726 0.08358662613981763 0.03431372549019608