1 0.24864864864864866 0.6446280991735537 0.07297297297297298 0.19834710743801653
1 0.36486486486486486 0.5867768595041323 0.14324324324324325 0.21487603305785125
1 0.5864864864864865 0.4628099173553719 0.2810810810810811 0.2892561983471074
1 0.845945945945946 0.34710743801652894 0.1891891891891892 0.24793388429752067
1 0.24054054054054055 0.8512396694214877 0.1972972972972973 0.2809917355371901
1 0.4648648648648649 0.7603305785123967 0.21621621621621623 0.2975206611570248
1 0.12972972972972974 0.6776859504132231 0.14864864864864866 0.2396694214876033