1 0.28431372549019607 0.29697712418300654 0.09375 0.054330065359477125
1 0.36642156862745096 0.2847222222222222 0.058823529411764705 0.05555555555555555
1 0.41942401960784315 0.26633986928104575 0.043198529411764705 0.05065359477124183
1 0.47549019607843135 0.25531045751633985 0.05821078431372549 0.06045751633986928
1 0.5640318627450981 0.23366013071895425 0.11458333333333333 0.06454248366013073
1 0.33547794117647056 0.3402777777777778 0.06832107843137254 0.04330065359477124
1 0.41207107843137253 0.32393790849673204 0.07751225490196079 0.042483660130718956
1 0.4950980392156863 0.3075980392156863 0.08272058823529412 0.0457516339869281
1 0.2545955882352941 0.6376633986928104 0.07077205882352941 0.05923202614379085
1 0.3235294117647059 0.6446078431372549 0.0548406862745098 0.053513071895424834
1 0.37714460784313725 0.6376633986928104 0.041666666666666664 0.04370915032679738
1 0.43596813725490197 0.636437908496732 0.06403186274509803 0.05065359477124183
1 0.5055147058823529 0.6266339869281046 0.06924019607843138 0.06045751633986928
1 0.5836397058823529 0.6200980392156863 0.07506127450980392 0.04738562091503268
1 0.23866421568627452 0.6981209150326797 0.0701593137254902 0.0298202614379085
1 0.31862745098039214 0.6924019607843137 0.08547794117647059 0.0298202614379085
1 0.4378063725490196 0.6830065359477124 0.15257352941176472 0.03676470588235294
1 0.5287990196078431 0.6813725490196079 0.02971813725490196 0.03145424836601307
1 0.59375 0.6768790849673203 0.09068627450980392 0.03308823529411765