1 0.38871794871794874 0.15328467153284672 0.1117948717948718 0.11131386861313869
1 0.49025641025641026 0.09671532846715329 0.0758974358974359 0.11131386861313869
1 0.2594871794871795 0.2755474452554745 0.057435897435897436 0.09671532846715329
1 0.318974358974359 0.2645985401459854 0.06461538461538462 0.09124087591240876
1 0.38871794871794874 0.2208029197080292 0.06564102564102564 0.10948905109489052
1 0.47692307692307695 0.1897810218978102 0.10358974358974359 0.11131386861313869
1 0.598974358974359 0.1332116788321168 0.12717948717948718 0.1551094890510949
1 0.6871794871794872 0.09854014598540146 0.02666666666666667 0.08394160583941605
1 0.4328205128205128 0.6167883211678832 0.046153846153846156 0.04927007299270073
1 0.49333333333333335 0.6021897810218978 0.07076923076923076 0.06204379562043796
1 0.5517948717948717 0.5967153284671532 0.038974358974358976 0.058394160583941604
1 0.6051282051282051 0.5912408759124088 0.06051282051282051 0.06204379562043796
1 0.676923076923077 0.583941605839416 0.0758974358974359 0.06386861313868614
1 0.4348717948717949 0.6678832116788321 0.055384615384615386 0.06569343065693431
1 0.5015384615384615 0.6624087591240876 0.07179487179487179 0.058394160583941604
1 0.5774358974358974 0.656934306569343 0.07692307692307693 0.06386861313868614
1 0.6687179487179488 0.6514598540145985 0.09538461538461539 0.06204379562043796
1 0.49025641025641026 0.7135036496350365 0.07384615384615385 0.05656934306569343
1 0.558974358974359 0.7208029197080292 0.06051282051282051 0.058394160583941604
1 0.6256410256410256 0.718978102189781 0.06461538461538462 0.06204379562043796
1 0.6912820512820513 0.718978102189781 0.057435897435897436 0.06204379562043796
1 0.4502564102564103 0.7773722627737226 0.08 0.05474452554744526
1 0.5374358974358975 0.781021897810219 0.09025641025641026 0.05656934306569343
1 0.6553846153846153 0.7901459854014599 0.13948717948717948 0.06751824817518248
1 0.598974358974359 0.8448905109489051 0.03487179487179487 0.04562043795620438
1 0.6348717948717949 0.8503649635036497 0.035897435897435895 0.043795620437956206
1 0.6892307692307692 0.8576642335766423 0.06769230769230769 0.058394160583941604