1 0.13953488372093023 0.3548387096774194 0.11886304909560723 0.04218362282878412
1 0.24031007751937986 0.3598014888337469 0.07235142118863049 0.03970223325062035
1 0.3152454780361757 0.36724565756823824 0.06718346253229975 0.034739454094292806
1 0.37209302325581395 0.36724565756823824 0.041343669250646 0.02729528535980149
1 0.42377260981912146 0.37220843672456577 0.06459948320413436 0.02977667493796526
1 0.4909560723514212 0.3746898263027295 0.056847545219638244 0.03225806451612903
1 0.5684754521963824 0.37965260545905705 0.09819121447028424 0.03225806451612903
1 0.648578811369509 0.38213399503722084 0.059431524547803614 0.02977667493796526
1 0.7028423772609819 0.3870967741935484 0.041343669250646 0.02977667493796526
1 0.1343669250645995 0.4094292803970223 0.24031007751937986 0.05955334987593052
1 0.32041343669250644 0.41935483870967744 0.11627906976744186 0.07444168734491315
1 0.4444444444444444 0.4267990074441687 0.11369509043927649 0.062034739454094295
1 0.5426356589147286 0.4317617866004963 0.08010335917312661 0.05459057071960298
1 0.6925064599483204 0.43424317617866004 0.2041343669250646 0.05707196029776675