1 0.22083333333333333 0.18867924528301888 0.14375 0.20125786163522014
1 0.4354166666666667 0.2169811320754717 0.22083333333333333 0.14779874213836477
1 0.6354166666666666 0.2169811320754717 0.12708333333333333 0.1540880503144654
1 0.7541666666666667 0.22955974842767296 0.04375 0.12578616352201258
1 0.3458333333333333 0.37735849056603776 0.15208333333333332 0.11635220125786164
1 0.5645833333333333 0.36792452830188677 0.20833333333333334 0.09433962264150944
1 0.32708333333333334 0.4716981132075472 0.04791666666666667 0.040880503144654086
1 0.38125 0.46855345911949686 0.04583333333333333 0.03459119496855346
1 0.45208333333333334 0.46855345911949686 0.05625 0.03459119496855346
1 0.5104166666666666 0.46855345911949686 0.052083333333333336 0.03459119496855346
1 0.5895833333333333 0.46855345911949686 0.08958333333333333 0.03773584905660377
0 0.0375 0.5314465408805031 0.058333333333333334 0.025157232704402517
1 0.06041666666666667 0.7012578616352201 0.035416666666666666 0.03459119496855346
0 0.058333333333333334 0.7264150943396226 0.04791666666666667 0.018867924528301886
1 0.10833333333333334 0.6226415094339622 0.027083333333333334 0.0660377358490566
1 0.10625 0.7044025157232704 0.03125 0.04716981132075472
1 0.10833333333333334 0.7735849056603774 0.03333333333333333 0.05660377358490566
1 0.10833333333333334 0.8459119496855346 0.03125 0.059748427672955975
0 0.8 0.660377358490566 0.035416666666666666 0.018867924528301886
1 0.8041666666666667 0.6855345911949685 0.0375 0.03459119496855346
1 0.8041666666666667 0.7138364779874213 0.041666666666666664 0.03459119496855346
0 0.8020833333333334 0.7484276729559748 0.03958333333333333 0.02830188679245283
1 0.8020833333333334 0.7861635220125787 0.04375 0.02830188679245283
1 0.8041666666666667 0.8176100628930818 0.041666666666666664 0.025157232704402517
1 0.8041666666666667 0.8459119496855346 0.04583333333333333 0.03459119496855346
0 0.80625 0.8805031446540881 0.041666666666666664 0.03459119496855346
0 0.8083333333333333 0.9150943396226415 0.0375 0.025157232704402517
0 0.8083333333333333 0.9371069182389937 0.0375 0.0220125786163522
0 0.8083333333333333 0.9654088050314465 0.03333333333333333 0.031446540880503145
0 0.7 0.6823899371069182 0.029166666666666667 0.06289308176100629
0 0.6916666666666667 0.7672955974842768 0.029166666666666667 0.05660377358490566
0 0.6770833333333334 0.8522012578616353 0.03125 0.0660377358490566
1 0.675 0.9308176100628931 0.029166666666666667 0.08176100628930817