1 0.09866666666666667 0.16216216216216217 0.19733333333333333 0.2702702702702703
1 0.264 0.15315315315315314 0.12266666666666666 0.2972972972972973
1 0.37333333333333335 0.15315315315315314 0.08 0.2972972972972973
1 0.48 0.16216216216216217 0.10133333333333333 0.2702702702702703
1 0.5973333333333334 0.14864864864864866 0.11733333333333333 0.2972972972972973
1 0.7253333333333334 0.17117117117117117 0.11733333333333333 0.34234234234234234
1 0.848 0.14864864864864866 0.13333333333333333 0.2972972972972973
1 0.07733333333333334 0.4594594594594595 0.14933333333333335 0.23423423423423423
1 0.17066666666666666 0.5045045045045045 0.029333333333333333 0.13513513513513514
1 0.272 0.4774774774774775 0.15733333333333333 0.25225225225225223