1 0.2846975088967972 0.2572614107883817 0.20759193357058126 0.42738589211618255
1 0.531435349940688 0.23651452282157676 0.23606168446026096 0.3651452282157676
1 0.7603795966785291 0.22821576763485477 0.1826809015421115 0.3775933609958506
1 0.12336892052194544 0.7427385892116183 0.12336892052194544 0.27385892116182575
1 0.24080664294187426 0.7551867219917012 0.09845788849347568 0.3236514522821577
1 0.365361803084223 0.7717842323651453 0.14116251482799524 0.3236514522821577
1 0.4578884934756821 0.7427385892116183 0.027283511269276393 0.06639004149377593
1 0.5527876631079478 0.7136929460580913 0.1387900355871886 0.34854771784232363
1 0.6465005931198102 0.7385892116182573 0.027283511269276393 0.06639004149377593
1 0.734282325029656 0.7261410788381742 0.11862396204033215 0.3278008298755187
1 0.8813760379596679 0.7427385892116183 0.16132858837485173 0.29045643153526973