1 0.542 0.3768768768768769 0.31 0.11561561561561562
1 0.318 0.47297297297297297 0.084 0.08258258258258258
1 0.392 0.4864864864864865 0.074 0.06756756756756757
1 0.52 0.487987987987988 0.168 0.07807807807807808
1 0.652 0.4894894894894895 0.084 0.08408408408408409
1 0.724 0.5015015015015015 0.058 0.06456456456456457
1 0.314 0.5585585585585585 0.098 0.06906906906906907
1 0.46 0.5645645645645646 0.178 0.08108108108108109
1 0.656 0.575075075075075 0.198 0.08408408408408409
1 0.028 0.03903903903903904 0.052 0.018018018018018018