0 0.330078125 0.6598240469208211 0.01171875 0.01466275659824047
0 0.447265625 0.8005865102639296 0.015625 0.008797653958944282
0 0.091796875 0.8093841642228738 0.025390625 0.011730205278592375
0 0.08984375 0.8211143695014663 0.0234375 0.008797653958944282
0 0.66015625 0.8357771260997068 0.04296875 0.026392961876832845
0 0.72265625 0.8240469208211144 0.015625 0.020527859237536656
0 0.49609375 0.8357771260997068 0.015625 0.008797653958944282
0 0.49609375 0.8533724340175953 0.015625 0.011730205278592375
1 0.7734375 0.15542521994134897 0.04296875 0.09970674486803519
1 0.74609375 0.26392961876832843 0.029296875 0.07917888563049853
1 0.78125 0.21114369501466276 0.05078125 0.12023460410557185
1 0.822265625 0.41348973607038125 0.08203125 0.03519061583577713
1 0.775390625 0.4604105571847507 0.06640625 0.04985337243401759
1 0.82421875 0.4604105571847507 0.0390625 0.05571847507331378
1 0.8671875 0.46920821114369504 0.05078125 0.04398826979472141