1 0.96875 0.5746527777777778 0.010850694444444444 0.027199074074074073
1 0.9635416666666666 0.5376157407407407 0.013454861111111112 0.01273148148148148
1 0.9737413194444444 0.5338541666666666 0.009548611111111112 0.011574074074074073
0 0.9689670138888888 0.5471643518518519 0.017144097222222224 0.008969907407407407
0 0.9702690972222222 0.5535300925925926 0.021701388888888888 0.009548611111111112
0 0.9828559027777778 0.5457175925925926 0.004557291666666667 0.003761574074074074
1 0.9585503472222222 0.5196759259259259 0.022352430555555556 0.025752314814814815
1 0.9752604166666666 0.5153356481481481 0.014973958333333334 0.023726851851851853
0 0.9615885416666666 0.5011574074074074 0.005208333333333333 0.005497685185185185
0 0.9663628472222222 0.49971064814814814 0.004774305555555556 0.007233796296296296
0 0.9539930555555556 0.49710648148148145 0.006293402777777778 0.004918981481481482
0 0.9650607638888888 0.49421296296296297 0.013671875 0.006944444444444444
1 0.9509548611111112 0.4470486111111111 0.003472222222222222 0.009259259259259259
1 0.95703125 0.4453125 0.004340277777777778 0.008969907407407407
1 0.9572482638888888 0.4542824074074074 0.004123263888888889 0.008680555555555556
0 0.953125 0.48640046296296297 0.006510416666666667 0.004340277777777778
0 0.9611545138888888 0.4855324074074074 0.005425347222222222 0.004340277777777778
0 0.9967447916666666 0.4722222222222222 0.005208333333333333 0.005497685185185185
1 0.3687065972222222 0.32320601851851855 0.0705295138888889 0.044270833333333336
1 0.4351128472222222 0.31886574074074076 0.05577256944444445 0.044849537037037035
1 0.4924045138888889 0.3194444444444444 0.04796006944444445 0.03501157407407408
1 0.552734375 0.31539351851851855 0.06488715277777778 0.05324074074074074
1 0.6193576388888888 0.30150462962962965 0.0646701388888889 0.05295138888888889
1 0.681640625 0.2508680555555556 0.011067708333333334 0.027777777777777776
0 0.689453125 0.24305555555555555 0.008246527777777778 0.021122685185185185
0 0.6864149305555556 0.2673611111111111 0.012803819444444444 0.026909722222222224
1 0.6877170138888888 0.2881944444444444 0.010633680555555556 0.026909722222222224
1 0.6890190972222222 0.3116319444444444 0.009548611111111112 0.022858796296296297
1 0.3361545138888889 0.3755787037037037 0.015190972222222222 0.01099537037037037
1 0.3506944444444444 0.3744212962962963 0.010850694444444444 0.010416666666666666
1 0.3693576388888889 0.3741319444444444 0.024522569444444444 0.01070601851851852
1 0.3901909722222222 0.3723958333333333 0.016276041666666668 0.009837962962962963
0 0.3982204861111111 0.5659722222222222 0.017361111111111112 0.014467592592592593
1 0.423828125 0.5859375 0.006944444444444444 0.005497685185185185
1 0.4299045138888889 0.5853587962962963 0.005859375 0.005208333333333333
1 0.4353298611111111 0.5847800925925926 0.004774305555555556 0.004918981481481482
1 0.4249131944444444 0.5923032407407407 0.004557291666666667 0.004629629629629629
1 0.4307725694444444 0.5920138888888888 0.006727430555555556 0.004629629629629629
0 0.4188368055555556 0.6015625 0.005859375 0.004629629629629629
1 0.4227430555555556 0.6096643518518519 0.005208333333333333 0.004629629629629629
1 0.4283854166666667 0.6096643518518519 0.005642361111111111 0.006076388888888889
1 0.4351128472222222 0.6090856481481481 0.008029513888888888 0.004918981481481482
0 0.4040798611111111 0.6284722222222222 0.009331597222222222 0.0078125
1 0.4366319444444444 0.6299189814814815 0.013454861111111112 0.01244212962962963
1 0.439453125 0.6331018518518519 0.007595486111111111 0.010127314814814815
0 0.4529079861111111 0.6238425925925926 0.010633680555555556 0.007233796296296296
0 0.4513888888888889 0.5575810185185185 0.011935763888888888 0.009837962962962963
0 0.4542100694444444 0.5656828703703703 0.0078125 0.008391203703703705
0 0.5822482638888888 0.6684027777777778 0.01171875 0.004918981481481482
0 0.5768229166666666 0.6799768518518519 0.007161458333333333 0.0026041666666666665
0 0.5815972222222222 0.6828703703703703 0.016276041666666668 0.005208333333333333
0 0.5983072916666666 0.6744791666666666 0.005208333333333333 0.004629629629629629
0 0.5972222222222222 0.6901041666666666 0.008680555555555556 0.0023148148148148147
0 0.5959201388888888 0.6875 0.004991319444444444 0.00318287037037037
1 0.6161024305555556 0.6788194444444444 0.008029513888888888 0.004918981481481482
0 0.6267361111111112 0.6765046296296297 0.008680555555555556 0.007233796296296296
0 0.6286892361111112 0.6782407407407407 0.005642361111111111 0.005787037037037037
0 0.6239149305555556 0.6212384259259259 0.008463541666666666 0.0078125
0 0.630859375 0.6215277777777778 0.005425347222222222 0.001736111111111111
0 0.6002604166666666 0.6261574074074074 0.005859375 0.003761574074074074
0 0.6002604166666666 0.6304976851851852 0.0078125 0.00318287037037037
0 0.5835503472222222 0.6310763888888888 0.005642361111111111 0.0028935185185185184
0 0.5978732638888888 0.5798611111111112 0.004340277777777778 0.003472222222222222
0 0.6076388888888888 0.5853587962962963 0.006727430555555556 0.003472222222222222
0 0.6187065972222222 0.5902777777777778 0.004123263888888889 0.004918981481481482
1 0.6019965277777778 0.5396412037037037 0.007378472222222222 0.006076388888888889
0 0.5907118055555556 0.5344328703703703 0.005642361111111111 0.003761574074074074
0 0.5776909722222222 0.5361689814814815 0.009982638888888888 0.006076388888888889
0 0.6028645833333334 0.5089699074074074 0.005859375 0.003472222222222222
0 0.5959201388888888 0.5081018518518519 0.004557291666666667 0.003472222222222222
0 0.6603732638888888 0.5014467592592593 0.005859375 0.006944444444444444
0 0.6521267361111112 0.5150462962962963 0.006944444444444444 0.00318287037037037
0 0.6629774305555556 0.5138888888888888 0.009765625 0.00318287037037037
0 0.6740451388888888 0.5130208333333334 0.004774305555555556 0.0028935185185185184
0 0.6532118055555556 0.5234375 0.008029513888888888 0.004340277777777778
0 0.6644965277777778 0.5266203703703703 0.005859375 0.00318287037037037
0 0.6644965277777778 0.53125 0.014539930555555556 0.003472222222222222
1 0.7608506944444444 0.7054398148148148 0.022135416666666668 0.02025462962962963