1 0.65 0.33021077283372363 0.053125 0.10772833723653395
1 0.703125 0.3091334894613583 0.0453125 0.11007025761124122
1 0.7703125 0.2903981264637002 0.0875 0.11475409836065574
1 0.8484375 0.2646370023419204 0.0640625 0.11241217798594848
1 0.621875 0.4426229508196721 0.0578125 0.0936768149882904
1 0.7015625 0.4215456674473068 0.0921875 0.11007025761124122
1 0.7859375 0.4098360655737705 0.0625 0.0936768149882904
1 0.85625 0.3793911007025761 0.0734375 0.117096018735363
1 0.6734375 0.522248243559719 0.05 0.0468384074941452
1 0.740625 0.5058548009367682 0.071875 0.06557377049180328
1 0.8078125 0.49882903981264637 0.0546875 0.0585480093676815
1 0.8484375 0.4964871194379391 0.0125 0.04918032786885246
1 0.2625 0.711943793911007 0.015625 0.01639344262295082