0 0.22179487179487178 0.18341346153846153 0.04038461538461539 0.03653846153846154
0 0.3227564102564103 0.17932692307692308 0.046474358974358976 0.03894230769230769
0 0.42435897435897435 0.17259615384615384 0.04775641025641025 0.03990384615384615
0 0.5298076923076923 0.16466346153846154 0.046153846153846156 0.040625
1 0.21923076923076923 0.24375 0.06698717948717949 0.020673076923076922
1 0.3108974358974359 0.23846153846153847 0.10993589743589743 0.023798076923076922
1 0.433974358974359 0.2310096153846154 0.128525641025641 0.025240384615384616
1 0.5381410256410256 0.22548076923076923 0.07211538461538461 0.022115384615384617
1 0.17275641025641025 0.4127403846153846 0.11602564102564103 0.039663461538461536
1 0.3342948717948718 0.41418269230769234 0.17756410256410257 0.04807692307692308
1 0.22179487179487178 0.4617788461538462 0.20064102564102565 0.04399038461538462
1 0.40865384615384615 0.4584134615384615 0.14487179487179488 0.04975961538461538
1 0.5647435897435897 0.45264423076923077 0.13653846153846153 0.04447115384615385
1 0.7096153846153846 0.45528846153846153 0.11955128205128206 0.046875
1 0.3855769230769231 0.5175480769230769 0.5224358974358975 0.05048076923076923
1 0.1625 0.5735576923076923 0.07083333333333333 0.042067307692307696
1 0.2608974358974359 0.575 0.11282051282051282 0.04326923076923077
1 0.39294871794871794 0.5747596153846154 0.12692307692307692 0.03701923076923077
1 0.191025641025641 0.6399038461538461 0.12628205128205128 0.025961538461538463
1 0.2791666666666667 0.6418269230769231 0.03205128205128205 0.025240384615384616
1 0.4724358974358974 0.6435096153846154 0.3384615384615385 0.03942307692307692
1 0.21314102564102563 0.6745192307692308 0.16762820512820512 0.026201923076923078
1 0.37435897435897436 0.6790865384615384 0.13782051282051283 0.025240384615384616
1 0.4701923076923077 0.6800480769230769 0.03365384615384615 0.026442307692307692
1 0.5727564102564102 0.6838942307692307 0.16153846153846155 0.030048076923076924