1 0.2620545073375262 0.5986842105263158 0.16981132075471697 0.25
1 0.4528301886792453 0.618421052631579 0.16561844863731656 0.3157894736842105
1 0.6519916142557652 0.5526315789473685 0.18238993710691823 0.3815789473684211
1 0.20545073375262055 0.868421052631579 0.04821802935010482 0.15789473684210525
1 0.27044025157232704 0.8881578947368421 0.06918238993710692 0.19078947368421054
1 0.3312368972746331 0.875 0.04821802935010482 0.17105263157894737
1 0.3920335429769392 0.8881578947368421 0.06708595387840671 0.16447368421052633
1 0.44654088050314467 0.881578947368421 0.050314465408805034 0.14473684210526316
1 0.5031446540880503 0.8881578947368421 0.05660377358490566 0.18421052631578946
1 0.7253668763102725 0.881578947368421 0.08385744234800839 0.19078947368421054
1 0.5534591194968553 0.875 0.029350104821802937 0.17105263157894737
1 0.6540880503144654 0.875 0.05660377358490566 0.15789473684210525
1 0.59958071278826 0.8881578947368421 0.04821802935010482 0.20394736842105263