1 0.20416666666666666 0.1140625 0.26666666666666666 0.0671875
1 0.55625 0.1046875 0.39375 0.0765625
1 0.26875 0.2609375 0.42291666666666666 0.1890625
1 0.7270833333333333 0.2515625 0.40625 0.209375
1 0.3125 0.45 0.475 0.1515625
1 0.7166666666666667 0.4796875 0.27291666666666664 0.1328125
1 0.14375 0.628125 0.15833333333333333 0.1359375
1 0.30625 0.6328125 0.15625 0.1359375
1 0.48541666666666666 0.63125 0.13333333333333333 0.140625
1 0.6770833333333334 0.63125 0.22708333333333333 0.1421875
1 0.85 0.678125 0.12291666666666666 0.075
1 0.2833333333333333 0.76875 0.26666666666666666 0.0671875