1 0.41 0.3441666666666667 0.285 0.08583333333333333
1 0.6516666666666666 0.3416666666666667 0.1975 0.0775
0 0.7941666666666667 0.3383333333333333 0.08333333333333333 0.06833333333333333
0 0.8741666666666666 0.33666666666666667 0.07666666666666666 0.07
1 0.11416666666666667 0.5275 0.055 0.028333333333333332
1 0.18833333333333332 0.525 0.07166666666666667 0.035833333333333335
1 0.2633333333333333 0.53 0.06166666666666667 0.030833333333333334
1 0.33916666666666667 0.5316666666666666 0.08 0.03333333333333333
1 0.7241666666666666 0.5333333333333333 0.05583333333333333 0.0275
1 0.8525 0.5341666666666667 0.19916666666666666 0.03166666666666667
1 0.9833333333333333 0.6825 0.0275 0.018333333333333333
1 0.034166666666666665 0.8033333333333333 0.04 0.025
1 0.6816666666666666 0.9425 0.024166666666666666 0.011666666666666667