1 0.3782178217821782 0.5508021390374331 0.22178217821782178 0.14171122994652408
1 0.5821782178217821 0.5561497326203209 0.16237623762376238 0.1657754010695187
1 0.7366336633663366 0.5588235294117647 0.12673267326732673 0.16844919786096257
1 0.5306930693069307 0.39572192513368987 0.36435643564356435 0.10427807486631016