0 0.7644444444444445 0.5769230769230769 0.03111111111111111 0.01775147928994083
1 0.13777777777777778 0.3254437869822485 0.04 0.06804733727810651
1 0.19333333333333333 0.3343195266272189 0.057777777777777775 0.07692307692307693
1 0.27111111111111114 0.3431952662721893 0.07777777777777778 0.07100591715976332
1 0.3422222222222222 0.3431952662721893 0.05555555555555555 0.07988165680473373
1 0.4066666666666667 0.3520710059171598 0.057777777777777775 0.07396449704142012
1 0.4777777777777778 0.363905325443787 0.07111111111111111 0.07100591715976332
1 0.5511111111111111 0.363905325443787 0.06222222222222222 0.07396449704142012
1 0.6111111111111112 0.3757396449704142 0.044444444444444446 0.0621301775147929
1 0.6622222222222223 0.3816568047337278 0.05555555555555555 0.0621301775147929
1 0.7177777777777777 0.39349112426035504 0.04888888888888889 0.0650887573964497
1 0.7666666666666667 0.3875739644970414 0.04666666666666667 0.07692307692307693
1 0.8355555555555556 0.40236686390532544 0.05333333333333334 0.06804733727810651
1 0.8844444444444445 0.3994082840236686 0.04888888888888889 0.07396449704142012