1 0.302 0.11733333333333333 0.078 0.104
1 0.414 0.12266666666666666 0.124 0.096
1 0.556 0.13066666666666665 0.142 0.09866666666666667
1 0.31 0.3253333333333333 0.138 0.13066666666666665
1 0.44 0.33066666666666666 0.104 0.12266666666666666
1 0.57 0.34933333333333333 0.114 0.152
1 0.752 0.3333333333333333 0.234 0.14133333333333334
1 0.282 0.5146666666666667 0.11 0.18133333333333335
1 0.402 0.536 0.108 0.15466666666666667
1 0.51 0.5573333333333333 0.088 0.15466666666666667
1 0.638 0.5573333333333333 0.158 0.224
1 0.804 0.5653333333333334 0.154 0.224
1 0.332 0.7146666666666667 0.242 0.13333333333333333
1 0.526 0.7493333333333333 0.1 0.12533333333333332
1 0.664 0.76 0.142 0.144
1 0.298 0.888 0.182 0.22133333333333333
1 0.46 0.904 0.142 0.184
1 0.608 0.9066666666666666 0.138 0.176
1 0.774 0.912 0.182 0.16266666666666665