0 0.078125 0.5953079178885631 0.060546875 0.3870967741935484
1 0.373046875 0.45161290322580644 0.0556640625 0.045454545454545456
1 0.423828125 0.4472140762463343 0.033203125 0.03372434017595308
1 0.462890625 0.4472140762463343 0.0400390625 0.030791788856304986
1 0.505859375 0.4472140762463343 0.0361328125 0.03372434017595308
1 0.5537109375 0.4472140762463343 0.052734375 0.039589442815249266
1 0.44921875 0.5527859237536656 0.1357421875 0.15249266862170088
1 0.3984375 0.6656891495601173 0.09375 0.05571847507331378
1 0.470703125 0.6715542521994134 0.0712890625 0.06304985337243402
1 0.544921875 0.6656891495601173 0.05859375 0.054252199413489736
1 0.40234375 0.7331378299120235 0.0556640625 0.04105571847507331
1 0.4560546875 0.7346041055718475 0.048828125 0.03519061583577713
1 0.51953125 0.7346041055718475 0.080078125 0.03812316715542522