1 0.5372549019607843 0.1884422110552764 0.20392156862745098 0.20100502512562815
1 0.7647058823529411 0.16080402010050251 0.2196078431372549 0.24371859296482412
1 0.47843137254901963 0.38190954773869346 0.09607843137254903 0.1507537688442211
1 0.5705882352941176 0.3844221105527638 0.06470588235294118 0.13316582914572864
1 0.4803921568627451 0.5728643216080402 0.09411764705882353 0.1306532663316583
1 0.5725490196078431 0.5703517587939698 0.060784313725490195 0.12562814070351758
1 0.6686274509803921 0.5628140703517588 0.1 0.1407035175879397
1 0.4803921568627451 0.7512562814070352 0.09019607843137255 0.12311557788944724
1 0.5686274509803921 0.7487437185929648 0.056862745098039215 0.12814070351758794
1 0.6588235294117647 0.7613065326633166 0.09019607843137255 0.09547738693467336
1 0.788235294117647 0.7562814070351759 0.1450980392156863 0.09547738693467336
1 0.49019607843137253 0.8994974874371859 0.11176470588235295 0.09045226130653267
1 0.5843137254901961 0.8919597989949749 0.054901960784313725 0.06532663316582915
1 0.6450980392156863 0.8869346733668342 0.052941176470588235 0.0678391959798995
1 0.703921568627451 0.8869346733668342 0.0392156862745098 0.06532663316582915
1 0.7509803921568627 0.8869346733668342 0.03725490196078431 0.06532663316582915
1 0.8176470588235294 0.8844221105527639 0.07450980392156863 0.0678391959798995