1 0.18128654970760233 0.875 0.07602339181286549 0.17857142857142858
1 0.26900584795321636 0.8809523809523809 0.07797270955165692 0.16071428571428573
1 0.35282651072124754 0.8809523809523809 0.07992202729044834 0.16071428571428573
1 0.44639376218323584 0.8630952380952381 0.08382066276803118 0.18452380952380953
1 0.6237816764132553 0.8392857142857143 0.24951267056530213 0.18452380952380953