1 0.25263157894736843 0.24866310160427807 0.12280701754385964 0.09358288770053476
1 0.387719298245614 0.2540106951871658 0.14210526315789473 0.0748663101604278
1 0.5 0.25668449197860965 0.07017543859649122 0.06951871657754011
1 0.32105263157894737 0.3315508021390374 0.1456140350877193 0.06417112299465241
1 0.45789473684210524 0.339572192513369 0.11929824561403508 0.08021390374331551
1 0.2982456140350877 0.4037433155080214 0.11754385964912281 0.07219251336898395
1 0.40350877192982454 0.40641711229946526 0.08596491228070176 0.06951871657754011
1 0.4824561403508772 0.4144385026737968 0.06491228070175438 0.0748663101604278
0 0.22105263157894736 0.5267379679144385 0.06666666666666667 0.0962566844919786
0 0.2807017543859649 0.5267379679144385 0.05789473684210526 0.10695187165775401
0 0.3368421052631579 0.5240641711229946 0.054385964912280704 0.08823529411764706
0 0.3894736842105263 0.5213903743315508 0.05789473684210526 0.09893048128342247
0 0.4456140350877193 0.5213903743315508 0.054385964912280704 0.09358288770053476
0 0.4982456140350877 0.5213903743315508 0.05087719298245614 0.09893048128342247
0 0.3263157894736842 0.6443850267379679 0.05263157894736842 0.08823529411764706
0 0.37894736842105264 0.6470588235294118 0.05087719298245614 0.09358288770053476
1 0.3473684210526316 0.7593582887700535 0.23333333333333334 0.06684491978609626
1 0.3140350877192982 0.8262032085561497 0.07719298245614035 0.06149732620320856
1 0.387719298245614 0.8235294117647058 0.056140350877192984 0.058823529411764705
1 0.34385964912280703 0.9090909090909091 0.12631578947368421 0.0855614973262032
0 0.06491228070175438 0.0374331550802139 0.02456140350877193 0.03208556149732621
0 0.06140350877192982 0.06149732620320856 0.017543859649122806 0.016042780748663103
0 0.06315789473684211 0.07754010695187166 0.01929824561403509 0.0213903743315508
0 0.06140350877192982 0.09893048128342247 0.015789473684210527 0.016042780748663103
0 0.042105263157894736 0.0855614973262032 0.02456140350877193 0.0213903743315508
1 0.968421052631579 0.034759358288770054 0.054385964912280704 0.06149732620320856