1 0.6985677083333334 0.25289351851851855 0.048502604166666664 0.030671296296296297
1 0.73828125 0.24421296296296297 0.027994791666666668 0.03414351851851852
1 0.7711588541666666 0.24131944444444445 0.034830729166666664 0.03877314814814815
1 0.734375 0.6267361111111112 0.009114583333333334 0.020833333333333332
1 0.3795572916666667 0.27546296296296297 0.011067708333333334 0.023148148148148147
1 0.2652994791666667 0.26851851851851855 0.011393229166666666 0.023726851851851853
0 0.2688802083333333 0.33796296296296297 0.041666666666666664 0.017939814814814815
0 0.030924479166666668 0.3159722222222222 0.013997395833333334 0.01273148148148148
0 0.2750651041666667 0.4548611111111111 0.012044270833333334 0.009259259259259259
0 0.18880208333333334 0.6666666666666666 0.006184895833333333 0.010416666666666666
1 0.265625 0.6660879629629629 0.012369791666666666 0.05960648148148148