0 0.4583333333333333 0.0475 0.028333333333333332 0.0625
0 0.54 0.2625 0.125 0.02
1 0.5 0.3125 0.051666666666666666 0.0375
1 0.5583333333333333 0.3125 0.056666666666666664 0.0325
1 0.405 0.36 0.09666666666666666 0.0375
1 0.48833333333333334 0.36 0.06666666666666667 0.04
1 0.5833333333333334 0.3575 0.12 0.0375
1 0.6766666666666666 0.3575 0.058333333333333334 0.0475
1 0.4666666666666667 0.41 0.135 0.0375
1 0.595 0.405 0.12 0.0325