1 0.36082474226804123 0.15798922800718132 0.6391752577319587 0.18312387791741472
1 0.35051546391752575 0.36983842010771995 0.4484536082474227 0.1867145421903052
1 0.3634020618556701 0.6068222621184919 0.615979381443299 0.21903052064631956
1 0.3402061855670103 0.8707360861759426 0.634020618556701 0.2513464991023339