1 0.08125 0.5683333333333334 0.0975 0.10166666666666667
1 0.17 0.5483333333333333 0.09375 0.095
1 0.075 0.665 0.0925 0.065
1 0.15625 0.645 0.06875 0.056666666666666664
1 0.435 0.5433333333333333 0.44875 0.24833333333333332
1 0.8125 0.5116666666666667 0.33625 0.21833333333333332
1 0.05 0.7516666666666667 0.07875 0.09333333333333334
1 0.14375 0.7416666666666667 0.09 0.09333333333333334
1 0.255 0.735 0.09375 0.09666666666666666
1 0.3975 0.7233333333333334 0.18875 0.11
1 0.59875 0.7016666666666667 0.13625 0.105
1 0.74875 0.6883333333333334 0.09375 0.10333333333333333
1 0.8975 0.6633333333333333 0.20125 0.13333333333333333
1 0.016875 0.8383333333333334 0.03375 0.035
1 0.065 0.8366666666666667 0.0625 0.03
1 0.12125 0.83 0.04375 0.03
1 0.1725 0.8266666666666667 0.06 0.02666666666666667
1 0.22375 0.8216666666666667 0.0425 0.03
1 0.265 0.8216666666666667 0.03625 0.03
1 0.31125 0.8183333333333334 0.05 0.03
1 0.3675 0.815 0.0625 0.03
1 0.80125 0.7833333333333333 0.04625 0.03333333333333333
1 0.9125 0.7733333333333333 0.1725 0.04