1 0.185 0.4425 0.265625 0.08166666666666667
1 0.45875 0.4575 0.183125 0.085
1 0.661875 0.4658333333333333 0.1575 0.09333333333333334
1 0.85 0.4741666666666667 0.13375 0.08833333333333333
1 0.968125 0.49083333333333334 0.05125 0.07083333333333333
0 0.065625 0.6 0.129375 0.07333333333333333
1 0.155 0.5808333333333333 0.02125 0.029166666666666667
1 0.179375 0.5816666666666667 0.02375 0.03
1 0.200625 0.5808333333333333 0.013125 0.029166666666666667
1 0.220625 0.585 0.019375 0.028333333333333332
1 0.240625 0.58 0.015 0.0325
1 0.261875 0.5858333333333333 0.0275 0.028333333333333332
1 0.16625 0.6208333333333333 0.043125 0.0275
1 0.21375 0.6191666666666666 0.0425 0.03
1 0.2575 0.6183333333333333 0.035625 0.030833333333333334
1 0.415 0.6083333333333333 0.149375 0.050833333333333335
1 0.32375 0.64 0.0325 0.025
1 0.353125 0.6408333333333334 0.0225 0.023333333333333334
1 0.38 0.6433333333333333 0.028125 0.02
1 0.406875 0.6433333333333333 0.023125 0.02
1 0.423125 0.6466666666666666 0.005 0.006666666666666667
1 0.4375 0.6441666666666667 0.023125 0.020833333333333332
1 0.46375 0.645 0.0225 0.02
1 0.4925 0.6458333333333334 0.0275 0.0225
1 0.61125 0.6258333333333334 0.11375 0.06
1 0.530625 0.6658333333333334 0.02375 0.0225
1 0.551875 0.6675 0.015625 0.0225
1 0.563125 0.67 0.00375 0.005
1 0.57625 0.6666666666666666 0.02 0.024166666666666666
1 0.58875 0.6716666666666666 0.005 0.005
1 0.60125 0.6683333333333333 0.018125 0.02666666666666667
1 0.625 0.6691666666666667 0.025 0.02666666666666667
1 0.645 0.67 0.013125 0.02666666666666667
1 0.655 0.6741666666666667 0.00375 0.004166666666666667
1 0.668125 0.6716666666666666 0.020625 0.024166666666666666
1 0.69 0.6725 0.0175 0.0225
1 0.66375 0.6516666666666666 0.009375 0.0125
1 0.685 0.6516666666666666 0.0325 0.015833333333333335
0 0.709375 0.6141666666666666 0.011875 0.0225
0 0.71 0.6366666666666667 0.01875 0.025
1 0.71 0.6566666666666666 0.0125 0.0225
0 0.614375 0.72 0.01125 0.015833333333333335
0 0.64 0.8708333333333333 0.03625 0.05416666666666667
0 0.97 0.8416666666666667 0.055625 0.025833333333333333
0 0.991875 0.6241666666666666 0.014375 0.03333333333333333
1 0.086875 0.7016666666666667 0.026875 0.021666666666666667
0 0.36625 0.8891666666666667 0.0225 0.016666666666666666
0 0.365625 0.9075 0.024375 0.013333333333333334
1 0.38375 0.9708333333333333 0.046875 0.03916666666666667