1 0.8551980198019802 0.5109375 0.12953795379537955 0.083984375
1 0.6427392739273927 0.403515625 0.19966996699669967 0.069140625
1 0.42244224422442245 0.339453125 0.24174917491749176 0.11015625
1 0.16295379537953794 0.3421875 0.12046204620462046 0.071875
1 0.26196369636963696 0.385546875 0.1382013201320132 0.081640625
1 0.3659240924092409 0.409765625 0.12211221122112212 0.08203125
1 0.47029702970297027 0.41640625 0.10891089108910891 0.066015625
1 0.5594059405940595 0.4328125 0.08952145214521452 0.065625
1 0.6398514851485149 0.456640625 0.10354785478547855 0.069140625
1 0.738036303630363 0.477734375 0.12211221122112212 0.069921875
1 0.778052805280528 0.5484375 0.15305280528052806 0.07421875
1 0.898102310231023 0.588671875 0.11468646864686469 0.06640625
1 0.9707095709570958 0.595703125 0.026815181518151814 0.03828125
1 0.6023102310231023 0.689453125 0.1514026402640264 0.08671875
1 0.738036303630363 0.71640625 0.15552805280528054 0.06875
1 0.7442244224422442 0.74140625 0.1283003300330033 0.05234375
1 0.6295379537953796 0.373046875 0.23391089108910892 0.080859375