1 0.4818181818181818 0.3096862210095498 0.22181818181818183 0.2892223738062756
1 0.48 0.5347885402455662 0.20727272727272728 0.19236016371077763
1 0.4636363636363636 0.7353342428376535 0.1890909090909091 0.18281036834924966
0 0.04 0.5893587994542974 0.02181818181818182 0.010914051841746248
0 0.05818181818181818 0.5907230559345157 0.016363636363636365 0.013642564802182811
0 0.04 0.6002728512960437 0.02 0.0068212824010914054
0 0.05818181818181818 0.6016371077762619 0.014545454545454545 0.008185538881309686
0 0.11818181818181818 0.5893587994542974 0.03272727272727273 0.009549795361527967
0 0.11636363636363636 0.5839017735334243 0.03090909090909091 0.0068212824010914054
0 0.7781818181818182 0.5088676671214188 0.04727272727272727 0.017735334242837655
0 0.8490909090909091 0.5320600272851296 0.04181818181818182 0.019099590723055934
0 0.8381818181818181 0.548431105047749 0.02 0.01227830832196453
1 0.86 0.548431105047749 0.02181818181818182 0.013642564802182811
0 0.6527272727272727 0.5320600272851296 0.04181818181818182 0.015006821282401092
1 0.66 0.5088676671214188 0.09636363636363636 0.03956343792633015
1 0.7218181818181818 0.495225102319236 0.05454545454545454 0.03274215552523874