1 0.53 0.4388888888888889 0.286 0.08333333333333333
1 0.274 0.5638888888888889 0.106 0.07222222222222222
1 0.358 0.5694444444444444 0.044 0.06111111111111111
1 0.434 0.5694444444444444 0.096 0.058333333333333334
1 0.528 0.5777777777777777 0.082 0.06666666666666667
1 0.6 0.5777777777777777 0.048 0.06666666666666667
1 0.718 0.5722222222222222 0.178 0.06111111111111111
1 0.25 0.7027777777777777 0.04 0.03888888888888889
1 0.294 0.6972222222222222 0.042 0.03611111111111111
1 0.346 0.7 0.056 0.041666666666666664
1 0.394 0.6972222222222222 0.032 0.03611111111111111
1 0.432 0.6944444444444444 0.042 0.030555555555555555
1 0.478 0.6944444444444444 0.04 0.030555555555555555
1 0.52 0.6916666666666667 0.046 0.030555555555555555
1 0.58 0.6944444444444444 0.07 0.03333333333333333
1 0.63 0.6916666666666667 0.026 0.03333333333333333
1 0.666 0.6888888888888889 0.044 0.03333333333333333
1 0.716 0.6888888888888889 0.056 0.03333333333333333
1 0.756 0.6861111111111111 0.03 0.030555555555555555
1 0.788 0.6888888888888889 0.034 0.03888888888888889
1 0.296 0.7444444444444445 0.044 0.03333333333333333
1 0.39 0.7416666666666667 0.136 0.03611111111111111
1 0.532 0.7416666666666667 0.012 0.011111111111111112
1 0.626 0.7333333333333333 0.048 0.030555555555555555
1 0.712 0.7333333333333333 0.116 0.03333333333333333
1 0.436 0.7833333333333333 0.094 0.03611111111111111
1 0.58 0.7805555555555556 0.184 0.03333333333333333