1 0.3333333333333333 0.6106032906764168 0.07291666666666667 0.051188299817184646
1 0.4140625 0.6124314442413162 0.08463541666666667 0.056672760511883
1 0.5078125 0.6069469835466179 0.09375 0.06398537477148081
1 0.58203125 0.6124314442413162 0.05078125 0.0603290676416819
1 0.30078125 0.6873857404021938 0.10026041666666667 0.06581352833638025
1 0.40625 0.6873857404021938 0.10026041666666667 0.05850091407678245
1 0.5091145833333334 0.6892138939670932 0.08984375 0.051188299817184646
1 0.6067708333333334 0.6892138939670932 0.09114583333333333 0.056672760511883
0 0.4453125 0.09323583180987204 0.014322916666666666 0.012797074954296161
0 0.4231770833333333 0.20475319926873858 0.03125 0.012797074954296161
0 0.22916666666666666 0.20292504570383912 0.015625 0.009140767824497258
1 0.018229166666666668 0.5868372943327239 0.013020833333333334 0.02376599634369287
1 0.0234375 0.6160877513711152 0.0234375 0.03473491773308958