1 0.2577777777777778 0.21921921921921922 0.1511111111111111 0.23423423423423423
1 0.44222222222222224 0.22522522522522523 0.1511111111111111 0.21921921921921922
1 0.5955555555555555 0.23723723723723725 0.1111111111111111 0.2072072072072072
1 0.13333333333333333 0.42342342342342343 0.06 0.09309309309309309
1 0.24222222222222223 0.43243243243243246 0.14888888888888888 0.09009009009009009
1 0.3711111111111111 0.43843843843843844 0.07111111111111111 0.07507507507507508
1 0.44222222222222224 0.44144144144144143 0.028888888888888888 0.06906906906906907
1 0.4777777777777778 0.44744744744744747 0.028888888888888888 0.057057057057057055
1 0.54 0.44144144144144143 0.07555555555555556 0.06906906906906907
1 0.6311111111111111 0.44744744744744747 0.07333333333333333 0.07807807807807808
1 0.7 0.44744744744744747 0.05555555555555555 0.06606606606606606
1 0.18 0.5615615615615616 0.13777777777777778 0.10510510510510511
1 0.3288888888888889 0.5615615615615616 0.11555555555555555 0.09309309309309309
1 0.4888888888888889 0.5735735735735735 0.09111111111111111 0.07807807807807808
1 0.5733333333333334 0.5765765765765766 0.051111111111111114 0.07807807807807808
1 0.18444444444444444 0.6936936936936937 0.13777777777777778 0.1111111111111111
1 0.35777777777777775 0.7087087087087087 0.16666666666666666 0.10810810810810811
1 0.4955555555555556 0.7087087087087087 0.035555555555555556 0.08408408408408409
1 0.5688888888888889 0.7117117117117117 0.06222222222222222 0.08108108108108109