1 0.08547008547008547 0.5660377358490566 0.05811965811965812 0.49056603773584906
1 0.1606837606837607 0.5660377358490566 0.07863247863247863 0.5283018867924528
1 0.22735042735042735 0.5094339622641509 0.044444444444444446 0.5094339622641509
1 0.28205128205128205 0.5849056603773585 0.05811965811965812 0.5471698113207547
1 0.3504273504273504 0.5471698113207547 0.07179487179487179 0.5660377358490566
1 0.4324786324786325 0.5283018867924528 0.08034188034188035 0.5660377358490566
1 0.5145299145299145 0.5471698113207547 0.07521367521367521 0.49056603773584906
1 0.5777777777777777 0.49056603773584906 0.037606837606837605 0.5471698113207547
1 0.629059829059829 0.5471698113207547 0.0547008547008547 0.5660377358490566
1 0.6991452991452991 0.5471698113207547 0.07692307692307693 0.49056603773584906
1 0.7948717948717948 0.5283018867924528 0.10256410256410256 0.4716981132075472