1 0.28875 0.13833333333333334 0.21625 0.13166666666666665
1 0.47625 0.13666666666666666 0.13125 0.14833333333333334
1 0.6275 0.16 0.14375 0.18166666666666667
1 0.7775 0.15 0.13 0.15333333333333332
1 0.31 0.4633333333333333 0.35375 0.34833333333333333
1 0.69875 0.45 0.42125 0.40166666666666667
1 0.20125 0.78 0.10375 0.12
1 0.4675 0.7783333333333333 0.39 0.12333333333333334
1 0.82 0.775 0.2125 0.12
1 0.18125 0.985 0.025 0.011666666666666667
0 0.2025 0.985 0.01375 0.01
1 0.22375 0.9833333333333333 0.02875 0.008333333333333333