1 0.07166666666666667 0.3416666666666667 0.065 0.021666666666666667
1 0.05 0.3616666666666667 0.04 0.02
1 0.095 0.3566666666666667 0.03833333333333333 0.015
1 0.05 0.375 0.021666666666666667 0.016666666666666666
1 0.08666666666666667 0.37333333333333335 0.03833333333333333 0.018333333333333333
0 0.07166666666666667 0.44333333333333336 0.045 0.006666666666666667
0 0.07166666666666667 0.46 0.06666666666666667 0.01
1 0.03166666666666667 0.485 0.025 0.028333333333333332
1 0.06 0.4816666666666667 0.028333333333333332 0.035
1 0.1 0.4866666666666667 0.045 0.03833333333333333
1 0.21833333333333332 0.33666666666666667 0.05 0.021666666666666667
1 0.2833333333333333 0.33666666666666667 0.06833333333333333 0.028333333333333332
1 0.22833333333333333 0.375 0.07 0.04
1 0.29333333333333333 0.37666666666666665 0.05 0.03166666666666667
1 0.25666666666666665 0.415 0.08833333333333333 0.021666666666666667
1 0.25666666666666665 0.44666666666666666 0.035 0.01
1 0.21666666666666667 0.47333333333333333 0.04833333333333333 0.03666666666666667
1 0.2833333333333333 0.47333333333333333 0.07 0.035
1 0.47 0.285 0.03 0.028333333333333332
1 0.445 0.32 0.058333333333333334 0.03333333333333333
1 0.5 0.31666666666666665 0.03833333333333333 0.035
1 0.455 0.3466666666666667 0.03333333333333333 0.021666666666666667
1 0.485 0.3466666666666667 0.023333333333333334 0.02
1 0.4216666666666667 0.37666666666666665 0.043333333333333335 0.03166666666666667
1 0.465 0.375 0.03333333333333333 0.035
1 0.5116666666666667 0.375 0.05333333333333334 0.03666666666666667
0 0.4116666666666667 0.445 0.051666666666666666 0.01
0 0.41 0.4583333333333333 0.075 0.01
0 0.4166666666666667 0.47 0.06 0.01
0 0.4 0.48 0.02666666666666667 0.008333333333333333
0 0.41 0.49333333333333335 0.04833333333333333 0.011666666666666667
0 0.4116666666666667 0.5066666666666667 0.05 0.011666666666666667
1 0.5016666666666667 0.4483333333333333 0.025 0.035
1 0.54 0.4483333333333333 0.043333333333333335 0.025
1 0.5083333333333333 0.47833333333333333 0.04 0.015
1 0.5483333333333333 0.48 0.03 0.02
1 0.51 0.51 0.041666666666666664 0.03166666666666667
1 0.5483333333333333 0.5133333333333333 0.03 0.03333333333333333
1 0.5016666666666667 0.535 0.02666666666666667 0.011666666666666667
1 0.54 0.535 0.043333333333333335 0.011666666666666667
1 0.665 0.3616666666666667 0.06 0.016666666666666666
1 0.7133333333333334 0.3616666666666667 0.023333333333333334 0.018333333333333333
1 0.65 0.335 0.03833333333333333 0.023333333333333334
1 0.7016666666666667 0.3383333333333333 0.04666666666666667 0.025
1 0.665 0.31166666666666665 0.06 0.016666666666666666
1 0.7116666666666667 0.31 0.023333333333333334 0.018333333333333333
1 0.6783333333333333 0.40166666666666667 0.095 0.056666666666666664
1 0.6833333333333333 0.455 0.08 0.045
1 0.86 0.36666666666666664 0.07166666666666667 0.03
1 0.8683333333333333 0.395 0.055 0.025
1 0.8616666666666667 0.41833333333333333 0.03166666666666667 0.013333333333333334
1 0.89 0.4166666666666667 0.015 0.013333333333333334
1 0.8716666666666667 0.43666666666666665 0.056666666666666664 0.023333333333333334
1 0.9083333333333333 0.43833333333333335 0.016666666666666666 0.015
1 0.5516666666666666 0.795 0.05 0.008333333333333333