1 0.6342857142857142 0.27741935483870966 0.13 0.0989247311827957
1 0.7571428571428571 0.27741935483870966 0.09857142857142857 0.08817204301075268
1 0.6114285714285714 0.3655913978494624 0.08 0.06666666666666667
1 0.7057142857142857 0.35698924731182796 0.10285714285714286 0.06451612903225806
1 0.7857142857142857 0.35698924731182796 0.045714285714285714 0.06236559139784946
1 0.6085714285714285 0.43655913978494626 0.08428571428571428 0.053763440860215055
1 0.6742857142857143 0.4344086021505376 0.04 0.060215053763440864
1 0.7314285714285714 0.44516129032258067 0.05857142857142857 0.06236559139784946
1 0.7871428571428571 0.43010752688172044 0.045714285714285714 0.06881720430107527
1 0.6671428571428571 0.5634408602150538 0.014285714285714285 0.03870967741935484
1 0.6442857142857142 0.6301075268817204 0.027142857142857142 0.047311827956989246
1 0.33714285714285713 0.6924731182795699 0.018571428571428572 0.01935483870967742
1 0.35714285714285715 0.6946236559139785 0.018571428571428572 0.01935483870967742
1 0.33 0.7161290322580646 0.018571428571428572 0.017204301075268817
1 0.3457142857142857 0.7182795698924731 0.012857142857142857 0.017204301075268817
1 0.3628571428571429 0.7161290322580646 0.018571428571428572 0.01935483870967742
0 0.32857142857142857 0.7376344086021506 0.014285714285714285 0.012903225806451613
0 0.34 0.7376344086021506 0.01 0.012903225806451613
1 0.36 0.7376344086021506 0.025714285714285714 0.015053763440860216