1 0.5379901960784313 0.39082969432314413 0.06341911764705882 0.048034934497816595
1 0.59375 0.3941048034934498 0.03829656862745098 0.04585152838427948
1 0.6262254901960784 0.3990174672489083 0.022058823529411766 0.03766375545851528
1 0.6519607843137255 0.4077510917030568 0.02971813725490196 0.04475982532751092
1 0.46262254901960786 0.4656113537117904 0.05116421568627451 0.055676855895196505
1 0.5042892156862745 0.46997816593886466 0.025122549019607844 0.05076419213973799
1 0.5462622549019608 0.46779475982532753 0.05238970588235294 0.06222707423580786
1 0.5986519607843137 0.47762008733624456 0.05177696078431373 0.06331877729257641
1 0.6421568627450981 0.46997816593886466 0.027573529411764705 0.06550218340611354
1 0.6715686274509803 0.4705240174672489 0.02696078431372549 0.06441048034934498
1 0.7049632352941176 0.4808951965065502 0.03829656862745098 0.04475982532751092
1 0.47058823529411764 0.5278384279475983 0.026348039215686275 0.05076419213973799
1 0.5024509803921569 0.5365720524017468 0.034926470588235295 0.034388646288209604
1 0.5747549019607843 0.5365720524017468 0.10477941176470588 0.03275109170305677
1 0.6559436274509803 0.5365720524017468 0.04963235294117647 0.027838427947598252
1 0.6982230392156863 0.5360262008733624 0.033394607843137254 0.026746724890829694