1 0.6499162479061976 0.40484429065743943 0.46901172529313234 0.3944636678200692
1 0.9782244556113903 0.04671280276816609 0.04187604690117253 0.09342560553633218
1 0.1490787269681742 0.9065743944636678 0.18760469011725292 0.09688581314878893
1 0.3165829145728643 0.8927335640138409 0.1273031825795645 0.11764705882352941
1 0.4639865996649916 0.8961937716262975 0.16080402010050251 0.11072664359861592
1 0.6030150753768844 0.9100346020761245 0.10552763819095477 0.11764705882352941
1 0.7654941373534339 0.8961937716262975 0.20100502512562815 0.10380622837370242
1 0.9246231155778895 0.8823529411764706 0.11390284757118928 0.1245674740484429