1 0.2970464135021097 0.4797297297297297 0.150210970464135 0.6216216216216216
1 0.4008438818565401 0.5608108108108109 0.032067510548523206 0.20945945945945946
1 0.4919831223628692 0.5135135135135135 0.12995780590717299 0.6283783783783784
1 0.5789029535864979 0.6216216216216216 0.0270042194092827 0.1891891891891892
1 0.659915611814346 0.5067567567567568 0.11392405063291139 0.668918918918919
1 0.8227848101265823 0.6081081081081081 0.17383966244725738 0.49324324324324326