1 0.049479166666666664 0.494140625 0.08854166666666667 0.072265625
0 0.25 0.4609375 0.03125 0.0078125
1 0.23697916666666666 0.53125 0.026041666666666668 0.015625
0 0.19791666666666666 0.580078125 0.0234375 0.01171875
0 0.21354166666666666 0.57421875 0.013020833333333334 0.009765625
0 0.18489583333333334 0.5703125 0.0078125 0.013671875
0 0.20833333333333334 0.560546875 0.0234375 0.017578125
1 0.4192708333333333 0.45703125 0.0390625 0.01953125
0 0.4322916666666667 0.484375 0.015625 0.01171875
0 0.5807291666666666 0.46484375 0.0234375 0.01171875
0 0.6197916666666666 0.46484375 0.049479166666666664 0.0078125
0 0.578125 0.486328125 0.015625 0.009765625
0 0.5963541666666666 0.505859375 0.052083333333333336 0.013671875
0 0.6614583333333334 0.41796875 0.028645833333333332 0.005859375
0 0.65625 0.427734375 0.018229166666666668 0.005859375
0 0.6536458333333334 0.4375 0.010416666666666666 0.0078125
0 0.7265625 0.41796875 0.018229166666666668 0.00390625
0 0.734375 0.4296875 0.026041666666666668 0.005859375
1 0.4427083333333333 0.3046875 0.057291666666666664 0.029296875
1 0.4921875 0.31640625 0.044270833333333336 0.0234375
1 0.5286458333333334 0.3203125 0.026041666666666668 0.021484375
1 0.5546875 0.326171875 0.028645833333333332 0.021484375
1 0.5911458333333334 0.333984375 0.036458333333333336 0.017578125
1 0.4583333333333333 0.330078125 0.057291666666666664 0.029296875
1 0.5182291666666666 0.33984375 0.06510416666666667 0.029296875
1 0.5755208333333334 0.349609375 0.041666666666666664 0.021484375
0 0.546875 0.287109375 0.03125 0.013671875
1 0.3958333333333333 0.359375 0.046875 0.0390625
1 0.4375 0.365234375 0.036458333333333336 0.037109375
1 0.4921875 0.373046875 0.06510416666666667 0.041015625
1 0.5442708333333334 0.380859375 0.03125 0.03515625
1 0.5833333333333334 0.392578125 0.044270833333333336 0.03515625
1 0.6197916666666666 0.396484375 0.028645833333333332 0.02734375
1 0.40625 0.40234375 0.0390625 0.033203125
1 0.4583333333333333 0.408203125 0.057291666666666664 0.03125
1 0.5052083333333334 0.4140625 0.033854166666666664 0.029296875
1 0.546875 0.41796875 0.041666666666666664 0.029296875
1 0.5963541666666666 0.421875 0.057291666666666664 0.033203125
0 0.4375 0.638671875 0.033854166666666664 0.013671875
0 0.4765625 0.64453125 0.03125 0.009765625
0 0.5078125 0.64453125 0.026041666666666668 0.009765625
0 0.5286458333333334 0.642578125 0.013020833333333334 0.009765625
0 0.546875 0.638671875 0.018229166666666668 0.009765625
0 0.453125 0.65625 0.036458333333333336 0.013671875
0 0.4869791666666667 0.66015625 0.028645833333333332 0.013671875
0 0.515625 0.658203125 0.026041666666666668 0.01171875
0 0.5390625 0.654296875 0.010416666666666666 0.01171875
0 0.5494791666666666 0.650390625 0.015625 0.01171875
0 0.5703125 0.64453125 0.020833333333333332 0.01953125
0 0.4609375 0.669921875 0.010416666666666666 0.005859375
0 0.4921875 0.67578125 0.044270833333333336 0.01171875
1 0.5416666666666666 0.66796875 0.041666666666666664 0.017578125