1 0.09710391822827939 0.27927927927927926 0.18568994889267462 0.4954954954954955
1 0.2657580919931857 0.2882882882882883 0.11925042589437819 0.43243243243243246
1 0.444633730834753 0.2702702702702703 0.20272572402044292 0.46846846846846846
1 0.6609880749574105 0.24324324324324326 0.19080068143100512 0.42342342342342343
1 0.8330494037478705 0.22522522522522523 0.11584327086882454 0.3783783783783784