1 0.41379310344827586 0.314 0.10194902548725637 0.056
1 0.5037481259370314 0.31 0.07946026986506746 0.064
1 0.41379310344827586 0.384 0.0734632683658171 0.064
1 0.4947526236881559 0.382 0.07196401799100449 0.064
1 0.36881559220389803 0.462 0.06296851574212893 0.064
1 0.41679160419790107 0.462 0.031484257871064465 0.066
1 0.46326836581709147 0.462 0.05997001499250375 0.05
1 0.5352323838080959 0.454 0.08545727136431784 0.064
1 0.35082458770614694 0.53 0.031484257871064465 0.056
1 0.391304347826087 0.53 0.049475262368815595 0.06
1 0.431784107946027 0.536 0.037481259370314844 0.072
1 0.4767616191904048 0.53 0.06146926536731634 0.064
1 0.5502248875562219 0.54 0.08245877061469266 0.056
1 0.36431784107946025 0.604 0.038980509745127435 0.056
1 0.4122938530734633 0.6 0.053973013493253376 0.062
1 0.46926536731634183 0.608 0.050974512743628186 0.044
1 0.5337331334332833 0.602 0.0704647676161919 0.056
1 0.3598200899550225 0.68 0.035982008995502246 0.058
1 0.4062968515742129 0.682 0.049475262368815595 0.05
1 0.4752623688155922 0.674 0.07796101949025487 0.062
1 0.5547226386806596 0.672 0.07196401799100449 0.064
1 0.4482758620689655 0.746 0.019490254872563718 0.016
1 0.4662668665667166 0.744 0.013493253373313344 0.018
1 0.48575712143928035 0.742 0.0239880059970015 0.02
1 0.5082458770614693 0.744 0.022488755622188907 0.016
1 0.5337331334332833 0.74 0.029985007496251874 0.022
1 0.5622188905547226 0.742 0.026986506746626688 0.026
1 0.5787106446776612 0.744 0.0074962518740629685 0.02
1 0.8455772113943029 0.398 0.09145427286356822 0.12