1 0.4721200980392157 0.19281045751633988 0.08302696078431372 0.061683006535947715
1 0.3700980392156863 0.3321078431372549 0.05024509803921569 0.04738562091503268
1 0.4414828431372549 0.3255718954248366 0.08118872549019608 0.05800653594771242
1 0.5364583333333334 0.33374183006535946 0.08884803921568628 0.04616013071895425
1 0.6200980392156863 0.3410947712418301 0.06801470588235294 0.05269607843137255
1 0.3704044117647059 0.5302287581699346 0.04932598039215686 0.03022875816993464
1 0.4068627450980392 0.5318627450980392 0.011948529411764705 0.025735294117647058
1 0.43933823529411764 0.5179738562091504 0.03155637254901961 0.023284313725490197
1 0.47549019607843135 0.5208333333333334 0.03553921568627451 0.027369281045751634
1 0.5125612745098039 0.5200163398692811 0.03278186274509804 0.026143790849673203
1 0.4491421568627451 0.5473856209150327 0.04963235294117647 0.02042483660130719
1 0.49693627450980393 0.5506535947712419 0.03799019607843137 0.027777777777777776
1 0.5287990196078431 0.5453431372549019 0.017769607843137254 0.024509803921568627
1 0.5609681372549019 0.5453431372549019 0.03615196078431373 0.02165032679738562
1 0.5965073529411765 0.5473856209150327 0.026348039215686275 0.01838235294117647
1 0.6271446078431373 0.5465686274509803 0.02542892156862745 0.03022875816993464
1 0.3704044117647059 0.6160130718954249 0.0508578431372549 0.027369281045751634
1 0.40410539215686275 0.6180555555555556 0.011029411764705883 0.02287581699346405
1 0.4384191176470588 0.6053921568627451 0.030330882352941176 0.024509803921568627
1 0.47763480392156865 0.6049836601307189 0.03982843137254902 0.022058823529411766
1 0.5180759803921569 0.6025326797385621 0.030637254901960783 0.025735294117647058
1 0.44669117647058826 0.636437908496732 0.05024509803921569 0.028186274509803922
1 0.49234068627450983 0.6331699346405228 0.03278186274509804 0.01919934640522876
1 0.5376838235294118 0.6319444444444444 0.04656862745098039 0.02042483660130719