1 0.435546875 0.359375 0.12109375 0.07552083333333333
1 0.576171875 0.3567708333333333 0.154296875 0.06510416666666667
1 0.693359375 0.359375 0.07421875 0.052083333333333336
1 0.36328125 0.453125 0.07421875 0.026041666666666668
1 0.5390625 0.4479166666666667 0.03125 0.026041666666666668
1 0.576171875 0.4479166666666667 0.037109375 0.041666666666666664
1 0.611328125 0.4479166666666667 0.025390625 0.041666666666666664
1 0.75 0.4401041666666667 0.033203125 0.033854166666666664
1 0.794921875 0.4453125 0.04296875 0.03125
1 0.845703125 0.4401041666666667 0.046875 0.0390625
0 0.216796875 0.5390625 0.05859375 0.1015625
0 0.529296875 0.53125 0.056640625 0.08333333333333333
0 0.150390625 0.4895833333333333 0.056640625 0.0078125
0 0.16015625 0.5416666666666666 0.029296875 0.020833333333333332
0 0.984375 0.9010416666666666 0.021484375 0.033854166666666664
0 0.982421875 0.984375 0.015625 0.028645833333333332
1 0.1796875 0.4557291666666667 0.025390625 0.026041666666666668
0 0.1796875 0.3671875 0.017578125 0.010416666666666666
0 0.19921875 0.3645833333333333 0.015625 0.0078125
0 0.1796875 0.3776041666666667 0.013671875 0.0078125
0 0.193359375 0.3776041666666667 0.013671875 0.010416666666666666
0 0.251953125 0.3671875 0.017578125 0.013020833333333334
1 0.263671875 0.3671875 0.00390625 0.013020833333333334