1 0.08780487804878048 0.7592592592592593 0.06341463414634146 0.16296296296296298
1 0.2056910569105691 0.7296296296296296 0.15528455284552845 0.1925925925925926
1 0.35203252032520327 0.7333333333333333 0.11544715447154472 0.17037037037037037
1 0.8016260162601626 0.6851851851851852 0.08943089430894309 0.15925925925925927
1 0.8869918699186992 0.6777777777777778 0.06504065040650407 0.15185185185185185
1 0.9601626016260163 0.6777777777777778 0.06260162601626017 0.14814814814814814
1 0.2934959349593496 0.34444444444444444 0.18292682926829268 0.362962962962963
1 0.5211382113821138 0.2777777777777778 0.22032520325203253 0.48148148148148145
1 0.8097560975609757 0.3 0.32926829268292684 0.36666666666666664