1 0.24609375 0.1822289156626506 0.03359375 0.04216867469879518
1 0.29921875 0.17620481927710843 0.0546875 0.03765060240963856
1 0.3671875 0.16716867469879518 0.0546875 0.03614457831325301
1 0.43828125 0.15963855421686746 0.053125 0.04066265060240964
1 0.51640625 0.1566265060240964 0.075 0.03162650602409638
1 0.5859375 0.15060240963855423 0.03203125 0.03614457831325301
1 0.63671875 0.15060240963855423 0.0390625 0.030120481927710843
1 0.7046875 0.14909638554216867 0.0640625 0.03463855421686747
1 0.19765625 0.2469879518072289 0.1546875 0.08885542168674698
1 0.31796875 0.24397590361445784 0.075 0.07078313253012049
1 0.40546875 0.23795180722891565 0.09296875 0.07680722891566265
1 0.49140625 0.22590361445783133 0.06875 0.07530120481927711
1 0.59921875 0.21987951807228914 0.1328125 0.08734939759036145
1 0.71484375 0.21686746987951808 0.08515625 0.08132530120481928
1 0.82109375 0.21234939759036145 0.1078125 0.07078313253012049
1 0.3390625 0.30271084337349397 0.10625 0.043674698795180725
1 0.46171875 0.29518072289156627 0.1359375 0.046686746987951805
1 0.5515625 0.2936746987951807 0.03046875 0.0391566265060241
1 0.6015625 0.2891566265060241 0.05234375 0.04066265060240964
1 0.66640625 0.2876506024096386 0.06484375 0.04216867469879518
1 0.8421875 0.3132530120481928 0.18359375 0.02710843373493976
1 0.07109375 0.35993975903614456 0.01484375 0.030120481927710843
1 0.09140625 0.3569277108433735 0.01796875 0.02710843373493976
1 0.11796875 0.3569277108433735 0.0265625 0.02710843373493976
1 0.1546875 0.35240963855421686 0.03046875 0.030120481927710843
1 0.1890625 0.3493975903614458 0.0328125 0.0286144578313253
1 0.21796875 0.34789156626506024 0.02109375 0.02710843373493976
1 0.2421875 0.3463855421686747 0.02421875 0.0286144578313253
1 0.13984375 0.5 0.06796875 0.1280120481927711
1 0.1984375 0.4954819277108434 0.04609375 0.12349397590361445
1 0.25625 0.4864457831325301 0.059375 0.11897590361445783
1 0.325 0.47289156626506024 0.06953125 0.11295180722891567
1 0.39609375 0.4743975903614458 0.0671875 0.11295180722891567
1 0.4640625 0.4759036144578313 0.06640625 0.0963855421686747
1 0.52421875 0.48042168674698793 0.0484375 0.1144578313253012
1 0.56640625 0.463855421686747 0.03203125 0.10843373493975904
1 0.62109375 0.45933734939759036 0.0671875 0.10692771084337349
1 0.69140625 0.46536144578313254 0.071875 0.1355421686746988
1 0.75 0.4623493975903614 0.05703125 0.14156626506024098
1 0.81015625 0.4623493975903614 0.059375 0.09186746987951808
1 0.85546875 0.463855421686747 0.034375 0.08734939759036145
1 0.8890625 0.4623493975903614 0.0203125 0.08885542168674698
1 0.02265625 0.9367469879518072 0.03984375 0.06475903614457831
0 0.903125 0.8719879518072289 0.02265625 0.01957831325301205
1 0.90859375 0.8780120481927711 0.01328125 0.009036144578313253