1 0.07835455435847209 0.3353566009104704 0.02840352595494613 0.02276176024279211
1 0.11557296767874632 0.33687405159332323 0.043095004897159644 0.019726858877086494
1 0.09990205680705191 0.3899848254931715 0.04897159647404505 0.04400606980273141
1 0.10381978452497552 0.4294385432473445 0.05386875612144956 0.057663125948406675
1 0.05484818805093046 0.6646433990895296 0.05386875612144956 0.0622154779969651
1 0.0920666013712047 0.6570561456752656 0.010773751224289911 0.04704097116843703
1 0.13222331047992164 0.6585735963581184 0.05582761998041136 0.05311077389984825
1 0.1714005876591577 0.6525037936267072 0.011753183153770812 0.04400606980273141
1 0.04505386875612145 0.7465857359635811 0.059745347698334964 0.06069802731411229
1 0.10186092066601371 0.7359635811836115 0.04603330068560235 0.051593323216995446
1 0.15964740450538686 0.7359635811836115 0.06072477962781587 0.05918057663125948
1 0.04603330068560235 0.8224582701062215 0.04603330068560235 0.051593323216995446
1 0.08129285014691479 0.8148710166919575 0.010773751224289911 0.048558421851289835
1 0.11067580803134182 0.8118361153262519 0.030362389813907934 0.048558421851289835
1 0.15964740450538686 0.8057663125948407 0.059745347698334964 0.048558421851289835
1 0.04701273261508325 0.9028831562974203 0.04603330068560235 0.0622154779969651
1 0.0832517140058766 0.8922610015174507 0.011753183153770812 0.04704097116843703
1 0.11165523996082272 0.8877086494688923 0.03232125367286973 0.048558421851289835
1 0.16258570029382957 0.881638846737481 0.059745347698334964 0.051593323216995446
1 0.0901077375122429 0.9650986342943855 0.03330068560235064 0.05007587253414264
1 0.13222331047992164 0.9590288315629742 0.040156709108716944 0.05007587253414264
1 0.07541625857002938 0.027314112291350532 0.021547502448579822 0.054628224582701064
1 0.10773751224289912 0.07435508345978756 0.047992164544564155 0.10015174506828528
1 0.07051909892262488 0.13960546282245828 0.03721841332027424 0.15174506828528073
1 0.11263467189030363 0.18209408194233687 0.04897159647404505 0.11987860394537178
1 0.3770812928501469 0.15933232169954475 0.06953966699314397 0.06980273141122914
1 0.5004897159647405 0.16236722306525037 0.13712047012732614 0.06069802731411229
1 0.6307541625857003 0.16084977238239756 0.0901077375122429 0.10318664643399089
0 0.5798237022526934 0.7647951441578149 0.01860920666013712 0.013657056145675266
0 0.5817825661116552 0.7769347496206374 0.019588638589618023 0.01669195751138088
1 0.6395690499510284 0.802731411229135 0.019588638589618023 0.018209408194233688
1 0.6875612144955926 0.7845220030349014 0.02056807051909892 0.02276176024279211
1 0.6885406464250735 0.802731411229135 0.021547502448579822 0.021244309559939303
1 0.8285994123408423 0.2534142640364188 0.019588638589618023 0.019726858877086494
1 0.8530852105778648 0.251896813353566 0.02840352595494613 0.018209408194233688
1 0.8432908912830558 0.28072837632776937 0.03623898139079334 0.024279210925644917
1 0.8432908912830558 0.30045523520485584 0.03819784524975514 0.028831562974203338
1 0.7561214495592556 0.13505311077389984 0.11753183153770813 0.11077389984825493