1 0.25 0.5155709342560554 0.17647058823529413 0.10034602076124567
1 0.3104575163398693 0.8996539792387543 0.08823529411764706 0.1314878892733564
1 0.39215686274509803 0.8408304498269896 0.0915032679738562 0.10726643598615918
1 0.5098039215686274 0.8304498269896193 0.1454248366013072 0.09342560553633218
1 0.5980392156862745 0.8581314878892734 0.0392156862745098 0.09688581314878893
1 0.6601307189542484 0.903114186851211 0.10294117647058823 0.14186851211072665