1 0.3590686274509804 0.16013071895424835 0.20404411764705882 0.10130718954248366
1 0.5860906862745098 0.19566993464052287 0.21997549019607843 0.11683006535947713
1 0.25643382352941174 0.28799019607843135 0.2849264705882353 0.17320261437908496
1 0.49050245098039214 0.30106209150326796 0.15870098039215685 0.16666666666666666
1 0.7015931372549019 0.31781045751633985 0.25 0.15849673202614378
1 0.40379901960784315 0.4256535947712418 0.20006127450980393 0.10702614379084967
1 0.5946691176470589 0.4252450980392157 0.19638480392156862 0.08905228758169935
1 0.1565563725490196 0.5290032679738562 0.13756127450980393 0.1111111111111111
1 0.3137254901960784 0.5302287581699346 0.15992647058823528 0.10702614379084967
1 0.4724264705882353 0.5330882352941176 0.1133578431372549 0.10416666666666667
1 0.5912990196078431 0.5245098039215687 0.11519607843137254 0.125
1 0.7138480392156863 0.5241013071895425 0.09895833333333333 0.1294934640522876
1 0.8118872549019608 0.5310457516339869 0.1133578431372549 0.12091503267973856
1 0.4653799019607843 0.8263888888888888 0.011948529411764705 0.06495098039215687
1 0.4742647058823529 0.9379084967320261 0.018995098039215685 0.09967320261437909
1 0.4742647058823529 0.8120915032679739 0.011642156862745098 0.05392156862745098
1 0.5631127450980392 0.8165849673202614 0.04963235294117647 0.028594771241830064
1 0.6066176470588235 0.8157679738562091 0.031862745098039214 0.024918300653594773
1 0.5536151960784313 0.863562091503268 0.022058823529411766 0.024918300653594773
1 0.5557598039215687 0.9007352941176471 0.022365196078431373 0.024509803921568627
1 0.5579044117647058 0.9375 0.022365196078431373 0.024918300653594773
1 0.5600490196078431 0.9758986928104575 0.02297794117647059 0.026143790849673203
1 0.5762867647058824 0.8598856209150327 0.023590686274509803 0.031862745098039214
1 0.5750612745098039 0.8995098039215687 0.015931372549019607 0.025735294117647058
1 0.6167279411764706 0.8615196078431373 0.024509803921568627 0.026143790849673203
1 0.6204044117647058 0.8974673202614379 0.02542892156862745 0.023284313725490197
1 0.6099877450980392 0.9240196078431373 0.03982843137254902 0.021241830065359478
1 0.6449142156862745 0.9211601307189542 0.02696078431372549 0.021241830065359478
1 0.6026348039215687 0.9526143790849673 0.027573529411764705 0.018790849673202614
1 0.6063112745098039 0.9808006535947712 0.028186274509803922 0.020016339869281044
1 0.6308210784313726 0.9481209150326797 0.027879901960784315 0.025326797385620915
1 0.6277573529411765 0.9799836601307189 0.016237745098039217 0.02042483660130719