1 0.6675951717734447 0.5325542570951586 0.10399257195914577 0.041736227045075125
1 0.7483751160631383 0.5375626043405676 0.04642525533890436 0.038397328881469114
1 0.8022284122562674 0.5375626043405676 0.052924791086350974 0.038397328881469114
1 0.851439182915506 0.5308848080133556 0.03714020427112349 0.04006677796327212
1 0.8969359331476323 0.5375626043405676 0.0510677808727948 0.038397328881469114
1 0.7103064066852368 0.5792988313856428 0.060352831940575676 0.02671118530884808
1 0.7966573816155988 0.5776293823038398 0.11049210770659239 0.025041736227045076
1 0.7038068709377902 0.9398998330550918 0.05385329619312906 0.015025041736227046
1 0.7836583101207056 0.9398998330550918 0.027855153203342618 0.015025041736227046
0 0.7502321262766946 0.9432387312186978 0.031569173630454965 0.01669449081803005
0 0.7808727948003714 0.4757929883138564 0.012070566388115135 0.02003338898163606
1 0.787372330547818 0.4557595993322204 0.009285051067780872 0.03171953255425709