1 0.2111111111111111 0.34479166666666666 0.15555555555555556 0.09166666666666666
1 0.3972222222222222 0.35208333333333336 0.2 0.09479166666666666
1 0.5791666666666667 0.36770833333333336 0.15416666666666667 0.08020833333333334
1 0.7013888888888888 0.37395833333333334 0.09027777777777778 0.07291666666666667
1 0.8180555555555555 0.375 0.15555555555555556 0.08958333333333333