1 0.24313725490196078 0.8068181818181818 0.13529411764705881 0.2840909090909091
1 0.3588235294117647 0.7840909090909091 0.0784313725490196 0.375
1 0.4372549019607843 0.7840909090909091 0.06666666666666667 0.3068181818181818
1 0.5117647058823529 0.7727272727272727 0.0803921568627451 0.375
1 0.5862745098039216 0.7840909090909091 0.052941176470588235 0.36363636363636365
1 0.6431372549019608 0.7613636363636364 0.056862745098039215 0.3977272727272727