1 0.046 0.568215892053973 0.021 0.03298350824587706
1 0.077 0.5637181409295352 0.037 0.046476761619190406
1 0.107 0.5727136431784108 0.028 0.035982008995502246
1 0.136 0.5787106446776612 0.033 0.031484257871064465
1 0.049 0.6146926536731634 0.016 0.019490254872563718
1 0.072 0.6176911544227887 0.026 0.020989505247376312
0 0.197 0.6146926536731634 0.008 0.005997001499250375
0 0.204 0.6146926536731634 0.006 0.005997001499250375
0 0.228 0.6746626686656672 0.004 0.0014992503748125937
0 0.228 0.679160419790105 0.006 0.0029985007496251873
0 0.012 0.7571214392803598 0.014 0.01199400299850075
0 0.558 0.671664167916042 0.01 0.008995502248875561
0 0.473 0.671664167916042 0.011 0.010494752623688156
0 0.692 0.6956521739130435 0.009 0.008995502248875561
0 0.703 0.6956521739130435 0.011 0.0074962518740629685
0 0.675 0.5217391304347826 0.007 0.0074962518740629685
0 0.682 0.5217391304347826 0.006 0.0074962518740629685
0 0.688 0.5217391304347826 0.004 0.0074962518740629685
0 0.669 0.5322338830584707 0.009 0.0074962518740629685
0 0.675 0.5322338830584707 0.003 0.005997001499250375
0 0.68 0.5322338830584707 0.006 0.005997001499250375
0 0.686 0.5322338830584707 0.007 0.0074962518740629685
0 0.786 0.6911544227886057 0.012 0.014992503748125937
0 0.912 0.6026986506746627 0.013 0.004497751124437781
0 0.929 0.6041979010494752 0.006 0.004497751124437781
0 0.936 0.6041979010494752 0.009 0.004497751124437781
0 0.945 0.6056971514242878 0.007 0.005997001499250375
0 0.911 0.6086956521739131 0.008 0.004497751124437781
0 0.929 0.6101949025487257 0.007 0.004497751124437781
0 0.937 0.6116941529235382 0.007 0.005997001499250375
0 0.945 0.6116941529235382 0.008 0.004497751124437781
0 0.91 0.616191904047976 0.012 0.0029985007496251873
0 0.941 0.6191904047976012 0.016 0.0029985007496251873
0 0.908 0.6221889055472264 0.013 0.004497751124437781
1 0.576 0.10794602698650675 0.035 0.05997001499250375
1 0.618 0.10344827586206896 0.032 0.08845577211394302
1 0.666 0.08995502248875563 0.038 0.07796101949025487
1 0.716 0.09295352323838081 0.046 0.09295352323838081
1 0.532 0.1889055472263868 0.057 0.06596701649175413
1 0.494 0.24737631184407796 0.02 0.05547226386806597
1 0.523 0.24887556221889057 0.033 0.053973013493253376
1 0.562 0.24887556221889057 0.039 0.06746626686656672
1 0.756 0.1724137931034483 0.069 0.0734632683658171
1 0.693 0.2353823088455772 0.073 0.07496251874062969
1 0.756 0.24437781109445278 0.041 0.050974512743628186
1 0.812 0.2413793103448276 0.061 0.053973013493253376