0 0.330859375 0.10520833333333333 0.018359375 0.0046875
0 0.324609375 0.10989583333333333 0.006640625 0.0046875
0 0.334765625 0.11041666666666666 0.0125 0.005729166666666666
1 0.39609375 0.16041666666666668 0.113671875 0.075
1 0.542578125 0.16770833333333332 0.135546875 0.075
1 0.78125 0.17864583333333334 0.293359375 0.08697916666666666
0 0.590234375 0.11927083333333334 0.016015625 0.0036458333333333334
0 0.58515625 0.12395833333333334 0.00546875 0.004166666666666667
0 0.590625 0.12395833333333334 0.0046875 0.0036458333333333334
0 0.59609375 0.125 0.0046875 0.003125
1 0.565625 0.24322916666666666 0.144140625 0.07135416666666666
1 0.704296875 0.24322916666666666 0.115234375 0.053125
1 0.553515625 0.3260416666666667 0.04921875 0.0359375
1 0.5953125 0.3328125 0.02578125 0.035416666666666666
1 0.62578125 0.32916666666666666 0.027734375 0.034375
1 0.6671875 0.3333333333333333 0.047265625 0.0296875
1 0.710546875 0.3333333333333333 0.03125 0.033854166666666664
1 0.56015625 0.36666666666666664 0.063671875 0.022916666666666665
1 0.633984375 0.3697916666666667 0.069921875 0.022395833333333334
1 0.7015625 0.3729166666666667 0.04921875 0.020833333333333332
1 0.4484375 0.4171875 0.02421875 0.0067708333333333336
1 0.437890625 0.42604166666666665 0.0234375 0.0078125
1 0.455859375 0.4265625 0.0140625 0.0078125
1 0.46640625 0.4270833333333333 0.01015625 0.007291666666666667
1 0.4765625 0.42864583333333334 0.013671875 0.008333333333333333
1 0.53203125 0.40677083333333336 0.01171875 0.0125
1 0.544921875 0.40677083333333336 0.015234375 0.011979166666666667
1 0.566796875 0.4088541666666667 0.028515625 0.010416666666666666
1 0.5890625 0.4088541666666667 0.0140625 0.011458333333333333
1 0.6 0.40989583333333335 0.006640625 0.009375
1 0.6078125 0.4083333333333333 0.008203125 0.013541666666666667
1 0.61953125 0.409375 0.01484375 0.0125
1 0.6328125 0.4109375 0.011328125 0.0140625
1 0.643359375 0.40989583333333335 0.00859375 0.011979166666666667
1 0.65703125 0.41041666666666665 0.01875 0.011979166666666667
1 0.672265625 0.41041666666666665 0.010546875 0.013541666666666667
1 0.68203125 0.4114583333333333 0.00859375 0.0109375
1 0.691015625 0.41302083333333334 0.01015625 0.0140625
1 0.699609375 0.4114583333333333 0.007421875 0.013020833333333334
1 0.7109375 0.41302083333333334 0.013671875 0.011979166666666667
1 0.72421875 0.41302083333333334 0.011328125 0.011979166666666667
1 0.733984375 0.41354166666666664 0.006640625 0.011458333333333333
1 0.74296875 0.4140625 0.01015625 0.0125
1 0.753125 0.41354166666666664 0.009765625 0.013020833333333334
1 0.765625 0.41510416666666666 0.014453125 0.0109375
1 0.7765625 0.41458333333333336 0.0078125 0.011979166666666667
1 0.7859375 0.4161458333333333 0.011328125 0.011458333333333333
1 0.510546875 0.42239583333333336 0.025 0.0109375
1 0.53984375 0.4244791666666667 0.033984375 0.0125
1 0.5828125 0.42552083333333335 0.051953125 0.014583333333333334
1 0.634375 0.4276041666666667 0.04921875 0.0125
1 0.663671875 0.428125 0.008203125 0.013020833333333334
1 0.67421875 0.4270833333333333 0.010546875 0.013020833333333334
1 0.6859375 0.4276041666666667 0.011328125 0.0125
1 0.696875 0.4296875 0.008203125 0.011458333333333333
1 0.707421875 0.428125 0.010546875 0.0125
1 0.719921875 0.4276041666666667 0.013671875 0.0140625
1 0.73359375 0.42916666666666664 0.0109375 0.011979166666666667
1 0.74375 0.43020833333333336 0.00859375 0.013541666666666667
1 0.75390625 0.43020833333333336 0.0109375 0.0125
1 0.7640625 0.4322916666666667 0.009765625 0.0125
1 0.77265625 0.43072916666666666 0.006640625 0.013020833333333334
1 0.78203125 0.43125 0.010546875 0.0125
1 0.79140625 0.43125 0.00703125 0.011979166666666667
1 0.800390625 0.4317708333333333 0.01015625 0.013020833333333334
1 0.812109375 0.43125 0.012109375 0.0140625
1 0.541015625 0.4395833333333333 0.01484375 0.013541666666666667
1 0.5578125 0.4395833333333333 0.0171875 0.0125
1 0.57265625 0.4390625 0.010546875 0.0140625
1 0.584765625 0.4395833333333333 0.01171875 0.013541666666666667
1 0.6 0.440625 0.016796875 0.013020833333333334
1 0.613671875 0.4421875 0.008984375 0.010416666666666666
1 0.6234375 0.4421875 0.008984375 0.0109375
1 0.633984375 0.44166666666666665 0.011328125 0.013541666666666667
1 0.644921875 0.4432291666666667 0.009765625 0.010416666666666666
1 0.656640625 0.4427083333333333 0.01171875 0.0125
1 0.666796875 0.44427083333333334 0.00703125 0.013541666666666667
1 0.678125 0.4427083333333333 0.014453125 0.015104166666666667
1 0.690234375 0.44375 0.009765625 0.013020833333333334
1 0.703515625 0.44427083333333334 0.015625 0.011979166666666667
1 0.717578125 0.44479166666666664 0.0109375 0.0125
1 0.732421875 0.4453125 0.017578125 0.013541666666666667
1 0.749609375 0.44583333333333336 0.016015625 0.013020833333333334
1 0.771484375 0.4479166666666667 0.026171875 0.0109375
1 0.572265625 0.4546875 0.0140625 0.014583333333333334
1 0.5859375 0.45416666666666666 0.01171875 0.0125
1 0.59609375 0.4552083333333333 0.006640625 0.014583333333333334
1 0.60703125 0.45625 0.013671875 0.013541666666666667
1 0.620703125 0.4546875 0.01171875 0.013541666666666667
1 0.6328125 0.45677083333333335 0.011328125 0.0125
1 0.6421875 0.4552083333333333 0.0078125 0.0140625
1 0.653125 0.45729166666666665 0.01328125 0.0140625
1 0.66875 0.4588541666666667 0.01640625 0.0125
1 0.696484375 0.459375 0.037109375 0.013020833333333334
1 0.734765625 0.459375 0.03828125 0.013020833333333334
1 0.195703125 0.5609375 0.0171875 0.0125
1 0.214453125 0.5609375 0.020703125 0.013020833333333334
1 0.231640625 0.5614583333333333 0.012890625 0.013020833333333334
1 0.192578125 0.5739583333333333 0.012109375 0.011979166666666667
1 0.201171875 0.575 0.00703125 0.013020833333333334
1 0.207421875 0.5755208333333334 0.005859375 0.010416666666666666
1 0.21484375 0.5770833333333333 0.00859375 0.011458333333333333
1 0.22265625 0.5765625 0.00625 0.009375
1 0.23125 0.5755208333333334 0.01015625 0.011979166666666667
0 0.459375 0.5046875 0.040625 0.0046875
0 0.47421875 0.5333333333333333 0.004296875 0.0015625
0 0.474609375 0.5375 0.0046875 0.0015625
0 0.47421875 0.5416666666666666 0.004296875 0.0015625
0 0.433203125 0.5484375 0.00625 0.0015625
0 0.433203125 0.553125 0.003125 0.0015625
0 0.433203125 0.559375 0.003125 0.0015625
0 0.4328125 0.5682291666666667 0.003125 0.0015625
0 0.432421875 0.5770833333333333 0.002734375 0.0015625
0 0.453125 0.5494791666666666 0.019140625 0.0020833333333333333
0 0.47421875 0.5489583333333333 0.009765625 0.0020833333333333333
0 0.473828125 0.5510416666666667 0.009765625 0.0020833333333333333
0 0.440234375 0.553125 0.005859375 0.0015625
0 0.440234375 0.5588541666666667 0.005078125 0.0015625
0 0.441796875 0.5619791666666667 0.00859375 0.0020833333333333333
0 0.440234375 0.5677083333333334 0.0046875 0.0020833333333333333
0 0.44140625 0.571875 0.0078125 0.0020833333333333333
0 0.43984375 0.5765625 0.005859375 0.0026041666666666665
0 0.441015625 0.5802083333333333 0.008203125 0.0020833333333333333
0 0.46328125 0.5541666666666667 0.00390625 0.0015625
0 0.462890625 0.5583333333333333 0.004296875 0.0020833333333333333
0 0.462890625 0.5630208333333333 0.00390625 0.0020833333333333333
0 0.462890625 0.5671875 0.00390625 0.0020833333333333333
0 0.462890625 0.571875 0.003515625 0.0020833333333333333
0 0.462890625 0.5765625 0.00390625 0.0020833333333333333
0 0.462890625 0.5802083333333333 0.00390625 0.0026041666666666665
0 0.473828125 0.5546875 0.004296875 0.0020833333333333333
0 0.47421875 0.5609375 0.00390625 0.0026041666666666665
0 0.47421875 0.5697916666666667 0.00390625 0.0026041666666666665
0 0.473828125 0.5786458333333333 0.003125 0.0020833333333333333
0 0.4359375 0.5848958333333333 0.01484375 0.0020833333333333333
0 0.46015625 0.5859375 0.033203125 0.003125
0 0.43515625 0.5869791666666667 0.012109375 0.0020833333333333333
0 0.437890625 0.5890625 0.019140625 0.0020833333333333333
0 0.453125 0.5895833333333333 0.010546875 0.0020833333333333333
0 0.4625 0.5895833333333333 0.00625 0.0020833333333333333
0 0.468359375 0.5895833333333333 0.0046875 0.0020833333333333333
0 0.473828125 0.5895833333333333 0.0046875 0.0020833333333333333
0 0.4359375 0.5911458333333334 0.015625 0.0020833333333333333
1 0.003125 0.7135416666666666 0.005859375 0.0171875
1 0.006640625 0.7317708333333334 0.0125 0.021875
0 0.153125 0.7572916666666667 0.00625 0.003125
0 0.3109375 0.7713541666666667 0.022265625 0.014583333333333334
1 0.324609375 0.7802083333333333 0.015234375 0.011458333333333333
0 0.3234375 0.7510416666666667 0.01484375 0.008854166666666666
0 0.49765625 0.7432291666666667 0.01171875 0.009895833333333333
0 0.5 0.7505208333333333 0.014453125 0.0109375
1 0.56640625 0.6869791666666667 0.01640625 0.0067708333333333336
0 0.6171875 0.7078125 0.009765625 0.0067708333333333336
0 0.62890625 0.7109375 0.006640625 0.009375
0 0.57109375 0.5265625 0.038671875 0.028125
0 0.68203125 0.6494791666666667 0.006640625 0.019791666666666666
0 0.68828125 0.6505208333333333 0.007421875 0.018229166666666668
0 0.684375 0.6666666666666666 0.005078125 0.007291666666666667
0 0.688671875 0.6666666666666666 0.003125 0.007291666666666667
0 0.68203125 0.7609375 0.009765625 0.009895833333333333
0 0.678515625 0.76875 0.00859375 0.009895833333333333
1 0.715625 0.7572916666666667 0.0203125 0.0125
1 0.770703125 0.6994791666666667 0.032421875 0.049479166666666664
1 0.808984375 0.6973958333333333 0.03046875 0.053125
1 0.78984375 0.725 0.026171875 0.015625
1 0.783984375 0.7401041666666667 0.025390625 0.014583333333333334
1 0.804296875 0.7401041666666667 0.013671875 0.015104166666666667
1 0.873828125 0.6770833333333334 0.019140625 0.03802083333333333
1 0.887109375 0.6630208333333333 0.0140625 0.0140625
1 0.9015625 0.6619791666666667 0.0140625 0.013541666666666667
1 0.9140625 0.6661458333333333 0.012890625 0.015625
1 0.9234375 0.6828125 0.015625 0.027083333333333334
1 0.88984375 0.6869791666666667 0.012109375 0.014583333333333334
1 0.9046875 0.6885416666666667 0.015234375 0.015625
1 0.78359375 0.534375 0.005078125 0.0046875
1 0.7921875 0.5348958333333333 0.01015625 0.0046875
1 0.803515625 0.5359375 0.01015625 0.005729166666666666
1 0.812109375 0.5359375 0.006640625 0.005208333333333333
1 0.791796875 0.5401041666666667 0.0140625 0.004166666666666667
1 0.80390625 0.540625 0.006640625 0.003125
1 0.810546875 0.540625 0.002734375 0.0026041666666666665
1 0.787890625 0.5432291666666667 0.00546875 0.0026041666666666665
1 0.794921875 0.5432291666666667 0.006640625 0.0036458333333333334
1 0.80546875 0.5442708333333334 0.012890625 0.005208333333333333
0 0.78671875 0.546875 0.008984375 0.0026041666666666665
0 0.799609375 0.5510416666666667 0.030859375 0.003125
0 0.798828125 0.5536458333333333 0.032421875 0.003125
0 0.798828125 0.55625 0.032421875 0.003125
0 0.7859375 0.5588541666666667 0.005859375 0.0020833333333333333
0 0.792578125 0.5588541666666667 0.006640625 0.0020833333333333333
0 0.799609375 0.5588541666666667 0.005859375 0.0020833333333333333
0 0.805859375 0.5588541666666667 0.0046875 0.0015625
0 0.812109375 0.559375 0.00625 0.0020833333333333333
0 0.792578125 0.5609375 0.019921875 0.0026041666666666665
0 0.805078125 0.5619791666666667 0.003515625 0.0020833333333333333
0 0.81171875 0.5619791666666667 0.007421875 0.0026041666666666665
0 0.787890625 0.5640625 0.010546875 0.0020833333333333333
0 0.8 0.5640625 0.0109375 0.0015625
0 0.8 0.56875 0.03046875 0.003125
0 0.793359375 0.5713541666666667 0.021484375 0.003125
0 0.8109375 0.571875 0.00859375 0.0020833333333333333
0 0.790234375 0.5739583333333333 0.01484375 0.003125
0 0.8015625 0.5739583333333333 0.00546875 0.0026041666666666665
0 0.8078125 0.5739583333333333 0.0046875 0.0026041666666666665
0 0.799609375 0.5770833333333333 0.0328125 0.003125
0 0.78828125 0.5786458333333333 0.01015625 0.0026041666666666665
0 0.805078125 0.5838541666666667 0.015234375 0.0026041666666666665
0 0.80546875 0.5859375 0.008203125 0.0015625
1 0.805859375 0.5880208333333333 0.01640625 0.0026041666666666665