1 0.23861434108527133 0.15030146425495264 0.041666666666666664 0.04478897502153316
1 0.23570736434108527 0.18647717484926787 0.04215116279069767 0.03660637381567614
1 0.2369186046511628 0.2136089577950043 0.00872093023255814 0.009905254091300603
1 0.2437015503875969 0.21619293712316967 0.0055717054263565895 0.009474590869939707
1 0.22262596899224807 0.2351421188630491 0.021560077519379845 0.02756244616709733
1 0.24273255813953487 0.23858742463393626 0.015019379844961241 0.031007751937984496
1 0.21027131782945738 0.3290267011197244 0.006782945736434108 0.012489233419465978
1 0.20736434108527133 0.34108527131782945 0.008236434108527133 0.012489233419465978
0 0.2378875968992248 0.3156761412575366 0.021560077519379845 0.018949181739879414
0 0.15382751937984496 0.32041343669250644 0.0075096899224806205 0.005598621877691645
0 0.1555232558139535 0.326442721791559 0.00993217054263566 0.009474590869939707
0 0.2250484496124031 0.35831180017226527 0.008236434108527133 0.014211886304909561
1 0.1511627906976744 0.4909560723514212 0.006782945736434108 0.006459948320413436
1 0.5479651162790697 0.3544358311800172 0.03875968992248062 0.04478897502153316
1 0.5879360465116279 0.36218776916451334 0.04093992248062016 0.04263565891472868
1 0.6388081395348837 0.3725236864771749 0.04312015503875969 0.04823428079242033
1 0.5474806201550387 0.3962101636520241 0.036337209302325583 0.04392764857881137
1 0.5719476744186046 0.4043927648578811 0.011627906976744186 0.030146425495262703
1 0.6366279069767442 0.4108527131782946 0.04045542635658915 0.04478897502153316
1 0.5234980620155039 0.7988802756244616 0.00944767441860465 0.0068906115417743325
1 0.6913759689922481 0.6683893195521102 0.005329457364341085 0.011627906976744186
0 0.7570251937984496 0.5852713178294574 0.006540697674418605 0.009905254091300603
0 0.7899709302325582 0.3031869078380706 0.015261627906976744 0.007321274763135229
1 0.7899709302325582 0.3105081826012059 0.008963178294573644 0.006459948320413436
0 0.8883236434108527 0.3587424633936262 0.00993217054263566 0.03875968992248062
1 0.8459302325581395 0.2368647717484927 0.019137596899224806 0.012919896640826873
0 0.8454457364341085 0.24246339362618433 0.01695736434108527 0.007751937984496124
1 0.9609980620155039 0.2054263565891473 0.023013565891472867 0.03359173126614987
1 0.9801356589147286 0.21059431524547803 0.023013565891472867 0.02885443583118002
1 0.9941860465116279 0.21188630490956073 0.011143410852713179 0.029715762273901807
0 0.967296511627907 0.2614125753660637 0.015019379844961241 0.00818260120585702
0 0.9522771317829457 0.28165374677002586 0.00944767441860465 0.00818260120585702
1 0.7727713178294574 0.14470284237726097 0.006782945736434108 0.013350559862187769
1 0.779312015503876 0.14642549526270457 0.006540697674418605 0.013350559862187769
1 0.7710755813953488 0.15633074935400518 0.006782945736434108 0.012919896640826873
1 0.7776162790697675 0.15934539190353145 0.0075096899224806205 0.012919896640826873
1 0.7679263565891473 0.16709732988802756 0.006782945736434108 0.013350559862187769
1 0.7761627906976745 0.17054263565891473 0.01065891472868217 0.013781223083548665
1 0.7688953488372093 0.18001722652885443 0.008236434108527133 0.012058570198105082
1 0.7759205426356589 0.181739879414298 0.006540697674418605 0.013350559862187769
1 0.7642926356589147 0.19035314384151594 0.008478682170542635 0.012058570198105082
1 0.7705910852713178 0.1916451335055986 0.005813953488372093 0.011627906976744186
1 0.7749515503875969 0.19465977605512488 0.006056201550387597 0.01119724375538329
1 0.7611434108527132 0.20155038759689922 0.009689922480620155 0.012489233419465978
1 0.7681686046511628 0.20327304048234282 0.005329457364341085 0.013781223083548665
1 0.7715600775193798 0.2049956933677864 0.005087209302325582 0.0103359173126615
1 0.7589631782945736 0.2131782945736434 0.008478682170542635 0.012058570198105082
1 0.7655038759689923 0.2144702842377261 0.005329457364341085 0.012058570198105082
1 0.7693798449612403 0.21619293712316967 0.005087209302325582 0.012489233419465978
1 0.7565406976744186 0.2239448751076658 0.008963178294573644 0.012489233419465978
1 0.7628391472868217 0.22566752799310938 0.0055717054263565895 0.012919896640826873
1 0.7674418604651163 0.22739018087855298 0.006056201550387597 0.012489233419465978
1 0.6429263565891473 0.28725236864771747 0.017199612403100775 0.02239448751076658
1 0.6603682170542635 0.29069767441860467 0.020348837209302327 0.02153316106804479
1 0.6506782945736435 0.31136950904392763 0.018168604651162792 0.023686477174849268
0 0.6661821705426356 0.2045650301464255 0.006298449612403101 0.005598621877691645
0 0.6734496124031008 0.2054263565891473 0.008236434108527133 0.005598621877691645
1 0.6703003875968992 0.21705426356589147 0.019137596899224806 0.021963824289405683
1 0.6233042635658915 0.18561584840654607 0.014777131782945737 0.024117140396210164
0 0.5431201550387597 0.19078380706287684 0.00872093023255814 0.007321274763135229
0 0.5046027131782945 0.17872523686477174 0.007025193798449613 0.00818260120585702
0 0.592296511627907 0.17829457364341086 0.0055717054263565895 0.006459948320413436
0 0.47819767441860467 0.18130921619293713 0.0048449612403100775 0.011627906976744186
1 0.44549418604651164 0.347114556416882 0.007267441860465116 0.009905254091300603
1 0.4316860465116279 0.40137812230835485 0.012839147286821706 0.01808785529715762
1 0.4987887596899225 0.33376399655469424 0.00944767441860465 0.008613264427217916
1 0.34084302325581395 0.31266149870801035 0.040697674418604654 0.037037037037037035
0 0.37669573643410853 0.4082687338501292 0.01187015503875969 0.013350559862187769
1 0.16739341085271317 0.21102497846683893 0.008478682170542635 0.006459948320413436
1 0.16642441860465115 0.21662360034453057 0.00872093023255814 0.0068906115417743325
1 0.13541666666666666 0.14125753660637383 0.037063953488372096 0.04478897502153316
1 0.18919573643410853 0.1830318690783807 0.022771317829457363 0.04177433247200689
1 0.003875968992248062 0.1920757967269595 0.005329457364341085 0.007321274763135229
1 0.004118217054263566 0.18647717484926787 0.005329457364341085 0.006029285099052541
0 0.342296511627907 0.9177433247200689 0.007994186046511628 0.019810508182601206
0 0.4261143410852713 0.13824289405684753 0.0075096899224806205 0.012489233419465978
0 0.43362403100775193 0.13006029285099052 0.0048449612403100775 0.008613264427217916
0 0.43362403100775193 0.13996554694229113 0.005329457364341085 0.009474590869939707
0 0.43459302325581395 0.1507321274763135 0.008236434108527133 0.00818260120585702
0 0.43410852713178294 0.15891472868217055 0.0075096899224806205 0.0068906115417743325
1 0.6460755813953488 0.20155038759689922 0.007025193798449613 0.012058570198105082
0 0.7010658914728682 0.15762273901808785 0.0048449612403100775 0.006029285099052541
0 0.6998546511627907 0.1645133505598622 0.005329457364341085 0.006459948320413436
0 0.6967054263565892 0.19896640826873385 0.005813953488372093 0.006459948320413436
1 0.9500968992248062 0.2553832902670112 0.005813953488372093 0.004306632213608958