1 0.18275862068965518 0.04129793510324484 0.041379310344827586 0.05457227138643068
1 0.13793103448275862 0.443952802359882 0.09482758620689655 0.06637168141592921
1 0.25689655172413794 0.4424778761061947 0.13448275862068965 0.058997050147492625
1 0.3706896551724138 0.45132743362831856 0.07586206896551724 0.061946902654867256
1 0.2689655172413793 0.6106194690265486 0.16206896551724137 0.252212389380531
1 0.5793103448275863 0.4749262536873156 0.07586206896551724 0.058997050147492625
1 0.6758620689655173 0.46017699115044247 0.10344827586206896 0.06784660766961652
1 0.7810344827586206 0.4631268436578171 0.09137931034482759 0.06489675516224189
1 0.6 0.640117994100295 0.15517241379310345 0.2448377581120944
1 0.743103448275862 0.6356932153392331 0.16379310344827586 0.23893805309734514
0 0.1206896551724138 0.20648967551622419 0.05344827586206897 0.014749262536873156
0 0.10689655172413794 0.22271386430678466 0.04310344827586207 0.022123893805309734
0 0.10344827586206896 0.24336283185840707 0.041379310344827586 0.016224188790560472
0 0.10172413793103448 0.2640117994100295 0.039655172413793106 0.008849557522123894
0 0.10344827586206896 0.2728613569321534 0.03620689655172414 0.008849557522123894
0 0.09827586206896552 0.27876106194690264 0.029310344827586206 0.007374631268436578
0 0.09827586206896552 0.28761061946902655 0.03103448275862069 0.008849557522123894
0 0.09655172413793103 0.2949852507374631 0.02413793103448276 0.01032448377581121
0 0.09482758620689655 0.3008849557522124 0.020689655172413793 0.007374631268436578
0 0.09137931034482759 0.308259587020649 0.01896551724137931 0.0058997050147492625
0 0.09482758620689655 0.31563421828908556 0.020689655172413793 0.007374631268436578
0 0.09655172413793103 0.32448377581120946 0.02586206896551724 0.01032448377581121
0 0.09827586206896552 0.33185840707964603 0.02586206896551724 0.0058997050147492625
1 0.09827586206896552 0.33775811209439527 0.027586206896551724 0.01032448377581121