1 0.2628968253968254 0.44576719576719576 0.0992063492063492 0.082010582010582
1 0.34523809523809523 0.45634920634920634 0.051587301587301584 0.06084656084656084
1 0.01984126984126984 0.5978835978835979 0.021825396825396824 0.0291005291005291
1 0.012896825396825396 0.6084656084656085 0.011904761904761904 0.015873015873015872
0 0.0248015873015873 0.6177248677248677 0.018849206349206348 0.05026455026455026
1 0.047619047619047616 0.6640211640211641 0.022817460317460316 0.0291005291005291
0 0.1488095238095238 0.6349206349206349 0.011904761904761904 0.03835978835978836
0 0.028769841269841268 0.7698412698412699 0.023809523809523808 0.041005291005291
1 0.21924603174603174 0.5648148148148148 0.044642857142857144 0.046296296296296294
1 0.26587301587301587 0.5634920634920635 0.04365079365079365 0.04365079365079365
1 0.3125 0.5608465608465608 0.04563492063492063 0.04497354497354497
1 0.35615079365079366 0.5568783068783069 0.04265873015873016 0.04365079365079365
1 0.22023809523809523 0.6150793650793651 0.041666666666666664 0.03968253968253968
1 0.26686507936507936 0.6111111111111112 0.05257936507936508 0.04365079365079365
1 0.32142857142857145 0.6071428571428571 0.050595238095238096 0.041005291005291
1 0.37103174603174605 0.6044973544973545 0.05257936507936508 0.042328042328042326
1 0.2767857142857143 0.6521164021164021 0.07142857142857142 0.03571428571428571
1 0.35615079365079366 0.6468253968253969 0.07539682539682539 0.03042328042328042
0 0.2777777777777778 0.17592592592592593 0.15476190476190477 0.031746031746031744
0 0.5753968253968254 0.30158730158730157 0.023809523809523808 0.006613756613756613
0 0.6626984126984127 0.25132275132275134 0.010912698412698412 0.009259259259259259
0 0.6636904761904762 0.2619047619047619 0.015873015873015872 0.01455026455026455
1 0.6319444444444444 0.3439153439153439 0.022817460317460316 0.03439153439153439
1 0.6587301587301587 0.3412698412698413 0.025793650793650792 0.03042328042328042
0 0.625 0.38492063492063494 0.022817460317460316 0.006613756613756613
0 0.626984126984127 0.39285714285714285 0.018849206349206348 0.009259259259259259
0 0.6438492063492064 0.4523809523809524 0.017857142857142856 0.009259259259259259
1 0.7767857142857143 0.5343915343915344 0.14285714285714285 0.056878306878306875
1 0.6954365079365079 0.5992063492063492 0.030753968253968252 0.05952380952380952
1 0.7321428571428571 0.6018518518518519 0.044642857142857144 0.062169312169312166
1 0.7658730158730159 0.6031746031746031 0.025793650793650792 0.0582010582010582
1 0.7996031746031746 0.6044973544973545 0.041666666666666664 0.05423280423280423
1 0.8511904761904762 0.6111111111111112 0.057539682539682536 0.05952380952380952
1 0.9642857142857143 0.32275132275132273 0.015873015873015872 0.027777777777777776