1 0.28799019607843135 0.23529411764705882 0.0661764705882353 0.0457516339869281
1 0.36764705882352944 0.238562091503268 0.08333333333333333 0.0392156862745098
1 0.44607843137254904 0.24183006535947713 0.06495098039215687 0.04084967320261438
1 0.5147058823529411 0.2434640522875817 0.06495098039215687 0.042483660130718956
1 0.6053921568627451 0.24509803921568626 0.10661764705882353 0.04084967320261438
1 0.3272058823529412 0.3022875816993464 0.1053921568627451 0.058823529411764705
1 0.4534313725490196 0.3104575163398693 0.13357843137254902 0.06045751633986928
1 0.5857843137254902 0.30718954248366015 0.11642156862745098 0.06535947712418301
1 0.3872549019607843 0.43137254901960786 0.23651960784313725 0.1388888888888889
1 0.5563725490196079 0.42320261437908496 0.10049019607843138 0.16666666666666666
1 0.6348039215686274 0.434640522875817 0.049019607843137254 0.1437908496732026
1 0.34558823529411764 0.5473856209150327 0.10049019607843138 0.07516339869281045
1 0.42892156862745096 0.545751633986928 0.056372549019607844 0.08006535947712418
1 0.4950980392156863 0.5522875816993464 0.07230392156862746 0.07026143790849673
1 0.5686274509803921 0.5506535947712419 0.07352941176470588 0.07516339869281045
1 0.616421568627451 0.5620915032679739 0.015931372549019607 0.021241830065359478
1 0.3137254901960784 0.6470588235294118 0.07352941176470588 0.06209150326797386
1 0.39215686274509803 0.6339869281045751 0.08088235294117647 0.09313725490196079
1 0.4889705882352941 0.6388888888888888 0.1053921568627451 0.08986928104575163
1 0.5931372549019608 0.6372549019607843 0.10661764705882353 0.08986928104575163
1 0.2696078431372549 0.7173202614379085 0.04411764705882353 0.03758169934640523
1 0.3872549019607843 0.7140522875816994 0.18259803921568626 0.04411764705882353
1 0.4889705882352941 0.7189542483660131 0.015931372549019607 0.017973856209150325
1 0.5894607843137255 0.7173202614379085 0.17769607843137256 0.03758169934640523