1 0.33984375 0.1010989010989011 0.0341796875 0.024175824175824177
1 0.44140625 0.08498168498168499 0.03173828125 0.023443223443223443
0 0.34130859375 0.11428571428571428 0.03173828125 0.006593406593406593
1 0.47119140625 0.08351648351648351 0.02490234375 0.021245421245421246
1 0.51708984375 0.07985347985347985 0.044921875 0.02271062271062271
1 0.5595703125 0.0761904761904762 0.03466796875 0.030036630036630037
1 0.59619140625 0.07985347985347985 0.02880859375 0.02490842490842491
1 0.41162109375 0.15311355311355312 0.05859375 0.054212454212454214
1 0.486328125 0.1597069597069597 0.07763671875 0.05567765567765568
1 0.54931640625 0.14871794871794872 0.04248046875 0.05714285714285714
1 0.61474609375 0.15164835164835164 0.08203125 0.0673992673992674
1 0.35595703125 0.2468864468864469 0.05517578125 0.046886446886446886
1 0.40576171875 0.24175824175824176 0.04248046875 0.05567765567765568
1 0.47314453125 0.23882783882783884 0.0849609375 0.05641025641025641
1 0.54541015625 0.24102564102564103 0.056640625 0.046153846153846156
1 0.591796875 0.23076923076923078 0.03125 0.06446886446886448
1 0.6328125 0.2315018315018315 0.04833984375 0.05860805860805861
1 0.689453125 0.23223443223443224 0.05810546875 0.05787545787545788
1 0.5712890625 0.2915750915750916 0.021484375 0.02783882783882784
1 0.59130859375 0.29084249084249086 0.0185546875 0.02564102564102564
1 0.61279296875 0.29304029304029305 0.025390625 0.024175824175824177
1 0.6328125 0.2915750915750916 0.01171875 0.020512820512820513
1 0.654296875 0.29304029304029305 0.0283203125 0.02490842490842491
1 0.67138671875 0.29010989010989013 0.0087890625 0.01978021978021978
1 0.6875 0.2915750915750916 0.02197265625 0.020512820512820513
1 0.71142578125 0.2893772893772894 0.025390625 0.021245421245421246
1 0.5517578125 0.4432234432234432 0.013671875 0.00805860805860806
0 0.5517578125 0.44835164835164837 0.02197265625 0.007326007326007326
0 0.55322265625 0.4388278388278388 0.01953125 0.01904761904761905
1 0.54931640625 0.4586080586080586 0.01513671875 0.007326007326007326