0 0.17888888888888888 0.05416666666666667 0.025555555555555557 0.008333333333333333
1 0.1811111111111111 0.06416666666666666 0.021111111111111112 0.013333333333333334
1 0.4166666666666667 0.0775 0.012222222222222223 0.025
1 0.42444444444444446 0.05583333333333333 0.02 0.021666666666666667
1 0.43666666666666665 0.0425 0.014444444444444444 0.0125
1 0.45 0.03666666666666667 0.016666666666666666 0.0125
1 0.47 0.035 0.023333333333333334 0.009166666666666667
1 0.48777777777777775 0.03833333333333333 0.014444444444444444 0.014166666666666666
1 0.5 0.04666666666666667 0.014444444444444444 0.0125
1 0.5077777777777778 0.058333333333333334 0.016666666666666666 0.0175
1 0.5088888888888888 0.0775 0.012222222222222223 0.018333333333333333
1 0.5188888888888888 0.37083333333333335 0.021111111111111112 0.0075
1 0.5366666666666666 0.37083333333333335 0.013333333333333334 0.0075
1 0.5511111111111111 0.3725 0.015555555555555555 0.008333333333333333
1 0.5655555555555556 0.3725 0.015555555555555555 0.0075
1 0.2966666666666667 0.4633333333333333 0.09666666666666666 0.051666666666666666
1 0.3933333333333333 0.4666666666666667 0.07666666666666666 0.05
1 0.5244444444444445 0.4725 0.17 0.04833333333333333
1 0.6688888888888889 0.48 0.10777777777777778 0.04
1 0.2677777777777778 0.5208333333333334 0.09444444444444444 0.050833333333333335
1 0.3688888888888889 0.5208333333333334 0.09111111111111111 0.04583333333333333
1 0.4488888888888889 0.5225 0.06 0.045
1 0.4955555555555556 0.5275 0.01888888888888889 0.0375
1 0.5577777777777778 0.5283333333333333 0.07777777777777778 0.04583333333333333
1 0.6755555555555556 0.5341666666666667 0.15222222222222223 0.049166666666666664
1 0.3844444444444444 0.575 0.07333333333333333 0.04416666666666667
1 0.4633333333333333 0.5791666666666667 0.07111111111111111 0.0375
1 0.5455555555555556 0.5816666666666667 0.08222222222222222 0.041666666666666664