1 0.2948134667879891 0.27002967359050445 0.4749772520473157 0.43026706231454004
1 0.7506824385805277 0.2403560830860534 0.3521383075523203 0.4807121661721068
1 0.08644222020018198 0.7922848664688428 0.10191082802547771 0.20771513353115728
1 0.19472247497725204 0.8011869436201781 0.09463148316651501 0.21364985163204747
1 0.30664240218380345 0.7952522255192879 0.10282074613284804 0.2403560830860534
1 0.43312101910828027 0.7626112759643917 0.12556869881710647 0.21068249258160238
1 0.618744313011829 0.7507418397626113 0.2083712465878071 0.2195845697329377
1 0.8489535941765242 0.7388724035608308 0.20473157415832574 0.24629080118694363