1 0.33418367346938777 0.7598039215686274 0.6683673469387755 0.14215686274509803
1 0.07653061224489796 0.9264705882352942 0.15306122448979592 0.12745098039215685
1 0.19387755102040816 0.9215686274509803 0.08673469387755102 0.10784313725490197
1 0.32142857142857145 0.8970588235294118 0.17857142857142858 0.16666666666666666
1 0.5459183673469388 0.9019607843137255 0.28061224489795916 0.13725490196078433