1 0.18958333333333333 0.45617977528089887 0.046875 0.08314606741573034
1 0.23020833333333332 0.449438202247191 0.03125 0.09662921348314607
1 0.25833333333333336 0.4584269662921348 0.021875 0.10786516853932585
1 0.28125 0.4651685393258427 0.016666666666666666 0.0898876404494382
1 0.49166666666666664 0.22696629213483147 0.01875 0.02247191011235955
1 0.5114583333333333 0.22696629213483147 0.01875 0.02247191011235955
1 0.53125 0.22696629213483147 0.016666666666666666 0.02247191011235955
1 0.5489583333333333 0.22696629213483147 0.017708333333333333 0.02696629213483146
1 0.4479166666666667 0.3101123595505618 0.019791666666666666 0.07865168539325842
1 0.4822916666666667 0.31235955056179776 0.03958333333333333 0.07865168539325842
1 0.5322916666666667 0.32134831460674157 0.04791666666666667 0.07865168539325842
1 0.575 0.3258426966292135 0.023958333333333335 0.08089887640449438
1 0.45416666666666666 0.5168539325842697 0.034375 0.029213483146067417
1 0.4895833333333333 0.5168539325842697 0.03229166666666667 0.033707865168539325
1 0.5302083333333333 0.5213483146067416 0.04375 0.03146067415730337
1 0.571875 0.5191011235955056 0.03333333333333333 0.03146067415730337
1 0.44895833333333335 0.5707865168539326 0.04479166666666667 0.07191011235955057
1 0.509375 0.5797752808988764 0.06666666666666667 0.07191011235955057
1 0.571875 0.5887640449438202 0.05 0.06292134831460675
1 0.46458333333333335 0.6314606741573033 0.020833333333333332 0.03146067415730337
1 0.49270833333333336 0.6314606741573033 0.03229166666666667 0.02247191011235955
1 0.5375 0.6314606741573033 0.05 0.024719101123595506
1 0.4822916666666667 0.6584269662921348 0.023958333333333335 0.024719101123595506
1 0.521875 0.6584269662921348 0.052083333333333336 0.02247191011235955
1 0.7760416666666666 0.44269662921348313 0.04583333333333333 0.08314606741573034
1 0.8145833333333333 0.4449438202247191 0.028125 0.08314606741573034
1 0.8416666666666667 0.4404494382022472 0.034375 0.10337078651685393
1 0.8822916666666667 0.4449438202247191 0.051041666666666666 0.10561797752808989