1 0.30303030303030304 0.38802660753880264 0.06515151515151515 0.082039911308204
1 0.4409090909090909 0.3924611973392461 0.17575757575757575 0.07317073170731707
1 0.5893939393939394 0.4035476718403548 0.08181818181818182 0.0598669623059867
1 0.7 0.4124168514412417 0.11212121212121212 0.07095343680709534
1 0.8015151515151515 0.4079822616407982 0.06212121212121212 0.057649667405764965
1 0.29848484848484846 0.516629711751663 0.06060606060606061 0.09090909090909091
1 0.3787878787878788 0.5232815964523282 0.08333333333333333 0.11086474501108648
1 0.45 0.5144124168514412 0.048484848484848485 0.0975609756097561
1 0.5227272727272727 0.5077605321507761 0.08636363636363636 0.1130820399113082
1 0.5969696969696969 0.5077605321507761 0.05 0.11751662971175167
1 0.6393939393939394 0.5188470066518847 0.021212121212121213 0.09977827050997783
1 0.7075757575757575 0.5099778270509978 0.10454545454545454 0.1197339246119734
1 0.8075757575757576 0.5299334811529933 0.07424242424242425 0.1130820399113082
1 0.7818181818181819 0.2682926829268293 0.04090909090909091 0.04434589800443459