1 0.154296875 0.3830409356725146 0.064453125 0.06140350877192982
1 0.22265625 0.40058479532163743 0.052734375 0.049707602339181284
1 0.1875 0.4590643274853801 0.076171875 0.04678362573099415
1 0.365234375 0.4239766081871345 0.041015625 0.1023391812865497
1 0.51171875 0.4298245614035088 0.048828125 0.09649122807017543
1 0.646484375 0.42105263157894735 0.078125 0.05555555555555555
1 0.76171875 0.40350877192982454 0.056640625 0.05847953216374269
1 0.822265625 0.4093567251461988 0.060546875 0.05847953216374269
1 0.798828125 0.4678362573099415 0.08984375 0.03508771929824561
1 0.64453125 0.391812865497076 0.015625 0.017543859649122806