1 0.2865761689291101 0.2996742671009772 0.13725490196078433 0.05863192182410423
1 0.45852187028657615 0.28175895765472314 0.17647058823529413 0.06026058631921824
1 0.6078431372549019 0.26058631921824105 0.10105580693815988 0.06840390879478828
1 0.058823529411764705 0.40716612377850164 0.07692307692307693 0.08143322475570032
1 0.17043740573152338 0.3990228013029316 0.12066365007541478 0.08143322475570032
1 0.27601809954751133 0.38925081433224756 0.06787330316742081 0.08143322475570032
1 0.3996983408748115 0.3713355048859935 0.15082956259426847 0.10912052117263844
1 0.5671191553544495 0.36482084690553745 0.15987933634992457 0.10586319218241043
1 0.7104072398190046 0.36319218241042345 0.09653092006033183 0.07980456026058631
1 0.8657616892911011 0.34039087947882735 0.19457013574660634 0.0993485342019544
1 0.05580693815987934 0.501628664495114 0.042232277526395176 0.03745928338762215
1 0.09954751131221719 0.501628664495114 0.03469079939668175 0.03745928338762215
1 0.14177978883861236 0.498371335504886 0.049773755656108594 0.04723127035830619
1 0.21266968325791855 0.495114006514658 0.08748114630467571 0.04234527687296417
1 0.29411764705882354 0.48697068403908794 0.06033182503770739 0.05211726384364821
1 0.3559577677224736 0.4837133550488599 0.049773755656108594 0.05863192182410423
1 0.3936651583710407 0.48534201954397393 0.013574660633484163 0.021172638436482084
1 0.4253393665158371 0.4837133550488599 0.0392156862745098 0.04560260586319218
1 0.4841628959276018 0.4788273615635179 0.07541478129713423 0.050488599348534204
1 0.5776772247360482 0.46905537459283386 0.09502262443438914 0.05863192182410423
1 0.6636500754147813 0.46579804560260585 0.06184012066365008 0.048859934853420196
1 0.8144796380090498 0.4560260586319218 0.22624434389140272 0.05537459283387622