1 0.5453703703703704 0.2025862068965517 0.11574074074074074 0.09482758620689655
1 0.6814814814814815 0.22952586206896552 0.05925925925925926 0.07004310344827586
1 0.7296296296296296 0.23706896551724138 0.024074074074074074 0.07758620689655173
1 0.7620370370370371 0.24030172413793102 0.040740740740740744 0.06465517241379311
1 0.5111111111111111 0.33620689655172414 0.1111111111111111 0.07974137931034483
1 0.6296296296296297 0.34913793103448276 0.1037037037037037 0.07543103448275862
1 0.700925925925926 0.36530172413793105 0.02962962962962963 0.04849137931034483
1 0.7703703703703704 0.3706896551724138 0.0787037037037037 0.052801724137931036
1 0.8166666666666667 0.3760775862068966 0.014814814814814815 0.04310344827586207