1 0.08948004836759371 0.25539568345323743 0.10519951632406288 0.17266187050359713
1 0.22007255139056833 0.2805755395683453 0.12454655380894801 0.1906474820143885
1 0.38210399032648124 0.3273381294964029 0.1777509068923821 0.17266187050359713
1 0.5767835550181378 0.37410071942446044 0.1825876662636034 0.17625899280575538
1 0.7448609431680774 0.4172661870503597 0.13663845223700122 0.17266187050359713
1 0.9081015719467956 0.44244604316546765 0.1596130592503023 0.19784172661870503
1 0.22611850060459493 0.6618705035971223 0.38331318016928656 0.6079136690647482
1 0.7061668681983071 0.7769784172661871 0.5683192261185006 0.44244604316546765