1 0.5028571428571429 0.3576017130620985 0.08 0.04925053533190578
1 0.6085714285714285 0.35974304068522484 0.07428571428571429 0.05139186295503212
1 0.5571428571428572 0.3533190578158458 0.02 0.010706638115631691
1 0.31 0.7002141327623126 0.09428571428571429 0.08137044967880086
1 0.2914285714285714 0.7751605995717344 0.04428571428571428 0.03640256959314775
1 0.3385714285714286 0.7794432548179872 0.014285714285714285 0.034261241970021415
1 0.3628571428571429 0.7794432548179872 0.024285714285714285 0.03640256959314775
1 0.32 0.7858672376873662 0.007142857142857143 0.008565310492505354
0 0.25142857142857145 0.7687366167023555 0.022857142857142857 0.017130620985010708
1 0.18857142857142858 0.22055674518201285 0.02142857142857143 0.014989293361884369
1 0.20857142857142857 0.22269807280513917 0.011428571428571429 0.01284796573875803
1 0.23 0.22055674518201285 0.027142857142857142 0.01284796573875803
1 0.2542857142857143 0.21841541755888652 0.017142857142857144 0.01284796573875803
1 0.2714285714285714 0.21841541755888652 0.011428571428571429 0.010706638115631691
1 0.2857142857142857 0.21627408993576017 0.01 0.010706638115631691
0 0.30142857142857143 0.21627408993576017 0.012857142857142857 0.01284796573875803
0 0.18714285714285714 0.23768736616702354 0.017142857142857144 0.008565310492505354
1 0.21 0.23554603854389722 0.024285714285714285 0.014989293361884369
1 0.23285714285714285 0.23554603854389722 0.014285714285714285 0.01284796573875803
1 0.25142857142857145 0.23554603854389722 0.014285714285714285 0.014989293361884369
1 0.2714285714285714 0.23126338329764454 0.022857142857142857 0.014989293361884369
1 0.29714285714285715 0.2334047109207709 0.022857142857142857 0.017130620985010708
0 0.24571428571428572 0.010706638115631691 0.12714285714285714 0.010706638115631691
0 0.21428571428571427 0.023554603854389723 0.06142857142857143 0.008565310492505354
0 0.25285714285714284 0.032119914346895075 0.13714285714285715 0.010706638115631691
0 0.2 0.047109207708779445 0.032857142857142856 0.006423982869379015
0 0.19285714285714287 0.057815845824411134 0.018571428571428572 0.006423982869379015
0 0.25142857142857145 0.06852248394004283 0.1357142857142857 0.010706638115631691
0 0.22857142857142856 0.07922912205567452 0.08857142857142856 0.008565310492505354
0 0.25857142857142856 0.10278372591006424 0.037142857142857144 0.008565310492505354
0 0.2042857142857143 0.11991434689507495 0.02857142857142857 0.008565310492505354
0 0.23857142857142857 0.11349036402569593 0.02 0.006423982869379015
0 0.23714285714285716 0.12205567451820129 0.02142857142857143 0.006423982869379015
0 0.2342857142857143 0.1349036402569593 0.08285714285714285 0.006423982869379015
0 0.20714285714285716 0.15203426124197003 0.03142857142857143 0.006423982869379015
0 0.26142857142857145 0.145610278372591 0.06857142857142857 0.008565310492505354
0 0.24571428571428572 0.15631691648822268 0.03428571428571429 0.006423982869379015
0 0.2042857142857143 0.1734475374732334 0.024285714285714285 0.006423982869379015
0 0.26571428571428574 0.1670235546038544 0.07428571428571429 0.006423982869379015
0 0.26142857142857145 0.17987152034261242 0.06714285714285714 0.008565310492505354
0 0.3742857142857143 0.014989293361884369 0.015714285714285715 0.008565310492505354
0 0.40285714285714286 0.014989293361884369 0.015714285714285715 0.008565310492505354
0 0.3742857142857143 0.03854389721627409 0.015714285714285715 0.008565310492505354
0 0.3442857142857143 0.04068522483940043 0.015714285714285715 0.008565310492505354
0 0.3742857142857143 0.05139186295503212 0.015714285714285715 0.008565310492505354
0 0.3442857142857143 0.05353319057815846 0.015714285714285715 0.008565310492505354
0 0.40285714285714286 0.04925053533190578 0.015714285714285715 0.008565310492505354
0 0.40285714285714286 0.03640256959314775 0.015714285714285715 0.008565310492505354
0 0.34285714285714286 0.027837259100642397 0.02 0.008565310492505354
0 0.3414285714285714 0.06638115631691649 0.018571428571428572 0.008565310492505354
0 0.3442857142857143 0.017130620985010708 0.015714285714285715 0.008565310492505354
0 0.3414285714285714 0.07708779443254818 0.018571428571428572 0.008565310492505354
0 0.37285714285714283 0.06209850107066381 0.018571428571428572 0.008565310492505354
0 0.37285714285714283 0.07494646680942184 0.018571428571428572 0.008565310492505354
0 0.4014285714285714 0.06209850107066381 0.018571428571428572 0.008565310492505354
0 0.4014285714285714 0.0728051391862955 0.018571428571428572 0.008565310492505354
0 0.3757142857142857 0.13062098501070663 0.018571428571428572 0.008565310492505354
0 0.37285714285714283 0.027837259100642397 0.018571428571428572 0.008565310492505354
0 0.3757142857142857 0.11777301927194861 0.018571428571428572 0.008565310492505354
0 0.3757142857142857 0.14346895074946467 0.018571428571428572 0.008565310492505354
0 0.3442857142857143 0.11991434689507495 0.02142857142857143 0.008565310492505354
0 0.3757142857142857 0.10920770877944326 0.018571428571428572 0.008565310492505354
0 0.34285714285714286 0.13276231263383298 0.02142857142857143 0.008565310492505354
0 0.3442857142857143 0.14346895074946467 0.02142857142857143 0.008565310492505354
0 0.34285714285714286 0.15417558886509636 0.02142857142857143 0.008565310492505354
0 0.34285714285714286 0.16488222698072805 0.02142857142857143 0.008565310492505354
0 0.34285714285714286 0.17558886509635974 0.02142857142857143 0.008565310492505354
0 0.3985714285714286 0.09421841541755889 0.02142857142857143 0.008565310492505354
0 0.34285714285714286 0.09850107066381156 0.015714285714285715 0.008565310492505354
0 0.3442857142857143 0.10920770877944326 0.02142857142857143 0.008565310492505354
0 0.4685714285714286 0.10492505353319058 0.005714285714285714 0.008565310492505354
0 0.37142857142857144 0.09635974304068523 0.015714285714285715 0.008565310492505354
0 0.4857142857142857 0.11991434689507495 0.027142857142857142 0.008565310492505354
0 0.4685714285714286 0.06423982869379015 0.005714285714285714 0.008565310492505354
0 0.46714285714285714 0.11991434689507495 0.005714285714285714 0.008565310492505354
0 0.4685714285714286 0.01284796573875803 0.005714285714285714 0.008565310492505354
0 0.48 0.06423982869379015 0.015714285714285715 0.008565310492505354
0 0.49714285714285716 0.008565310492505354 0.05 0.010706638115631691
0 0.5742857142857143 0.11134903640256959 0.09571428571428571 0.014989293361884369
0 0.4857142857142857 0.10492505353319058 0.027142857142857142 0.008565310492505354
0 0.5814285714285714 0.029978586723768737 0.10857142857142857 0.017130620985010708
0 0.5857142857142857 0.09635974304068523 0.11857142857142858 0.014989293361884369
0 0.6042857142857143 0.042826552462526764 0.15571428571428572 0.021413276231263382
0 0.6 0.06852248394004283 0.1457142857142857 0.042826552462526764
0 0.5885714285714285 0.014989293361884369 0.12571428571428572 0.017130620985010708
0 0.6914285714285714 0.08565310492505353 0.012857142857142857 0.010706638115631691
1 0.6928571428571428 0.10278372591006424 0.012857142857142857 0.010706638115631691
0 0.69 0.019271948608137045 0.012857142857142857 0.010706638115631691
1 0.69 0.0053533190578158455 0.012857142857142857 0.010706638115631691
0 0.6985714285714286 0.11777301927194861 0.02 0.010706638115631691
1 0.7171428571428572 0.0053533190578158455 0.012857142857142857 0.010706638115631691
1 0.7171428571428572 0.019271948608137045 0.012857142857142857 0.010706638115631691
1 0.75 0.0053533190578158455 0.012857142857142857 0.010706638115631691
1 0.75 0.019271948608137045 0.012857142857142857 0.010706638115631691
1 0.72 0.10278372591006424 0.012857142857142857 0.010706638115631691
1 0.6914285714285714 0.059957173447537475 0.012857142857142857 0.010706638115631691
1 0.72 0.11991434689507495 0.012857142857142857 0.010706638115631691
1 0.7514285714285714 0.059957173447537475 0.012857142857142857 0.010706638115631691
0 0.72 0.059957173447537475 0.012857142857142857 0.010706638115631691
1 0.7514285714285714 0.08565310492505353 0.012857142857142857 0.010706638115631691
0 0.7042857142857143 0.08779443254817987 0.008571428571428572 0.006423982869379015
1 0.7057142857142857 0.10278372591006424 0.008571428571428572 0.006423982869379015
0 0.7028571428571428 0.004282655246252677 0.008571428571428572 0.006423982869379015
1 0.7314285714285714 0.019271948608137045 0.008571428571428572 0.006423982869379015
0 0.7642857142857142 0.059957173447537475 0.008571428571428572 0.006423982869379015
0 0.7328571428571429 0.10492505353319058 0.008571428571428572 0.006423982869379015
1 0.7328571428571429 0.11991434689507495 0.008571428571428572 0.006423982869379015
1 0.7642857142857142 0.11777301927194861 0.008571428571428572 0.006423982869379015
0 0.7571428571428571 0.10278372591006424 0.02142857142857143 0.008565310492505354
1 0.7042857142857143 0.059957173447537475 0.008571428571428572 0.006423982869379015
0 0.7528571428571429 0.11777301927194861 0.012857142857142857 0.010706638115631691
1 0.72 0.08565310492505353 0.012857142857142857 0.010706638115631691
1 0.7628571428571429 0.019271948608137045 0.008571428571428572 0.006423982869379015
1 0.7628571428571429 0.004282655246252677 0.008571428571428572 0.006423982869379015
0 0.7642857142857142 0.08565310492505353 0.008571428571428572 0.006423982869379015
0 0.7328571428571429 0.08779443254817987 0.008571428571428572 0.006423982869379015
0 0.63 0.17130620985010706 0.041428571428571426 0.010706638115631691
1 0.7457142857142857 0.19700214132762311 0.02857142857142857 0.014989293361884369
1 0.7414285714285714 0.21413276231263384 0.015714285714285715 0.01284796573875803
1 0.9714285714285714 0.2462526766595289 0.055714285714285716 0.0835117773019272
1 0.1742857142857143 0.3426124197002141 0.022857142857142857 0.02569593147751606
1 0.20142857142857143 0.3361884368308351 0.03142857142857143 0.03854389721627409
0 0.18857142857142858 0.3683083511777302 0.02142857142857143 0.021413276231263382
1 0.17 0.39400428265524623 0.025714285714285714 0.03640256959314775