1 0.5600578871201157 0.30526315789473685 0.3545586107091172 0.4789473684210526
1 0.27206946454413894 0.6052631578947368 0.1345875542691751 0.23157894736842105
1 0.4182344428364689 0.6263157894736842 0.12735166425470332 0.23157894736842105
1 0.5629522431259045 0.6473684210526316 0.14905933429811866 0.22631578947368422
1 0.6917510853835022 0.6526315789473685 0.09985528219971057 0.21578947368421053
1 0.23733719247467439 0.29473684210526313 0.2735166425470333 0.3631578947368421