1 0.1875 0.3815359477124183 0.3489583333333333 0.1772875816993464
1 0.49785539215686275 0.4387254901960784 0.2340686274509804 0.1613562091503268
1 0.6528799019607843 0.4579248366013072 0.04411764705882353 0.08619281045751634
1 0.7297794117647058 0.4554738562091503 0.08884803921568628 0.11356209150326797
1 0.8213848039215687 0.4791666666666667 0.09099264705882353 0.08782679738562091
1 0.9031862745098039 0.49468954248366015 0.0625 0.07148692810457516
1 0.3247549019607843 0.8223039215686274 0.022365196078431373 0.03145424836601307
1 0.5765931372549019 0.568218954248366 0.04932598039215686 0.04411764705882353
1 0.6191789215686274 0.5641339869281046 0.029411764705882353 0.034722222222222224
1 0.5802696078431373 0.6086601307189542 0.0272671568627451 0.0428921568627451
1 0.6213235294117647 0.6021241830065359 0.048100490196078434 0.04411764705882353
1 0.6482843137254902 0.5731209150326797 0.009191176470588236 0.013480392156862746
1 0.6590073529411765 0.568218954248366 0.014399509803921568 0.016748366013071895
1 0.6721813725490197 0.5649509803921569 0.014705882352941176 0.012254901960784314
1 0.5373774509803921 0.6740196078431373 0.010723039215686275 0.00857843137254902
1 0.546875 0.6744281045751634 0.0070465686274509805 0.009395424836601307
1 0.5520833333333334 0.6740196078431373 0.0024509803921568627 0.006944444444444444
1 0.5625 0.673202614379085 0.017463235294117647 0.009395424836601307
1 0.5744485294117647 0.6723856209150327 0.006433823529411764 0.007761437908496732
1 0.5818014705882353 0.6715686274509803 0.007352941176470588 0.00857843137254902
1 0.5894607843137255 0.6711601307189542 0.007659313725490196 0.008986928104575163
1 0.5992647058823529 0.6711601307189542 0.011029411764705883 0.008169934640522876
1 0.6078431372549019 0.6703431372549019 0.006127450980392157 0.007761437908496732
1 0.6130514705882353 0.6699346405228758 0.004595588235294118 0.007761437908496732
1 0.6200980392156863 0.6711601307189542 0.009191176470588236 0.00980392156862745
1 0.6274509803921569 0.6699346405228758 0.004901960784313725 0.007761437908496732
1 0.6348039215686274 0.6691176470588235 0.009191176470588236 0.006944444444444444
1 0.6421568627450981 0.6687091503267973 0.0055147058823529415 0.007352941176470588
1 0.647671568627451 0.6683006535947712 0.006127450980392157 0.006944444444444444
1 0.5839460784313726 0.6801470588235294 0.011948529411764705 0.007352941176470588
1 0.5980392156862745 0.6793300653594772 0.011642156862745098 0.006944444444444444
1 0.9721200980392157 0.5788398692810458 0.018075980392156864 0.010212418300653595
0 0.9730392156862745 0.5861928104575164 0.017463235294117647 0.0032679738562091504
1 0.9528186274509803 0.6008986928104575 0.02267156862745098 0.011029411764705883
1 0.9770220588235294 0.6004901960784313 0.02389705882352941 0.013480392156862746
1 0.9935661764705882 0.5996732026143791 0.011948529411764705 0.014705882352941176
1 0.9816176470588235 0.6184640522875817 0.0196078431372549 0.01838235294117647
1 0.9874387254901961 0.6405228758169934 0.015012254901960785 0.014297385620915032
1 0.9898897058823529 0.6621732026143791 0.014093137254901961 0.014297385620915032
1 0.9656862745098039 0.6875 0.03768382352941176 0.021241830065359478
1 0.9932598039215687 0.6801470588235294 0.012561274509803922 0.024918300653594773
1 0.9540441176470589 0.704248366013072 0.00980392156862745 0.007761437908496732
1 0.9877450980392157 0.698937908496732 0.005821078431372549 0.007761437908496732
1 0.9574142156862745 0.7160947712418301 0.017463235294117647 0.016339869281045753
1 0.9917279411764706 0.7107843137254902 0.015931372549019607 0.015522875816993464
1 0.9947916666666666 0.613562091503268 0.00980392156862745 0.007761437908496732
0 0.9950980392156863 0.6229575163398693 0.008884803921568627 0.006944444444444444
0 0.9969362745098039 0.636437908496732 0.005208333333333333 0.0053104575163398695
0 0.9975490196078431 0.6433823529411765 0.004595588235294118 0.004901960784313725
0 0.9981617647058824 0.6576797385620915 0.0033700980392156864 0.005718954248366013
0 0.9981617647058824 0.6642156862745098 0.0027573529411764708 0.004493464052287581
1 0.9702818627450981 0.7103758169934641 0.008272058823529412 0.007352941176470588
0 0.9715073529411765 0.7173202614379085 0.008884803921568627 0.007761437908496732
0 0.9776348039215687 0.7287581699346405 0.04258578431372549 0.012663398692810458
1 0.9469975490196079 0.6176470588235294 0.00857843137254902 0.005718954248366013
0 0.9463848039215687 0.6262254901960784 0.006740196078431373 0.005718954248366013
0 0.9558823529411765 0.6258169934640523 0.0070465686274509805 0.005718954248366013
0 0.9509803921568627 0.6262254901960784 0.0027573529411764708 0.005718954248366013
0 0.9607843137254902 0.6254084967320261 0.0027573529411764708 0.0053104575163398695
0 0.9469975490196079 0.639297385620915 0.005208333333333333 0.006535947712418301
0 0.9525122549019608 0.6384803921568627 0.005821078431372549 0.006535947712418301
0 0.9571078431372549 0.6388888888888888 0.0030637254901960784 0.006127450980392157
1 0.961703431372549 0.6384803921568627 0.007352941176470588 0.0053104575163398695
0 0.9666053921568627 0.6380718954248366 0.0024509803921568627 0.006535947712418301
0 0.9485294117647058 0.6474673202614379 0.007352941176470588 0.005718954248366013
0 0.953125 0.6478758169934641 0.0024509803921568627 0.005718954248366013
0 0.9555759803921569 0.6474673202614379 0.0027573529411764708 0.005718954248366013
1 0.9598651960784313 0.6478758169934641 0.006433823529411764 0.006535947712418301
0 0.9666053921568627 0.6466503267973857 0.007659313725490196 0.006944444444444444
1 0.9497549019607843 0.6621732026143791 0.008272058823529412 0.008169934640522876
0 0.9558823529411765 0.6605392156862745 0.003676470588235294 0.00857843137254902
0 0.9506740196078431 0.6703431372549019 0.00857843137254902 0.006944444444444444
0 0.9607843137254902 0.6695261437908496 0.008272058823529412 0.006127450980392157
0 0.9669117647058824 0.7034313725490197 0.016544117647058824 0.008169934640522876
1 0.9954044117647058 0.6993464052287581 0.00857843137254902 0.006944444444444444