1 0.5184461805555556 0.5593171296296297 0.022135416666666668 0.021122685185185185
1 0.537109375 0.5651041666666666 0.023871527777777776 0.02025462962962963
1 0.5616319444444444 0.5706018518518519 0.024088541666666668 0.02199074074074074
0 0.5340711805555556 0.6085069444444444 0.020833333333333332 0.011284722222222222
0 0.5297309027777778 0.6163194444444444 0.028645833333333332 0.013888888888888888
0 0.5750868055555556 0.65625 0.03797743055555555 0.008391203703703705
0 0.5763888888888888 0.7016782407407407 0.022569444444444444 0.007233796296296296
0 0.5726996527777778 0.7089120370370371 0.016059027777777776 0.005787037037037037
0 0.5805121527777778 0.7230902777777778 0.028428819444444444 0.015914351851851853
1 0.3075086805555556 0.09259259259259259 0.08094618055555555 0.058159722222222224
1 0.3949652777777778 0.08217592592592593 0.09027777777777778 0.06365740740740741
1 0.46875 0.07465277777777778 0.053385416666666664 0.05092592592592592
1 0.5342881944444444 0.06741898148148148 0.06901041666666667 0.05150462962962963
1 0.2289496527777778 0.15104166666666666 0.010416666666666666 0.009259259259259259
1 0.2348090277777778 0.1869212962962963 0.009114583333333334 0.010416666666666666
1 0.23958333333333334 0.22106481481481483 0.012369791666666666 0.01244212962962963
1 0.2526041666666667 0.14583333333333334 0.04014756944444445 0.030960648148148147
1 0.2873263888888889 0.1417824074074074 0.031032986111111112 0.03269675925925926
1 0.3203125 0.13831018518518517 0.033637152777777776 0.033275462962962965
1 0.3576388888888889 0.13512731481481483 0.04296875 0.033275462962962965
1 0.4038628472222222 0.13020833333333334 0.048177083333333336 0.032407407407407406
1 0.4526909722222222 0.12644675925925927 0.04578993055555555 0.037037037037037035
1 0.4947916666666667 0.12297453703703703 0.036458333333333336 0.036458333333333336
1 0.5399305555555556 0.11226851851851852 0.051215277777777776 0.04398148148148148
1 0.5846354166666666 0.10619212962962964 0.03342013888888889 0.03587962962962963
1 0.6143663194444444 0.1021412037037037 0.020399305555555556 0.03530092592592592
1 0.2515190972222222 0.18171296296296297 0.0234375 0.03443287037037037
1 0.2860243055555556 0.1814236111111111 0.045572916666666664 0.037905092592592594
1 0.3224826388888889 0.17592592592592593 0.02734375 0.028935185185185185
1 0.3559027777777778 0.171875 0.039713541666666664 0.037037037037037035
1 0.3921440972222222 0.16811342592592593 0.028862847222222224 0.03269675925925926
1 0.4275173611111111 0.16319444444444445 0.041666666666666664 0.028935185185185185
1 0.4704861111111111 0.16030092592592593 0.044270833333333336 0.034722222222222224
1 0.5071614583333334 0.15393518518518517 0.027560763888888888 0.03211805555555555
1 0.5416666666666666 0.1527777777777778 0.03732638888888889 0.03211805555555555
1 0.57421875 0.14380787037037038 0.025173611111111112 0.030960648148148147
1 0.2610677083333333 0.2181712962962963 0.03125 0.03009259259259259
1 0.291015625 0.21903935185185186 0.028862847222222224 0.034722222222222224
1 0.3170572916666667 0.2152777777777778 0.026041666666666668 0.032407407407407406
1 0.345703125 0.2115162037037037 0.033637152777777776 0.029513888888888888
1 0.376953125 0.2065972222222222 0.027126736111111112 0.028356481481481483
1 0.4153645833333333 0.2048611111111111 0.050347222222222224 0.03935185185185185
1 0.4691840277777778 0.19820601851851852 0.058159722222222224 0.039641203703703706