1 0.0904224537037037 0.07725694444444445 0.14293981481481483 0.12434895833333333
1 0.2009548611111111 0.09722222222222222 0.07262731481481481 0.1189236111111111
1 0.2803819444444444 0.0793185763888889 0.08333333333333333 0.1076388888888889
1 0.36747685185185186 0.0769314236111111 0.07725694444444445 0.1154513888888889
1 0.4565972222222222 0.0691189236111111 0.09577546296296297 0.12608506944444445
1 0.5493344907407407 0.07779947916666667 0.07841435185185185 0.11197916666666667
1 0.6050347222222222 0.0859375 0.023726851851851853 0.09266493055555555
1 0.6561053240740741 0.0859375 0.019675925925925927 0.0857204861111111
1 0.7051504629629629 0.0925564236111111 0.078125 0.1111111111111111
1 0.18431712962962962 0.1779513888888889 0.0920138888888889 0.0546875
1 0.2638888888888889 0.17881944444444445 0.06597222222222222 0.04600694444444445
1 0.3258101851851852 0.19444444444444445 0.06163194444444445 0.057291666666666664
1 0.3919270833333333 0.19010416666666666 0.06944444444444445 0.057291666666666664
1 0.4552951388888889 0.18543836805555555 0.06828703703703703 0.07139756944444445
1 0.5147569444444444 0.1736111111111111 0.06278935185185185 0.049479166666666664
1 0.09577546296296297 0.3651258680555556 0.013020833333333334 0.025390625
1 0.09288194444444445 0.3854166666666667 0.01099537037037037 0.011067708333333334
1 0.10257523148148148 0.3854166666666667 0.0078125 0.010199652777777778
1 0.1662326388888889 0.4270833333333333 0.10532407407407407 0.10004340277777778
1 0.171875 0.5343967013888888 0.0787037037037037 0.1032986111111111
1 0.1762152777777778 0.6414930555555556 0.07436342592592593 0.09027777777777778
1 0.1423611111111111 0.7080078125 0.019675925925925927 0.019748263888888888
1 0.16261574074074073 0.703125 0.01765046296296296 0.029513888888888888
1 0.1870659722222222 0.7027994791666666 0.030671296296296297 0.023654513888888888
1 0.21571180555555555 0.7022569444444444 0.02546296296296296 0.027994791666666668
0 0.09490740740740741 0.7260199652777778 0.015046296296296295 0.012152777777777778
0 0.2230902777777778 0.3032769097222222 0.0642361111111111 0.035590277777777776
0 0.27372685185185186 0.3017578125 0.02922453703703704 0.030164930555555556
1 0.38179976851851855 0.2994791666666667 0.18171296296296297 0.039713541666666664