1 0.19966722129783693 0.34579439252336447 0.11148086522462562 0.2616822429906542
1 0.30782029950083195 0.35514018691588783 0.08319467554076539 0.2897196261682243
1 0.40099833610648916 0.37383177570093457 0.08485856905158069 0.29906542056074764
1 0.4841930116472546 0.38317757009345793 0.0632279534109817 0.308411214953271
1 0.589018302828619 0.411214953271028 0.1281198003327787 0.29906542056074764
1 0.17970049916805325 0.7009345794392523 0.16805324459234608 0.2803738317757009
1 0.3178036605657238 0.7102803738317757 0.08319467554076539 0.2897196261682243
1 0.4209650582362729 0.7102803738317757 0.09317803660565724 0.2803738317757009
1 0.5108153078202995 0.7476635514018691 0.0632279534109817 0.2897196261682243
1 0.6339434276206323 0.7289719626168224 0.16139767054908485 0.27102803738317754