1 0.6982421875 0.09375 0.1552734375 0.15234375
1 0.8564453125 0.06640625 0.1640625 0.13020833333333334
1 0.814453125 0.2825520833333333 0.3623046875 0.2747395833333333
1 0.68359375 0.5208333333333334 0.046875 0.03515625
0 0.66796875 0.5546875 0.044921875 0.032552083333333336
0 0.7333984375 0.5546875 0.046875 0.03125
0 0.720703125 0.58984375 0.1044921875 0.03125
1 0.669921875 0.6419270833333334 0.021484375 0.0390625
1 0.7001953125 0.6471354166666666 0.0234375 0.037760416666666664
0 0.7421875 0.6315104166666666 0.0068359375 0.0234375
0 0.75 0.6393229166666666 0.0087890625 0.040364583333333336
0 0.76953125 0.6419270833333334 0.009765625 0.04296875
0 0.8330078125 0.5794270833333334 0.0263671875 0.029947916666666668
0 0.8330078125 0.6002604166666666 0.025390625 0.016927083333333332
1 0.5537109375 0.5963541666666666 0.0224609375 0.013020833333333334
1 0.5712890625 0.59765625 0.01171875 0.01171875
0 0.595703125 0.5950520833333334 0.021484375 0.0078125
1 0.5771484375 0.6263020833333334 0.048828125 0.048177083333333336
0 0.55078125 0.6549479166666666 0.0126953125 0.0078125
0 0.6044921875 0.73828125 0.0146484375 0.01171875
0 0.6259765625 0.7265625 0.01171875 0.013020833333333334
0 0.626953125 0.75390625 0.0126953125 0.014322916666666666
0 0.6748046875 0.6731770833333334 0.0107421875 0.009114583333333334
0 0.6875 0.6809895833333334 0.0078125 0.006510416666666667
0 0.7060546875 0.6770833333333334 0.013671875 0.0078125
0 0.70703125 0.6901041666666666 0.015625 0.01953125
0 0.646484375 0.7591145833333334 0.0078125 0.01171875
0 0.2861328125 0.7395833333333334 0.005859375 0.006510416666666667
0 0.2861328125 0.7434895833333334 0.0068359375 0.006510416666666667
0 0.2255859375 0.8723958333333334 0.013671875 0.00390625
1 0.236328125 0.9140625 0.0126953125 0.005208333333333333