1 0.66 0.4437869822485207 0.1688888888888889 0.14497041420118342
1 0.5711111111111111 0.650887573964497 0.22444444444444445 0.1893491124260355
1 0.7955555555555556 0.6301775147928994 0.15777777777777777 0.21597633136094674
1 0.1711111111111111 0.3165680473372781 0.08 0.16863905325443787
1 0.23555555555555555 0.35798816568047337 0.05555555555555555 0.15680473372781065
1 0.08888888888888889 0.4940828402366864 0.1511111111111111 0.26627218934911245
1 0.2511111111111111 0.5769230769230769 0.14 0.22189349112426035
0 0.18 0.8816568047337278 0.06888888888888889 0.01775147928994083
0 0.18 0.8994082840236687 0.06666666666666667 0.01775147928994083
0 0.17777777777777778 0.9142011834319527 0.06 0.014792899408284023
0 0.02 0.8284023668639053 0.03111111111111111 0.01775147928994083
1 0.8 0.8846153846153846 0.051111111111111114 0.020710059171597635