1 0.42028985507246375 0.2204861111111111 0.10869565217391304 0.04861111111111111
1 0.38716356107660455 0.2534722222222222 0.011387163561076604 0.010416666666666666
1 0.4026915113871636 0.2534722222222222 0.018633540372670808 0.015625
1 0.4192546583850932 0.2517361111111111 0.015527950310559006 0.015625
1 0.4389233954451346 0.2534722222222222 0.020703933747412008 0.017361111111111112
1 0.4554865424430642 0.2534722222222222 0.015527950310559006 0.017361111111111112
1 0.391304347826087 0.3072916666666667 0.047619047619047616 0.04513888888888889
1 0.4668737060041408 0.3055555555555556 0.08488612836438923 0.0625
1 0.5507246376811594 0.3107638888888889 0.062111801242236024 0.05381944444444445
1 0.6418219461697723 0.3020833333333333 0.09523809523809523 0.059027777777777776
1 0.7308488612836439 0.3003472222222222 0.06418219461697723 0.059027777777777776
1 0.386128364389234 0.3524305555555556 0.039337474120082816 0.027777777777777776
1 0.43788819875776397 0.3524305555555556 0.056935817805383024 0.029513888888888888
1 0.4906832298136646 0.3524305555555556 0.049689440993788817 0.029513888888888888
1 0.5300207039337475 0.3559027777777778 0.025879917184265012 0.022569444444444444
1 0.5693581780538303 0.3576388888888889 0.046583850931677016 0.03125
1 0.6076604554865425 0.3524305555555556 0.030020703933747412 0.03298611111111111
1 0.6273291925465838 0.3576388888888889 0.013457556935817806 0.03125
1 0.6542443064182195 0.3576388888888889 0.035196687370600416 0.03298611111111111
1 0.6966873706004141 0.3576388888888889 0.045548654244306416 0.03125
1 0.7401656314699793 0.3559027777777778 0.045548654244306416 0.027777777777777776
1 0.38509316770186336 0.4166666666666667 0.043478260869565216 0.03125
1 0.4244306418219462 0.4149305555555556 0.034161490683229816 0.03125
1 0.468944099378882 0.4149305555555556 0.053830227743271224 0.029513888888888888
1 0.5217391304347826 0.4201388888888889 0.052795031055900624 0.03993055555555555
1 0.587991718426501 0.4149305555555556 0.047619047619047616 0.034722222222222224
1 0.6407867494824017 0.4184027777777778 0.06314699792960662 0.034722222222222224
1 0.6987577639751553 0.4166666666666667 0.048654244306418216 0.029513888888888888
1 0.7463768115942029 0.4201388888888889 0.044513457556935816 0.036458333333333336
1 0.9420289855072463 0.1909722222222222 0.10869565217391304 0.024305555555555556
1 0.9244306418219461 0.22395833333333334 0.07246376811594203 0.027777777777777776
1 0.9803312629399586 0.22395833333333334 0.036231884057971016 0.027777777777777776