1 0.35 0.19666666666666666 0.02375 0.021666666666666667
1 0.38625 0.19833333333333333 0.03875 0.021666666666666667
1 0.4375 0.19833333333333333 0.0525 0.023333333333333334
1 0.48625 0.2 0.04 0.023333333333333334
1 0.53 0.2 0.04 0.023333333333333334
1 0.5725 0.2 0.03625 0.021666666666666667
1 0.60875 0.20166666666666666 0.025 0.018333333333333333
1 0.28875 0.22666666666666666 0.04625 0.04666666666666667
1 0.36125 0.23 0.08375 0.04
1 0.44375 0.235 0.065 0.03833333333333333
1 0.5125 0.235 0.04625 0.04
1 0.5775 0.23333333333333334 0.07 0.043333333333333335
1 0.6575 0.23833333333333334 0.065 0.03333333333333333
1 0.265 0.26166666666666666 0.01375 0.008333333333333333
1 0.28125 0.2633333333333333 0.0125 0.01
1 0.3 0.2633333333333333 0.0225 0.013333333333333334
1 0.32375 0.2633333333333333 0.02 0.011666666666666667
0 0.34125 0.265 0.01625 0.011666666666666667
1 0.36375 0.26666666666666666 0.02375 0.013333333333333334
0 0.3825 0.26666666666666666 0.01 0.013333333333333334
0 0.3975 0.26666666666666666 0.015 0.015
1 0.41375 0.26666666666666666 0.0125 0.015
1 0.4275 0.2683333333333333 0.01375 0.016666666666666666
1 0.44125 0.2683333333333333 0.01375 0.015
1 0.58 0.27 0.01125 0.008333333333333333
1 0.61125 0.27 0.0475 0.013333333333333334
1 0.64375 0.27166666666666667 0.01375 0.013333333333333334
0 0.67625 0.27166666666666667 0.0475 0.013333333333333334
1 0.27625 0.31 0.03 0.03833333333333333
1 0.3025 0.31 0.02 0.035
1 0.32625 0.31166666666666665 0.0275 0.03666666666666667
1 0.355 0.31 0.03 0.035
1 0.38 0.31166666666666665 0.01875 0.028333333333333332
1 0.4025 0.31166666666666665 0.02625 0.035
1 0.425 0.31166666666666665 0.03 0.03166666666666667
1 0.455 0.315 0.025 0.03
1 0.4775 0.31166666666666665 0.01875 0.035
1 0.49875 0.31666666666666665 0.02 0.03166666666666667
1 0.5175 0.31333333333333335 0.01625 0.04
1 0.53375 0.31333333333333335 0.01625 0.03333333333333333
1 0.55625 0.315 0.03 0.03166666666666667
0 0.53375 0.5433333333333333 0.17 0.016666666666666666
1 0.66875 0.5783333333333334 0.02625 0.016666666666666666
1 0.6875 0.5783333333333334 0.00875 0.018333333333333333
0 0.675 0.5933333333333334 0.03625 0.013333333333333334
0 0.68 0.6583333333333333 0.02625 0.021666666666666667
0 0.04 0.46166666666666667 0.0175 0.02
0 0.04375 0.405 0.02375 0.016666666666666666
1 0.92625 0.15833333333333333 0.02875 0.041666666666666664
1 0.96125 0.11833333333333333 0.0375 0.056666666666666664
1 0.9875 0.08666666666666667 0.015 0.035
1 0.89625 0.22166666666666668 0.035 0.05
1 0.9225 0.195 0.01875 0.03666666666666667
1 0.94375 0.175 0.02 0.041666666666666664
1 0.975 0.14166666666666666 0.04625 0.06666666666666667
1 0.855 0.305 0.02875 0.05333333333333334
1 0.88 0.2816666666666667 0.02625 0.055
1 0.91 0.25833333333333336 0.035 0.058333333333333334
1 0.9475 0.21833333333333332 0.04 0.07
1 0.98 0.18666666666666668 0.03375 0.058333333333333334
0 0.9325 0.2866666666666667 0.13 0.12
1 0.945 0.41833333333333333 0.02375 0.043333333333333335
1 0.965 0.4083333333333333 0.02 0.05
1 0.98375 0.3983333333333333 0.02375 0.04833333333333333
0 0.2025 0.565 0.1025 0.015
1 0.14125 0.5866666666666667 0.025 0.028333333333333332
1 0.1675 0.5866666666666667 0.02875 0.03166666666666667
0 0.16375 0.6133333333333333 0.03625 0.01
1 0.58 0.31666666666666665 0.01125 0.025
1 0.5925 0.31666666666666665 0.0075 0.02666666666666667
1 0.61 0.31833333333333336 0.02375 0.02666666666666667
1 0.635 0.31833333333333336 0.0125 0.023333333333333334
1 0.6475 0.31666666666666665 0.0075 0.021666666666666667
1 0.665 0.31666666666666665 0.0225 0.023333333333333334