1 0.5210843373493976 0.35 0.1757028112449799 0.1206896551724138
1 0.5230923694779116 0.5396551724137931 0.2931726907630522 0.2655172413793103
1 0.7600401606425703 0.5448275862068965 0.2520080321285141 0.3103448275862069
1 0.4759036144578313 0.7293103448275862 0.09738955823293173 0.0706896551724138
1 0.5491967871485943 0.7275862068965517 0.04819277108433735 0.06379310344827586
1 0.6044176706827309 0.7172413793103448 0.04819277108433735 0.05517241379310345
1 0.6847389558232931 0.7206896551724138 0.09738955823293173 0.07758620689655173
1 0.35943775100401604 0.8379310344827586 0.1606425702811245 0.15689655172413794
1 0.5271084337349398 0.8448275862068966 0.1746987951807229 0.15862068965517243
1 0.6987951807228916 0.8413793103448276 0.15562248995983935 0.17413793103448275
1 0.4427710843373494 0.9551724137931035 0.0642570281124498 0.05344827586206897
1 0.5271084337349398 0.9586206896551724 0.10240963855421686 0.07241379310344828
1 0.6034136546184738 0.9534482758620689 0.04919678714859438 0.05172413793103448