1 0.294 0.128 0.08 0.056
1 0.36 0.12 0.042 0.042666666666666665
1 0.424 0.10666666666666667 0.078 0.056
1 0.5 0.088 0.062 0.06133333333333333
1 0.56 0.08266666666666667 0.05 0.064
1 0.622 0.06666666666666667 0.066 0.06666666666666667
1 0.716 0.05333333333333334 0.104 0.08
1 0.818 0.032 0.092 0.064
1 0.524 0.18933333333333333 0.198 0.11466666666666667
1 0.734 0.15733333333333333 0.196 0.13333333333333333
1 0.458 0.272 0.058 0.032
1 0.52 0.26666666666666666 0.06 0.034666666666666665
1 0.572 0.25866666666666666 0.044 0.034666666666666665
1 0.632 0.25333333333333335 0.074 0.034666666666666665
1 0.692 0.24266666666666667 0.038 0.032
1 0.73 0.23733333333333334 0.032 0.032
1 0.782 0.23466666666666666 0.066 0.037333333333333336
1 0.236 0.3333333333333333 0.024 0.018666666666666668
1 0.26 0.3333333333333333 0.026 0.018666666666666668
1 0.282 0.33066666666666666 0.014 0.018666666666666668
1 0.314 0.3253333333333333 0.048 0.024
1 0.366 0.32 0.054 0.024
1 0.4 0.31733333333333336 0.014 0.021333333333333333
1 0.42 0.31466666666666665 0.018 0.021333333333333333
1 0.44 0.312 0.018 0.021333333333333333
1 0.464 0.30933333333333335 0.024 0.024
1 0.744 0.2773333333333333 0.024 0.021333333333333333
1 0.818 0.26666666666666666 0.118 0.034666666666666665
1 0.272 0.5386666666666666 0.042 0.064
1 0.302 0.5386666666666666 0.03 0.05333333333333334
1 0.254 0.608 0.036 0.050666666666666665
1 0.292 0.6 0.042 0.056
1 0.246 0.6773333333333333 0.04 0.06666666666666667
1 0.278 0.68 0.042 0.06933333333333333
1 0.25 0.76 0.054 0.06933333333333333
1 0.238 0.8533333333333334 0.064 0.08533333333333333
1 0.226 0.9386666666666666 0.052 0.08266666666666667
1 0.802 0.5173333333333333 0.038 0.056
1 0.846 0.512 0.046 0.072
1 0.812 0.592 0.074 0.07733333333333334
1 0.872 0.5946666666666667 0.036 0.06933333333333333
1 0.804 0.6906666666666667 0.042 0.058666666666666666
1 0.864 0.6906666666666667 0.074 0.07466666666666667
1 0.81 0.7786666666666666 0.076 0.07733333333333334
1 0.882 0.7893333333333333 0.08 0.08
1 0.854 0.8906666666666667 0.066 0.08
0 0.646 0.792 0.118 0.021333333333333333
1 0.612 0.8586666666666667 0.034 0.021333333333333333
1 0.648 0.8613333333333333 0.032 0.02666666666666667