0 0.962 0.24702380952380953 0.073 0.03720238095238095
1 0.969 0.29017857142857145 0.056 0.05803571428571429
1 0.069 0.3541666666666667 0.131 0.08928571428571429
1 0.223 0.3645833333333333 0.091 0.09375
1 0.313 0.37648809523809523 0.086 0.09375
1 0.403 0.38244047619047616 0.084 0.08035714285714286
1 0.472 0.3913690476190476 0.046 0.07738095238095238
1 0.554 0.40029761904761907 0.118 0.07142857142857142
1 0.642 0.40476190476190477 0.074 0.06845238095238096
1 0.698 0.4107142857142857 0.055 0.06547619047619048
1 0.766 0.4166666666666667 0.103 0.06547619047619048
1 0.864 0.4330357142857143 0.1 0.08630952380952381
1 0.238 0.47767857142857145 0.189 0.125
1 0.395 0.49107142857142855 0.115 0.09523809523809523
1 0.506 0.49404761904761907 0.095 0.11011904761904762
1 0.607 0.5044642857142857 0.105 0.09821428571428571
1 0.745 0.5074404761904762 0.186 0.1056547619047619
1 0.603 0.8794642857142857 0.061 0.23809523809523808
1 0.651 0.8571428571428571 0.039 0.20238095238095238