1 0.05648854961832061 0.5 0.08244274809160305 0.5740740740740741
1 0.1633587786259542 0.5185185185185185 0.11908396946564885 0.6481481481481481
1 0.31603053435114503 0.46296296296296297 0.15267175572519084 0.5370370370370371
1 0.4488549618320611 0.4444444444444444 0.08702290076335878 0.5740740740740741
1 0.5435114503816794 0.46296296296296297 0.07938931297709924 0.5740740740740741
1 0.6473282442748092 0.48148148148148145 0.10076335877862595 0.6296296296296297
1 0.8366412213740458 0.46296296296296297 0.2534351145038168 0.42592592592592593