1 0.26666666666666666 0.28888888888888886 0.27291666666666664 0.12361111111111112
1 0.5510416666666667 0.2652777777777778 0.265625 0.13333333333333333
1 0.296875 0.4027777777777778 0.11875 0.05555555555555555
1 0.38958333333333334 0.39861111111111114 0.07083333333333333 0.05277777777777778
1 0.440625 0.3972222222222222 0.023958333333333335 0.03333333333333333
1 0.5177083333333333 0.3875 0.11354166666666667 0.04861111111111111
1 0.146875 0.5333333333333333 0.12916666666666668 0.02361111111111111
1 0.4322916666666667 0.5319444444444444 0.03229166666666667 0.030555555555555555
1 0.5 0.5305555555555556 0.05625 0.029166666666666667
1 0.5645833333333333 0.5291666666666667 0.03229166666666667 0.02638888888888889
1 0.5927083333333333 0.5333333333333333 0.020833333333333332 0.027777777777777776
1 0.6229166666666667 0.5319444444444444 0.029166666666666667 0.025
1 0.65625 0.5305555555555556 0.03333333333333333 0.02638888888888889
1 0.7083333333333334 0.5319444444444444 0.065625 0.025
1 0.771875 0.5347222222222222 0.034375 0.025
1 0.8260416666666667 0.5305555555555556 0.06666666666666667 0.03194444444444444
1 0.8791666666666667 0.5305555555555556 0.027083333333333334 0.02638888888888889
0 0.071875 0.9763888888888889 0.011458333333333333 0.008333333333333333
0 0.08645833333333333 0.9791666666666666 0.0125 0.009722222222222222
1 0.45729166666666665 0.5333333333333333 0.020833333333333332 0.027777777777777776