1 0.22375 0.39789473684210525 0.07 0.10105263157894737
1 0.125 0.47157894736842104 0.03625 0.13473684210526315
1 0.18875 0.4926315789473684 0.08125 0.15578947368421053
1 0.27625 0.5389473684210526 0.08625 0.1368421052631579
1 0.48625 0.13052631578947368 0.08 0.10947368421052632
1 0.41875 0.2673684210526316 0.06875 0.12631578947368421
1 0.4975 0.2294736842105263 0.07625 0.1431578947368421
1 0.57 0.2063157894736842 0.05625 0.12842105263157894
0 0.5925 0.9873684210526316 0.00875 0.016842105263157894
0 0.63625 0.9810526315789474 0.0675 0.02736842105263158
1 0.71625 0.9894736842105263 0.025 0.014736842105263158