1 0.08768656716417911 0.14285714285714285 0.06343283582089553 0.22077922077922077
1 0.15298507462686567 0.14285714285714285 0.054104477611940295 0.22077922077922077
1 0.21082089552238806 0.14285714285714285 0.05037313432835821 0.24675324675324675
1 0.27425373134328357 0.14285714285714285 0.06343283582089553 0.23376623376623376
1 0.3451492537313433 0.13636363636363635 0.06343283582089553 0.2727272727272727
1 0.4664179104477612 0.11688311688311688 0.17350746268656717 0.22077922077922077
1 0.08022388059701492 0.37662337662337664 0.03544776119402985 0.23376623376623376
1 0.13805970149253732 0.36363636363636365 0.06902985074626866 0.23376623376623376
1 0.21828358208955223 0.37662337662337664 0.07835820895522388 0.2077922077922078
1 0.28544776119402987 0.38961038961038963 0.048507462686567165 0.23376623376623376
1 0.4253731343283582 0.37662337662337664 0.23694029850746268 0.22077922077922077
1 0.6361940298507462 0.11038961038961038 0.07276119402985075 0.22077922077922077
1 0.707089552238806 0.12337662337662338 0.04477611940298507 0.24675324675324675
1 0.6343283582089553 0.33766233766233766 0.07276119402985075 0.2987012987012987
1 0.707089552238806 0.33766233766233766 0.04477611940298507 0.24675324675324675
1 0.7854477611940298 0.33766233766233766 0.0914179104477612 0.2857142857142857
1 0.871268656716418 0.2987012987012987 0.06343283582089553 0.2987012987012987