1 0.4350525310410697 0.26112759643916916 0.04250238777459408 0.05242334322453017
1 0.48089780324737347 0.27101879327398615 0.041069723018147083 0.058358061325420374
1 0.5300859598853869 0.26409495548961426 0.05300859598853868 0.05637982195845697
1 0.5735434574976123 0.27101879327398615 0.025310410697230182 0.04747774480712166
1 0.43361986628462273 0.3323442136498516 0.041069723018147083 0.050445103857566766
1 0.4775549188156638 0.33728981206726016 0.041069723018147083 0.058358061325420374
1 0.5267430754536772 0.3303659742828882 0.051098376313276024 0.05637982195845697
1 0.565425023877746 0.33827893175074186 0.018147086914995225 0.051434223541048464
1 0.5816618911174785 0.33827893175074186 0.018147086914995225 0.050445103857566766
1 0.5959885386819485 0.33926805143422356 0.014326647564469915 0.04945598417408507
1 0.610792741165234 0.34520276953511375 0.013371537726838587 0.03560830860534125
1 0.6275071633237822 0.33926805143422356 0.022922636103151862 0.04846686449060336
1 0.47421203438395415 0.3877349159248269 0.027220630372492838 0.033630069238377844
1 0.498567335243553 0.3857566765578635 0.019579751671442217 0.03461918892185954
1 0.5210124164278892 0.3897131552917903 0.022922636103151862 0.026706231454005934
1 0.5382043935052531 0.390702274975272 0.009073543457497613 0.027695351137487636
1 0.559694364851958 0.3916913946587537 0.031041069723018146 0.03066271018793274
1 0.42932187201528177 0.4391691394658754 0.038204393505253106 0.050445103857566766
1 0.4684813753581662 0.44510385756676557 0.03677172874880611 0.05637982195845697
1 0.5138490926456543 0.4362017804154303 0.04727793696275072 0.05242334322453017
1 0.5463228271251194 0.4411473788328388 0.013371537726838587 0.04648862512363996
1 0.4283667621776504 0.49258160237388726 0.01862464183381089 0.032640949554896145
1 0.444603629417383 0.4896142433234421 0.013371537726838587 0.032640949554896145
1 0.46513849092645654 0.49060336300692386 0.02387774594078319 0.03165182987141444
1 0.4909264565425024 0.486646884272997 0.027220630372492838 0.03560830860534125
1 0.5167144221585482 0.4886251236399604 0.021967526265520534 0.03461918892185954
1 0.5391595033428844 0.4886251236399604 0.021012416427889206 0.02967359050445104
1 0.5616045845272206 0.49159248269040556 0.02148997134670487 0.025717111770524232
1 0.5778414517669532 0.49258160237388726 0.008595988538681949 0.025717111770524232
1 0.5959885386819485 0.49258160237388726 0.026743075453677174 0.027695351137487636
1 0.4871060171919771 0.5291790306627102 0.04871060171919771 0.03560830860534125
1 0.5339063992359121 0.533135509396637 0.04632282712511939 0.04253214638971316