1 0.5714285714285714 0.16310160427807488 0.12698412698412698 0.09090909090909091
1 0.7043650793650794 0.16844919786096257 0.09126984126984126 0.07754010695187166
1 0.6666666666666666 0.24331550802139038 0.04563492063492063 0.05080213903743316
1 0.3373015873015873 0.3689839572192513 0.12896825396825398 0.0748663101604278
1 0.4523809523809524 0.36363636363636365 0.05555555555555555 0.07754010695187166
1 0.4087301587301587 0.45187165775401067 0.0873015873015873 0.05080213903743316