1 0.12745098039215685 0.4844290657439446 0.06862745098039216 0.03806228373702422
1 0.19019607843137254 0.4844290657439446 0.050980392156862744 0.03460207612456748
1 0.23921568627450981 0.48788927335640137 0.043137254901960784 0.03806228373702422
1 0.27058823529411763 0.48788927335640137 0.01764705882352941 0.03460207612456748
1 0.30196078431372547 0.4809688581314879 0.041176470588235294 0.03806228373702422
1 0.3431372549019608 0.48788927335640137 0.03725490196078431 0.03806228373702422
1 0.19215686274509805 0.532871972318339 0.06470588235294118 0.04844290657439446
1 0.24901960784313726 0.5294117647058824 0.043137254901960784 0.04152249134948097
1 0.28431372549019607 0.5294117647058824 0.027450980392156862 0.04152249134948097
1 0.44901960784313727 0.5017301038062284 0.1392156862745098 0.0657439446366782
1 0.5705882352941176 0.5017301038062284 0.08431372549019608 0.06920415224913495
1 0.6588235294117647 0.5051903114186851 0.07450980392156863 0.05190311418685121
1 0.3843137254901961 0.6089965397923875 0.22549019607843138 0.12802768166089964
1 0.6392156862745098 0.6089965397923875 0.21176470588235294 0.12110726643598616
1 0.10392156862745099 0.7162629757785467 0.03137254901960784 0.04152249134948097
1 0.1392156862745098 0.7093425605536332 0.03725490196078431 0.04152249134948097
1 0.17647058823529413 0.7093425605536332 0.03137254901960784 0.031141868512110725
1 0.23333333333333334 0.7058823529411765 0.07450980392156863 0.04152249134948097
1 0.29215686274509806 0.7058823529411765 0.0392156862745098 0.03806228373702422
1 0.33137254901960783 0.71280276816609 0.03529411764705882 0.03460207612456748
1 0.37058823529411766 0.7058823529411765 0.029411764705882353 0.03806228373702422
1 0.40588235294117647 0.7058823529411765 0.03725490196078431 0.03806228373702422
1 0.4568627450980392 0.7058823529411765 0.058823529411764705 0.031141868512110725
1 0.503921568627451 0.7058823529411765 0.0196078431372549 0.031141868512110725
1 0.5333333333333333 0.7058823529411765 0.0392156862745098 0.031141868512110725
1 0.5666666666666667 0.7058823529411765 0.021568627450980392 0.031141868512110725
1 0.5980392156862745 0.7058823529411765 0.021568627450980392 0.031141868512110725
1 0.6294117647058823 0.7024221453287197 0.027450980392156862 0.03806228373702422
1 0.6607843137254902 0.7058823529411765 0.027450980392156862 0.031141868512110725
1 0.7058823529411765 0.7058823529411765 0.043137254901960784 0.031141868512110725
1 0.8450980392156863 0.7024221453287197 0.027450980392156862 0.031141868512110725
1 0.903921568627451 0.7058823529411765 0.08627450980392157 0.03460207612456748