1 0.18461538461538463 0.3333333333333333 0.20307692307692307 0.40540540540540543
1 0.36615384615384616 0.3153153153153153 0.2123076923076923 0.4594594594594595
1 0.8769230769230769 0.26126126126126126 0.23384615384615384 0.36936936936936937
1 0.6153846153846154 0.2702702702702703 0.27076923076923076 0.5405405405405406