1 0.2265625 0.375 0.13671875 0.2403846153846154
1 0.361328125 0.4423076923076923 0.125 0.1971153846153846
1 0.23828125 0.6105769230769231 0.142578125 0.24519230769230768
1 0.361328125 0.6490384615384616 0.08984375 0.20673076923076922
1 0.20703125 0.8605769230769231 0.1484375 0.23076923076923078
1 0.34765625 0.8846153846153846 0.12890625 0.21634615384615385
1 0.5859375 0.5721153846153846 0.28125 0.4807692307692308
1 0.537109375 0.8942307692307693 0.16796875 0.19230769230769232
1 0.681640625 0.9230769230769231 0.103515625 0.14903846153846154
1 0.75 0.5913461538461539 0.044921875 0.14423076923076922
1 0.796875 0.625 0.048828125 0.15384615384615385
1 0.84765625 0.6298076923076923 0.064453125 0.13942307692307693
1 0.763671875 0.7740384615384616 0.041015625 0.15384615384615385
1 0.796875 0.7932692307692307 0.03515625 0.125
1 0.83984375 0.7980769230769231 0.07421875 0.15865384615384615
0 0.765625 0.9375 0.0390625 0.1201923076923077
0 0.806640625 0.9615384615384616 0.041015625 0.07692307692307693
1 0.857421875 0.9663461538461539 0.064453125 0.0625