1 0.472 0.2672672672672673 0.232 0.2672672672672673
1 0.34 0.7087087087087087 0.078 0.07207207207207207
1 0.44 0.6786786786786787 0.106 0.12612612612612611
1 0.57 0.6846846846846847 0.118 0.1111111111111111
1 0.354 0.8078078078078078 0.108 0.06306306306306306
1 0.46 0.8138138138138138 0.08 0.057057057057057055
1 0.558 0.8228228228228228 0.102 0.05105105105105105
1 0.352 0.9039039039039038 0.11 0.06606606606606606
1 0.43 0.9129129129129129 0.028 0.04804804804804805
0 0.454 0.9129129129129129 0.026 0.06306306306306306
1 0.504 0.9129129129129129 0.074 0.04504504504504504
1 0.59 0.918918918918919 0.082 0.05105105105105105