0 0.45 0.007552083333333333 0.149609375 0.015104166666666667
1 0.42265625 0.028125 0.012109375 0.0125
1 0.44140625 0.027604166666666666 0.01875 0.014583333333333334
1 0.46328125 0.025520833333333333 0.023046875 0.016145833333333335
1 0.4828125 0.022916666666666665 0.0109375 0.011979166666666667
1 0.50390625 0.0203125 0.026953125 0.014583333333333334
1 0.523046875 0.018229166666666668 0.005859375 0.0109375
1 0.538671875 0.016145833333333335 0.021875 0.013020833333333334
1 0.56328125 0.014583333333333334 0.0234375 0.011979166666666667
1 0.621484375 0.0109375 0.032421875 0.013541666666666667
1 0.648828125 0.009375 0.021484375 0.013541666666666667
1 0.66875 0.007291666666666667 0.015234375 0.013541666666666667
1 0.690625 0.00546875 0.023828125 0.0109375
1 0.497265625 0.07916666666666666 0.134765625 0.0796875
1 0.61171875 0.06197916666666667 0.094140625 0.07239583333333334
1 0.4 0.1421875 0.01640625 0.008333333333333333
1 0.4 0.153125 0.01640625 0.008333333333333333
1 0.400390625 0.16510416666666666 0.01640625 0.008333333333333333
1 0.4328125 0.1625 0.01640625 0.008333333333333333
1 0.4671875 0.16041666666666668 0.01640625 0.008333333333333333
1 0.399609375 0.13072916666666667 0.01640625 0.008333333333333333
1 0.428515625 0.13958333333333334 0.008203125 0.0078125
1 0.428125 0.15104166666666666 0.008203125 0.0078125
1 0.428125 0.128125 0.008203125 0.0078125
1 0.534765625 0.13802083333333334 0.096875 0.0671875
1 0.644921875 0.13072916666666667 0.10390625 0.065625
1 0.71171875 0.13333333333333333 0.01796875 0.009375
1 0.7125 0.121875 0.01796875 0.009375
1 0.712109375 0.1453125 0.01796875 0.009375
1 0.7125 0.109375 0.01796875 0.009375
1 0.7453125 0.14427083333333332 0.01015625 0.008333333333333333
1 0.7453125 0.10833333333333334 0.01015625 0.008333333333333333
1 0.7453125 0.1203125 0.01015625 0.008333333333333333
1 0.744921875 0.1328125 0.009765625 0.008333333333333333
1 0.72734375 0.11927083333333334 0.018359375 0.00625
1 0.727734375 0.13125 0.018359375 0.00625
1 0.726953125 0.14375 0.018359375 0.00625
1 0.72734375 0.10729166666666666 0.018359375 0.00625
1 0.69609375 0.1328125 0.00859375 0.005729166666666666
1 0.695703125 0.12135416666666667 0.00859375 0.005729166666666666
1 0.695703125 0.1078125 0.00859375 0.005729166666666666
1 0.69609375 0.14479166666666668 0.00859375 0.005729166666666666
1 0.5359375 0.18125 0.041796875 0.016145833333333335
1 0.572265625 0.17864583333333334 0.02421875 0.013020833333333334
1 0.637109375 0.17604166666666668 0.100390625 0.017708333333333333
0 0.36171875 0.2234375 0.0265625 0.005729166666666666
0 0.4890625 0.21666666666666667 0.03046875 0.005729166666666666
1 0.641796875 0.2078125 0.00390625 0.0046875
1 0.645703125 0.20833333333333334 0.00390625 0.005208333333333333
1 0.65 0.2078125 0.0046875 0.005208333333333333
1 0.657421875 0.20729166666666668 0.00625 0.0046875
1 0.666015625 0.20729166666666668 0.011328125 0.005729166666666666
1 0.74453125 0.203125 0.00390625 0.0046875
1 0.748828125 0.20416666666666666 0.00390625 0.004166666666666667
1 0.753125 0.20364583333333333 0.0046875 0.005208333333333333
1 0.75703125 0.203125 0.004296875 0.0046875
1 0.76796875 0.203125 0.01484375 0.0067708333333333336
1 0.7796875 0.20260416666666667 0.00859375 0.005208333333333333
1 0.789453125 0.203125 0.0109375 0.00625
1 0.76484375 0.22864583333333333 0.03046875 0.013541666666666667
1 0.76484375 0.23854166666666668 0.02421875 0.0036458333333333334
1 0.68515625 0.228125 0.00546875 0.005208333333333333
1 0.6765625 0.24375 0.026171875 0.010416666666666666
1 0.698046875 0.24427083333333333 0.015625 0.010416666666666666
1 0.626953125 0.23489583333333333 0.008984375 0.0067708333333333336
1 0.64140625 0.234375 0.015234375 0.007291666666666667
1 0.635546875 0.2421875 0.023046875 0.005729166666666666
1 0.543359375 0.2421875 0.041015625 0.0078125
0 0.54375 0.2515625 0.044921875 0.004166666666666667
1 0.487109375 0.24375 0.035546875 0.010416666666666666
0 0.4875 0.25 0.036328125 0.005208333333333333
1 0.4625 0.25625 0.006640625 0.0046875
1 0.46953125 0.25625 0.007421875 0.005208333333333333
1 0.476953125 0.2557291666666667 0.008203125 0.004166666666666667
1 0.48515625 0.2552083333333333 0.008203125 0.005729166666666666
1 0.49375 0.2552083333333333 0.0078125 0.0046875
1 0.5015625 0.2552083333333333 0.008203125 0.004166666666666667
1 0.41171875 0.2552083333333333 0.0203125 0.008854166666666666
1 0.434765625 0.25416666666666665 0.02421875 0.008333333333333333
1 0.423828125 0.2625 0.034765625 0.005208333333333333
1 0.34765625 0.2453125 0.008984375 0.010416666666666666
1 0.375 0.24375 0.01640625 0.009895833333333333
1 0.36328125 0.26197916666666665 0.0390625 0.011979166666666667
0 0.362890625 0.271875 0.03984375 0.005729166666666666
1 0.407421875 0.3145833333333333 0.0296875 0.011458333333333333
1 0.456640625 0.3078125 0.028125 0.00625
0 0.462890625 0.31197916666666664 0.016015625 0.0046875
1 0.51015625 0.30416666666666664 0.02265625 0.00625
0 0.509765625 0.309375 0.021484375 0.0046875
1 0.4546875 0.33489583333333334 0.014453125 0.0067708333333333336
1 0.453515625 0.3416666666666667 0.012890625 0.0067708333333333336
1 0.523046875 0.3359375 0.015625 0.0067708333333333336
0 0.55234375 0.2791666666666667 0.013671875 0.00625
1 0.568359375 0.278125 0.014453125 0.0046875
1 0.558984375 0.3026041666666667 0.01640625 0.005208333333333333
1 0.5828125 0.3020833333333333 0.016796875 0.00625
0 0.57109375 0.3072916666666667 0.019921875 0.0036458333333333334
1 0.57578125 0.33645833333333336 0.017578125 0.009895833333333333
1 0.627734375 0.31197916666666664 0.007421875 0.005208333333333333
1 0.632421875 0.33541666666666664 0.0046875 0.00625
1 0.644140625 0.33489583333333334 0.015625 0.00625
1 0.66328125 0.3 0.028125 0.0140625
1 0.71328125 0.29791666666666666 0.020703125 0.005208333333333333
1 0.72578125 0.29739583333333336 0.002734375 0.0036458333333333334
1 0.715625 0.3026041666666667 0.025 0.004166666666666667
1 0.65078125 0.35989583333333336 0.004296875 0.005208333333333333
1 0.655078125 0.3609375 0.003125 0.005208333333333333
1 0.658984375 0.36041666666666666 0.00546875 0.005208333333333333
1 0.666015625 0.36041666666666666 0.009765625 0.0067708333333333336
1 0.675390625 0.35989583333333336 0.005859375 0.005208333333333333
0 0.7359375 0.35833333333333334 0.007421875 0.005729166666666666
1 0.137890625 0.5692708333333333 0.0046875 0.0078125
1 0.140625 0.5786458333333333 0.00703125 0.0109375
1 0.134765625 0.5796875 0.00703125 0.0109375
1 0.144921875 0.5911458333333334 0.00625 0.0140625
1 0.131640625 0.5932291666666667 0.00703125 0.0125
1 0.138671875 0.5921875 0.00625 0.0140625
1 0.128125 0.6078125 0.009375 0.014583333333333334
1 0.135546875 0.6067708333333334 0.008203125 0.014583333333333334
1 0.143359375 0.6057291666666667 0.00703125 0.014583333333333334
1 0.150390625 0.6052083333333333 0.00625 0.014583333333333334
1 0.15625 0.6208333333333333 0.005859375 0.016145833333333335
1 0.122265625 0.6244791666666667 0.012109375 0.0171875
1 0.13125 0.6239583333333333 0.012109375 0.0171875
1 0.13984375 0.6234375 0.010546875 0.016666666666666666
1 0.14921875 0.621875 0.00703125 0.0171875
1 0.116796875 0.6458333333333334 0.009765625 0.022395833333333334
1 0.1265625 0.6447916666666667 0.0140625 0.022395833333333334
1 0.137890625 0.64375 0.009765625 0.020833333333333332
1 0.14765625 0.6421875 0.0078125 0.022395833333333334
1 0.155859375 0.640625 0.00625 0.0203125
1 0.120703125 0.6692708333333334 0.00859375 0.021875
1 0.1328125 0.6666666666666666 0.00703125 0.021354166666666667
1 0.144921875 0.6645833333333333 0.0046875 0.020833333333333332
1 0.13046875 0.6890625 0.010546875 0.022395833333333334
1 0.1421875 0.6864583333333333 0.012109375 0.024479166666666666
1 0.128515625 0.7140625 0.012890625 0.028125
1 0.141015625 0.7109375 0.011328125 0.027083333333333334
1 0.45546875 0.38333333333333336 0.008984375 0.0067708333333333336
1 0.50859375 0.3854166666666667 0.007421875 0.005208333333333333
1 0.494921875 0.36354166666666665 0.018359375 0.005208333333333333