1 0.21388888888888888 0.23125 0.05 0.03229166666666667
1 0.25416666666666665 0.2375 0.025 0.029166666666666667
1 0.2916666666666667 0.24166666666666667 0.041666666666666664 0.03333333333333333
1 0.3375 0.25 0.04722222222222222 0.03333333333333333
1 0.26805555555555555 0.26666666666666666 0.0125 0.019791666666666666
1 0.2902777777777778 0.2708333333333333 0.025 0.020833333333333332
1 0.4097222222222222 0.259375 0.04722222222222222 0.03854166666666667
1 0.4444444444444444 0.26979166666666665 0.020833333333333332 0.025
1 0.46805555555555556 0.2708333333333333 0.02361111111111111 0.028125
1 0.42777777777777776 0.29270833333333335 0.025 0.020833333333333332
1 0.44722222222222224 0.296875 0.0125 0.01875
1 0.4013888888888889 0.4375 0.03611111111111111 0.017708333333333333
1 0.4583333333333333 0.44166666666666665 0.025 0.017708333333333333
1 0.4 0.4625 0.0375 0.015625
1 0.39861111111111114 0.48854166666666665 0.0375 0.014583333333333334
1 0.39305555555555555 0.5114583333333333 0.02638888888888889 0.013541666666666667
0 0.39444444444444443 0.5364583333333334 0.0375 0.014583333333333334
1 0.5305555555555556 0.39791666666666664 0.015277777777777777 0.0125
1 0.55 0.40208333333333335 0.018055555555555554 0.007291666666666667
1 0.5708333333333333 0.4041666666666667 0.020833333333333332 0.008333333333333333
1 0.5236111111111111 0.43854166666666666 0.030555555555555555 0.013541666666666667
1 0.5611111111111111 0.4375 0.04027777777777778 0.014583333333333334
1 0.6430555555555556 0.434375 0.05694444444444444 0.016666666666666666
1 0.7027777777777777 0.43333333333333335 0.03888888888888889 0.010416666666666666
0 0.6972222222222222 0.44895833333333335 0.019444444444444445 0.0020833333333333333
0 0.6972222222222222 0.45208333333333334 0.03194444444444444 0.0020833333333333333
0 0.6958333333333333 0.4552083333333333 0.020833333333333332 0.003125
1 0.9652777777777778 0.4322916666666667 0.013888888888888888 0.017708333333333333
1 0.9888888888888889 0.434375 0.018055555555555554 0.015625
0 0.8027777777777778 0.5364583333333334 0.016666666666666666 0.00625
0 0.7111111111111111 0.5427083333333333 0.019444444444444445 0.008333333333333333
0 0.12083333333333333 0.47291666666666665 0.016666666666666666 0.005208333333333333
1 0.1388888888888889 0.4739583333333333 0.015277777777777777 0.005208333333333333