1 0.361328125 0.3619791666666667 0.078125 0.053385416666666664
1 0.4462890625 0.3658854166666667 0.091796875 0.0546875
1 0.267578125 0.4153645833333333 0.12890625 0.09114583333333333
1 0.4111328125 0.4296875 0.13671875 0.06510416666666667
1 0.552734375 0.4231770833333333 0.125 0.08333333333333333
1 0.3515625 0.4765625 0.0390625 0.020833333333333332
1 0.3876953125 0.4778645833333333 0.017578125 0.022135416666666668
1 0.423828125 0.4791666666666667 0.0400390625 0.020833333333333332
1 0.474609375 0.4830729166666667 0.041015625 0.0234375
0 0.1201171875 0.2643229166666667 0.0126953125 0.0390625
0 0.1162109375 0.3059895833333333 0.01171875 0.049479166666666664
0 0.115234375 0.3463541666666667 0.01171875 0.045572916666666664
0 0.1123046875 0.37890625 0.0126953125 0.048177083333333336
0 0.025390625 0.7955729166666666 0.013671875 0.0078125
0 0.041015625 0.796875 0.015625 0.0078125
0 0.056640625 0.796875 0.0126953125 0.0078125
0 0.564453125 0.859375 0.03125 0.020833333333333332
0 0.7080078125 0.8671875 0.0166015625 0.015625
1 0.9189453125 0.65625 0.009765625 0.014322916666666666
1 0.92578125 0.7864583333333334 0.015625 0.0234375
1 0.91015625 0.65625 0.0068359375 0.014322916666666666