1 0.18575553416746873 0.7864583333333334 0.07025986525505294 0.390625
1 0.35226179018286813 0.609375 0.25120307988450435 0.765625
1 0.5697786333012512 0.4739583333333333 0.15591915303176132 0.5833333333333334
1 0.7449470644850819 0.3802083333333333 0.1751684311838306 0.6197916666666666