1 0.48721804511278194 0.788135593220339 0.1593984962406015 0.0826271186440678
1 0.6586466165413534 0.7902542372881356 0.15789473684210525 0.11228813559322035
1 0.2887218045112782 0.8919491525423728 0.12180451127819548 0.07627118644067797
1 0.4120300751879699 0.8898305084745762 0.09924812030075188 0.08686440677966102
1 0.5172932330827068 0.8940677966101694 0.08571428571428572 0.06991525423728813
1 0.6135338345864662 0.8983050847457628 0.08421052631578947 0.08050847457627118
1 0.6827067669172933 0.902542372881356 0.03609022556390978 0.07203389830508475
1 0.7338345864661654 0.9110169491525424 0.055639097744360905 0.057203389830508475
1 0.8225563909774436 0.9194915254237288 0.10526315789473684 0.05296610169491525