1 0.281 0.12593703148425786 0.253 0.22188905547226387
1 0.459 0.24587706146926536 0.083 0.10344827586206896
1 0.553 0.3103448275862069 0.092 0.10494752623688156
1 0.634 0.36431784107946025 0.063 0.08845577211394302
1 0.69 0.3988005997001499 0.046 0.06596701649175413
1 0.747 0.4332833583208396 0.058 0.08695652173913043
1 0.801 0.4707646176911544 0.06 0.08245877061469266
1 0.862 0.5112443778110944 0.072 0.08095952023988005