1 0.186875 0.1688888888888889 0.036875 0.06222222222222222
1 0.233125 0.17222222222222222 0.036875 0.06111111111111111
1 0.30875 0.18888888888888888 0.098125 0.05555555555555555
1 0.375625 0.19 0.018125 0.044444444444444446
1 0.421875 0.18333333333333332 0.0575 0.06555555555555556
1 0.47375 0.1922222222222222 0.0325 0.052222222222222225
1 0.53625 0.19333333333333333 0.085 0.057777777777777775
1 0.61375 0.19444444444444445 0.05 0.058888888888888886
1 0.66375 0.1988888888888889 0.03625 0.05555555555555555
1 0.710625 0.20777777777777778 0.044375 0.06444444444444444
1 0.179375 0.3388888888888889 0.05625 0.08888888888888889
1 0.2275 0.3477777777777778 0.02625 0.07333333333333333
1 0.2725 0.3488888888888889 0.05 0.07222222222222222
1 0.3275 0.3511111111111111 0.044375 0.07222222222222222
1 0.389375 0.35333333333333333 0.064375 0.07333333333333333
1 0.464375 0.3522222222222222 0.071875 0.08333333333333333
1 0.5275 0.3655555555555556 0.03875 0.08555555555555555
1 0.565 0.3522222222222222 0.0275 0.08444444444444445
1 0.61125 0.3511111111111111 0.050625 0.09111111111111111
1 0.6675 0.36444444444444446 0.04875 0.09888888888888889
1 0.7225 0.35333333333333333 0.05125 0.09666666666666666
1 0.3975 0.5122222222222222 0.236875 0.1811111111111111
1 0.586875 0.54 0.1 0.18777777777777777
1 0.160625 0.6955555555555556 0.041875 0.05333333333333334
1 0.218125 0.6944444444444444 0.059375 0.052222222222222225
1 0.28375 0.6933333333333334 0.06 0.057777777777777775
1 0.354375 0.6922222222222222 0.07 0.052222222222222225
1 0.445625 0.69 0.075625 0.05444444444444444
1 0.5225 0.69 0.065 0.051111111111111114
1 0.599375 0.69 0.051875 0.052222222222222225
1 0.6525 0.69 0.046875 0.05
1 0.70875 0.6888888888888889 0.02875 0.04888888888888889
1 0.745 0.6955555555555556 0.033125 0.06222222222222222
1 0.1975 0.7788888888888889 0.11875 0.057777777777777775
1 0.3725 0.7811111111111111 0.215 0.07222222222222222
1 0.579375 0.77 0.044375 0.052222222222222225
1 0.6875 0.7711111111111111 0.154375 0.05333333333333334