1 0.32764423076923077 0.428525641025641 0.02980769230769231 0.20096153846153847
1 0.38822115384615385 0.35224358974358977 0.06009615384615385 0.03493589743589744
1 0.4338942307692308 0.35 0.025240384615384616 0.029166666666666667
1 0.46490384615384617 0.3490384615384615 0.02980769230769231 0.03974358974358974
1 0.509375 0.34647435897435896 0.05216346153846154 0.030448717948717948
1 0.5612980769230769 0.3416666666666667 0.04158653846153846 0.03365384615384615
1 0.6278846153846154 0.3371794871794872 0.08485576923076923 0.03782051282051282
1 0.6882211538461539 0.3346153846153846 0.031009615384615385 0.032692307692307694
1 0.723798076923077 0.3375 0.03461538461538462 0.03365384615384615
1 0.41802884615384617 0.41346153846153844 0.12764423076923076 0.07243589743589744
1 0.5394230769230769 0.4060897435897436 0.10697115384615384 0.06826923076923076
1 0.628125 0.39647435897435895 0.06538461538461539 0.07147435897435897
1 0.709375 0.39294871794871794 0.08846153846153847 0.07628205128205129
1 0.41754807692307694 0.4724358974358974 0.059375 0.058333333333333334
1 0.4735576923076923 0.4717948717948718 0.04879807692307692 0.0483974358974359
1 0.5158653846153847 0.4689102564102564 0.027884615384615386 0.04903846153846154
1 0.5463942307692308 0.4708333333333333 0.02956730769230769 0.041346153846153845
1 0.5995192307692307 0.4637820512820513 0.07259615384615385 0.05096153846153846
1 0.659375 0.4673076923076923 0.045432692307692306 0.052564102564102565
1 0.7048076923076924 0.45737179487179486 0.04591346153846154 0.0483974358974359
1 0.7771634615384615 0.3993589743589744 0.04927884615384615 0.19743589743589743
1 0.39903846153846156 0.5608974358974359 0.06610576923076923 0.052564102564102565
1 0.4949519230769231 0.55 0.0985576923076923 0.06314102564102564
1 0.5865384615384616 0.5381410256410256 0.065625 0.07083333333333333
1 0.6954326923076923 0.532051282051282 0.13028846153846155 0.07179487179487179
1 0.5709134615384616 0.6544871794871795 0.42932692307692305 0.16314102564102564
1 0.3923076923076923 0.757051282051282 0.04230769230769231 0.03782051282051282
1 0.42596153846153845 0.7544871794871795 0.02235576923076923 0.03653846153846154
1 0.4668269230769231 0.7477564102564103 0.05336538461538461 0.03653846153846154
1 0.5319711538461539 0.7416666666666667 0.05480769230769231 0.035576923076923075
1 0.5877403846153846 0.7365384615384616 0.05336538461538461 0.04038461538461539
1 0.6420673076923077 0.7352564102564103 0.034375 0.03782051282051282
1 0.6798076923076923 0.7272435897435897 0.042548076923076925 0.03717948717948718
1 0.7350961538461539 0.7278846153846154 0.04350961538461538 0.03878205128205128
1 0.7668269230769231 0.7205128205128205 0.02451923076923077 0.03493589743589744
1 0.3293269230769231 0.6708333333333333 0.03076923076923077 0.22852564102564102
1 0.80625 0.6317307692307692 0.05456730769230769 0.22179487179487178