1 0.5371794871794872 0.10576923076923077 0.13076923076923078 0.11826923076923077
1 0.5282051282051282 0.21826923076923077 0.1717948717948718 0.10673076923076923
1 0.5256410256410257 0.37596153846153846 0.17692307692307693 0.14038461538461539
1 0.5205128205128206 0.5509615384615385 0.1564102564102564 0.12884615384615383
1 0.6653846153846154 0.3557692307692308 0.00641025641025641 0.007692307692307693
0 0.6807692307692308 0.35673076923076924 0.023076923076923078 0.006730769230769231
1 0.6538461538461539 0.3663461538461538 0.020512820512820513 0.008653846153846154
1 0.676923076923077 0.3682692307692308 0.02564102564102564 0.009615384615384616
0 0.6525641025641026 0.37115384615384617 0.017948717948717947 0.0038461538461538464
0 0.65 0.375 0.01282051282051282 0.0038461538461538464
0 0.6602564102564102 0.37596153846153846 0.00641025641025641 0.0038461538461538464
0 0.6679487179487179 0.37596153846153846 0.007692307692307693 0.0028846153846153848
1 0.6346153846153846 0.38461538461538464 0.010256410256410256 0.006730769230769231
0 0.632051282051282 0.3951923076923077 0.008974358974358974 0.0038461538461538464
0 0.6423076923076924 0.39615384615384613 0.007692307692307693 0.0038461538461538464
0 0.65 0.3971153846153846 0.005128205128205128 0.0019230769230769232
0 0.6576923076923077 0.39807692307692305 0.008974358974358974 0.0038461538461538464
0 0.6730769230769231 0.39903846153846156 0.019230769230769232 0.004807692307692308
0 0.6423076923076924 0.42403846153846153 0.01282051282051282 0.004807692307692308
0 0.6551282051282051 0.4269230769230769 0.014102564102564103 0.0038461538461538464
1 0.6897435897435897 0.41346153846153844 0.01282051282051282 0.014423076923076924
1 0.7269230769230769 0.36153846153846153 0.015384615384615385 0.010576923076923078
0 0.7371794871794872 0.3625 0.010256410256410256 0.006730769230769231
1 0.7205128205128205 0.3778846153846154 0.03717948717948718 0.011538461538461539
0 0.7012820512820512 0.4201923076923077 0.005128205128205128 0.0038461538461538464
0 0.708974358974359 0.41923076923076924 0.010256410256410256 0.0028846153846153848
0 0.7102564102564103 0.4480769230769231 0.019230769230769232 0.0038461538461538464
0 0.735897435897436 0.44326923076923075 0.014102564102564103 0.0038461538461538464
0 0.7551282051282051 0.3557692307692308 0.007692307692307693 0.01730769230769231
0 0.7961538461538461 0.3576923076923077 0.015384615384615385 0.004807692307692308
0 0.7897435897435897 0.36730769230769234 0.023076923076923078 0.007692307692307693
0 0.7833333333333333 0.3730769230769231 0.010256410256410256 0.0019230769230769232
0 0.7833333333333333 0.37596153846153846 0.014102564102564103 0.0028846153846153848
0 0.7653846153846153 0.3875 0.014102564102564103 0.0057692307692307696
0 0.7743589743589744 0.39615384615384613 0.035897435897435895 0.004807692307692308
0 0.7666666666666667 0.4096153846153846 0.02564102564102564 0.004807692307692308
0 0.7717948717948718 0.41346153846153844 0.035897435897435895 0.0057692307692307696
0 0.7589743589743589 0.4221153846153846 0.008974358974358974 0.0038461538461538464
0 0.7692307692307693 0.42115384615384616 0.007692307692307693 0.0028846153846153848
0 0.7769230769230769 0.4201923076923077 0.00641025641025641 0.0028846153846153848
0 0.7846153846153846 0.4201923076923077 0.00641025641025641 0.0009615384615384616
0 0.7717948717948718 0.42596153846153845 0.03333333333333333 0.0038461538461538464
0 0.7705128205128206 0.42788461538461536 0.03461538461538462 0.0038461538461538464
0 0.7615384615384615 0.43173076923076925 0.014102564102564103 0.0019230769230769232
0 0.7705128205128206 0.4326923076923077 0.03076923076923077 0.0038461538461538464
0 0.7705128205128206 0.4355769230769231 0.03076923076923077 0.0038461538461538464
0 0.7628205128205128 0.4375 0.020512820512820513 0.0028846153846153848
0 0.7615384615384615 0.4394230769230769 0.017948717948717947 0.0038461538461538464
0 0.7628205128205128 0.4403846153846154 0.021794871794871794 0.0028846153846153848
1 0.6602564102564102 0.46634615384615385 0.008974358974358974 0.006730769230769231
0 0.6730769230769231 0.46923076923076923 0.019230769230769232 0.007692307692307693
1 0.6410256410256411 0.4740384615384615 0.00641025641025641 0.006730769230769231
0 0.6474358974358975 0.47596153846153844 0.005128205128205128 0.004807692307692308
1 0.6525641025641026 0.47596153846153844 0.00641025641025641 0.006730769230769231
0 0.6641025641025641 0.4778846153846154 0.01282051282051282 0.007692307692307693
1 0.6756410256410257 0.4798076923076923 0.01282051282051282 0.009615384615384616
0 0.6461538461538462 0.4807692307692308 0.016666666666666666 0.0057692307692307696
0 0.6410256410256411 0.48365384615384616 0.00641025641025641 0.0038461538461538464
0 0.6474358974358975 0.4846153846153846 0.0038461538461538464 0.0038461538461538464
0 0.6538461538461539 0.4855769230769231 0.00641025641025641 0.0038461538461538464
0 0.6615384615384615 0.48653846153846153 0.00641025641025641 0.0038461538461538464
1 0.6294871794871795 0.4913461538461538 0.010256410256410256 0.006730769230769231
0 0.6333333333333333 0.5028846153846154 0.014102564102564103 0.0057692307692307696
0 0.6474358974358975 0.5048076923076923 0.010256410256410256 0.004807692307692308
0 0.6615384615384615 0.5086538461538461 0.019230769230769232 0.0057692307692307696
0 0.6282051282051282 0.5153846153846153 0.014102564102564103 0.0057692307692307696
0 0.6423076923076924 0.5182692307692308 0.011538461538461539 0.0057692307692307696
0 0.6256410256410256 0.5192307692307693 0.00641025641025641 0.0038461538461538464
0 0.6346153846153846 0.5201923076923077 0.007692307692307693 0.004807692307692308
0 0.6423076923076924 0.5221153846153846 0.00641025641025641 0.004807692307692308
0 0.6525641025641026 0.5240384615384616 0.010256410256410256 0.004807692307692308
0 0.6641025641025641 0.5269230769230769 0.010256410256410256 0.0057692307692307696
0 0.6282051282051282 0.5269230769230769 0.00641025641025641 0.004807692307692308
0 0.6358974358974359 0.5288461538461539 0.005128205128205128 0.004807692307692308
0 0.6423076923076924 0.5307692307692308 0.00641025641025641 0.0038461538461538464
0 0.65 0.5317307692307692 0.005128205128205128 0.004807692307692308
0 0.6602564102564102 0.5346153846153846 0.011538461538461539 0.004807692307692308
0 0.6448717948717949 0.5355769230769231 0.046153846153846156 0.010576923076923078
0 0.6435897435897436 0.5375 0.047435897435897434 0.0125
0 0.6435897435897436 0.5423076923076923 0.046153846153846156 0.0125
0 0.6435897435897436 0.5451923076923076 0.046153846153846156 0.0125
0 0.6294871794871795 0.5471153846153847 0.019230769230769232 0.010576923076923078
0 0.7128205128205128 0.4701923076923077 0.019230769230769232 0.008653846153846154
0 0.7102564102564103 0.48173076923076924 0.026923076923076925 0.0125
0 0.7871794871794872 0.4576923076923077 0.014102564102564103 0.007692307692307693
0 0.7807692307692308 0.4673076923076923 0.02435897435897436 0.011538461538461539
1 0.6564102564102564 0.5692307692307692 0.017948717948717947 0.009615384615384616
0 0.6538461538461539 0.5778846153846153 0.03717948717948718 0.010576923076923078
0 0.6474358974358975 0.5807692307692308 0.020512820512820513 0.006730769230769231
0 0.6410256410256411 0.5836538461538462 0.007692307692307693 0.004807692307692308
0 0.6564102564102564 0.5875 0.023076923076923078 0.007692307692307693
0 0.823076923076923 0.45384615384615384 0.007692307692307693 0.0057692307692307696
1 0.6692307692307692 0.5721153846153846 0.00641025641025641 0.007692307692307693