1 0.4804964539007092 0.38562091503267976 0.2579787234042553 0.24183006535947713
1 0.1320921985815603 0.8627450980392157 0.07446808510638298 0.22875816993464052
1 0.21897163120567376 0.8496732026143791 0.0797872340425532 0.24183006535947713
1 0.30407801418439717 0.8169934640522876 0.07712765957446809 0.22875816993464052
1 0.40691489361702127 0.8300653594771242 0.1099290780141844 0.27450980392156865
1 0.4725177304964539 0.7973856209150327 0.013297872340425532 0.06535947712418301
1 0.5523049645390071 0.7843137254901961 0.1356382978723404 0.24183006535947713
1 0.6631205673758865 0.738562091503268 0.0673758865248227 0.24836601307189543
1 0.7367021276595744 0.7254901960784313 0.06914893617021277 0.29411764705882354
1 0.8342198581560284 0.6862745098039216 0.11170212765957446 0.29411764705882354