1 0.71 0.5982008995502249 0.058 0.026986506746626688
1 0.768 0.5937031484257871 0.036 0.029985007496251874
1 0.633 0.6446776611694153 0.068 0.050974512743628186
1 0.692 0.6431784107946027 0.036 0.049475262368815595
1 0.755 0.6491754122938531 0.069 0.037481259370314844
1 0.837 0.6476761619190404 0.064 0.037481259370314844
1 0.627 0.712143928035982 0.039 0.044977511244377814
1 0.678 0.7136431784107946 0.052 0.041979010494752625
1 0.744 0.7091454272863568 0.068 0.049475262368815595
1 0.822 0.7151424287856072 0.081 0.037481259370314844
0 0.784 0.48875562218890556 0.024 0.013493253373313344
0 0.783 0.4992503748125937 0.029 0.013493253373313344
0 0.847 0.49325337331334335 0.009 0.008995502248875561
0 0.847 0.4992503748125937 0.01 0.008995502248875561
0 0.338 0.4272863568215892 0.06 0.01199400299850075
1 0.359 0.43778110944527737 0.058 0.01199400299850075