0 0.3613613613613614 0.10687022900763359 0.013013013013013013 0.010687022900763359
0 0.3613613613613614 0.09465648854961832 0.011011011011011011 0.010687022900763359
1 0.47347347347347346 0.28396946564885495 0.18018018018018017 0.07633587786259542
1 0.6196196196196196 0.28396946564885495 0.09509509509509509 0.07022900763358779
1 0.7157157157157157 0.2824427480916031 0.07707707707707707 0.07022900763358779
1 0.8098098098098098 0.29770992366412213 0.0960960960960961 0.06259541984732825
1 0.44544544544544545 0.39541984732824426 0.10810810810810811 0.059541984732824425
1 0.5755755755755756 0.383206106870229 0.12812812812812813 0.0732824427480916
1 0.6996996996996997 0.3893129770992366 0.1001001001001001 0.06259541984732825
1 0.8048048048048048 0.37251908396946565 0.09509509509509509 0.06564885496183206
1 0.45645645645645644 0.5022900763358779 0.11911911911911911 0.07938931297709924
1 0.5895895895895896 0.4778625954198473 0.12712712712712712 0.0732824427480916
1 0.6926926926926927 0.48091603053435117 0.06406406406406406 0.06564885496183206
1 0.7887887887887888 0.47022900763358777 0.11311311311311312 0.08702290076335878
1 0.44744744744744747 0.5877862595419847 0.05805805805805806 0.07633587786259542
1 0.5425425425425425 0.5755725190839694 0.11611611611611612 0.07938931297709924
1 0.6786786786786787 0.5618320610687023 0.13913913913913914 0.07938931297709924
1 0.7927927927927928 0.5557251908396946 0.07507507507507508 0.05648854961832061
1 0.4754754754754755 0.6778625954198473 0.0920920920920921 0.08244274809160305
1 0.5835835835835835 0.6748091603053435 0.1091091091091091 0.07786259541984733
1 0.6776776776776777 0.648854961832061 0.06806806806806807 0.06870229007633588
1 0.7657657657657657 0.650381679389313 0.1041041041041041 0.07633587786259542
1 0.6996996996996997 0.7450381679389313 0.04004004004004004 0.03358778625954199
1 0.7327327327327328 0.7404580152671756 0.022022022022022022 0.025954198473282442
1 0.7637637637637638 0.7343511450381679 0.036036036036036036 0.03969465648854962
1 0.8088088088088088 0.7236641221374046 0.057057057057057055 0.03969465648854962