1 0.15063291139240506 0.12037037037037036 0.13544303797468354 0.2199074074074074
1 0.2810126582278481 0.11805555555555555 0.11772151898734177 0.17592592592592593
1 0.4 0.10416666666666667 0.09746835443037975 0.17592592592592593
1 0.4873417721518987 0.1388888888888889 0.0620253164556962 0.19212962962962962
1 0.5911392405063292 0.11342592592592593 0.11392405063291139 0.18287037037037038
1 0.7506329113924051 0.14814814814814814 0.189873417721519 0.2337962962962963
1 0.14936708860759493 0.3263888888888889 0.1379746835443038 0.1412037037037037
1 0.3037974683544304 0.33101851851851855 0.15443037974683543 0.13194444444444445
1 0.479746835443038 0.3425925925925926 0.1911392405063291 0.14814814814814814
1 0.6518987341772152 0.36574074074074076 0.14050632911392405 0.12037037037037036
1 0.789873417721519 0.3726851851851852 0.11518987341772152 0.14351851851851852