1 0.7060546875 0.05860805860805861 0.03466796875 0.04249084249084249
1 0.75634765625 0.0652014652014652 0.05810546875 0.04981684981684982
1 0.71923828125 0.1304029304029304 0.072265625 0.0695970695970696
1 0.77294921875 0.1304029304029304 0.02734375 0.05347985347985348
1 0.67919921875 0.1934065934065934 0.0234375 0.03663003663003663
1 0.70263671875 0.1956043956043956 0.02001953125 0.035164835164835165
1 0.72705078125 0.1978021978021978 0.0166015625 0.03956043956043956
1 0.75927734375 0.20146520146520147 0.02490234375 0.035164835164835165
1 0.78564453125 0.20293040293040293 0.017578125 0.0380952380952381
1 0.42529296875 0.47692307692307695 0.01611328125 0.014652014652014652
1 0.4130859375 0.4937728937728938 0.0166015625 0.01904761904761905
1 0.43359375 0.4945054945054945 0.02294921875 0.020512820512820513
1 0.41552734375 0.5245421245421246 0.025390625 0.02857142857142857
1 0.43701171875 0.5230769230769231 0.01806640625 0.02857142857142857
1 0.4169921875 0.5604395604395604 0.0224609375 0.02783882783882784
1 0.4365234375 0.5604395604395604 0.01904296875 0.02490842490842491