1 0.31733333333333336 0.35 0.064 0.074
1 0.37066666666666664 0.362 0.032 0.064
1 0.408 0.368 0.034666666666666665 0.056
1 0.444 0.374 0.036 0.06
1 0.31066666666666665 0.418 0.030666666666666665 0.04
1 0.33466666666666667 0.42 0.014666666666666666 0.042
1 0.35333333333333333 0.426 0.021333333333333333 0.04
1 0.4093333333333333 0.432 0.08933333333333333 0.048
0 0.37466666666666665 0.484 0.09866666666666667 0.054
1 0.2653333333333333 0.678 0.08533333333333333 0.07
1 0.3426666666666667 0.678 0.056 0.068
1 0.2693333333333333 0.758 0.07066666666666667 0.046
1 0.3333333333333333 0.754 0.04933333333333333 0.042
0 0.29733333333333334 0.828 0.076 0.06
0 0.868 0.824 0.04 0.018
0 0.8693333333333333 0.844 0.037333333333333336 0.016
1 0.8693333333333333 0.87 0.021333333333333333 0.018