1 0.2390625 0.22083333333333333 0.2125 0.24375
1 0.4 0.22708333333333333 0.109375 0.21041666666666667
1 0.5328125 0.23333333333333334 0.1390625 0.20625
1 0.2546875 0.49166666666666664 0.2296875 0.30625
1 0.6890625 0.5375 0.55625 0.26875
1 0.2015625 0.7020833333333333 0.1265625 0.05
1 0.29375 0.7020833333333333 0.0546875 0.05
1 0.3578125 0.7041666666666667 0.0625 0.05416666666666667
1 0.4390625 0.7104166666666667 0.0828125 0.05625
1 0.5109375 0.70625 0.05 0.04791666666666667
1 0.5984375 0.7104166666666667 0.0796875 0.052083333333333336
1 0.7515625 0.7145833333333333 0.05625 0.05
1 0.875 0.7229166666666667 0.178125 0.05