1 0.27518796992481204 0.051224944320712694 0.02556390977443609 0.028953229398663696
1 0.3112781954887218 0.05790645879732739 0.03458646616541353 0.022271714922048998
1 0.35789473684210527 0.05790645879732739 0.04962406015037594 0.026726057906458798
1 0.40601503759398494 0.05790645879732739 0.03759398496240601 0.028953229398663696
1 0.45112781954887216 0.060133630289532294 0.04962406015037594 0.031180400890868598
1 0.49473684210526314 0.062360801781737196 0.031578947368421054 0.026726057906458798
1 0.5353383458646617 0.06904231625835189 0.042105263157894736 0.022271714922048998
1 0.21353383458646616 0.0957683741648107 0.1849624060150376 0.07126948775055679
1 0.3533834586466165 0.111358574610245 0.07218045112781955 0.05790645879732739
1 0.45112781954887216 0.11581291759465479 0.09323308270676692 0.060133630289532294
1 0.5428571428571428 0.1091314031180401 0.06315789473684211 0.062360801781737196
1 0.3157894736842105 0.1514476614699332 0.11127819548872181 0.024498886414253896
1 0.47368421052631576 0.15812917594654788 0.162406015037594 0.026726057906458798
1 0.08270676691729323 0.1714922048997773 0.022556390977443608 0.0200445434298441
1 0.10676691729323308 0.17371937639198218 0.01804511278195489 0.015590200445434299
1 0.13984962406015036 0.1759465478841871 0.042105263157894736 0.0200445434298441
1 0.18345864661654135 0.1759465478841871 0.042105263157894736 0.0200445434298441
1 0.22406015037593985 0.1759465478841871 0.019548872180451128 0.0200445434298441
1 0.2556390977443609 0.17817371937639198 0.02406015037593985 0.017817371937639197
1 0.3007518796992481 0.17817371937639198 0.04661654135338346 0.017817371937639197
1 0.34135338345864663 0.17817371937639198 0.019548872180451128 0.015590200445434299
1 0.37142857142857144 0.18040089086859687 0.03609022556390978 0.0200445434298441
1 0.4195488721804511 0.18040089086859687 0.06015037593984962 0.0200445434298441
1 0.47218045112781953 0.18262806236080179 0.02406015037593985 0.015590200445434299
1 0.5037593984962406 0.18262806236080179 0.03609022556390978 0.0200445434298441
1 0.5518796992481203 0.18485523385300667 0.05714285714285714 0.015590200445434299
1 0.606015037593985 0.1870824053452116 0.04661654135338346 0.0200445434298441
1 0.6766917293233082 0.1915367483296214 0.09172932330827067 0.0200445434298441
1 0.631578947368421 0.11358574610244988 0.09473684210526316 0.062360801781737196
1 0.8090225563909774 0.3051224944320713 0.012030075187969926 0.011135857461024499
1 0.8210526315789474 0.30957683741648107 0.013533834586466165 0.008908685968819599
1 0.8360902255639098 0.30734966592427615 0.019548872180451128 0.015590200445434299
1 0.8541353383458646 0.30957683741648107 0.013533834586466165 0.013363028953229399
1 0.8706766917293233 0.30957683741648107 0.021052631578947368 0.013363028953229399
1 0.8872180451127819 0.30957683741648107 0.012030075187969926 0.013363028953229399
1 0.8992481203007519 0.30957683741648107 0.019548872180451128 0.011135857461024499
1 0.8300751879699249 0.3207126948775056 0.02406015037593985 0.011135857461024499
1 0.849624060150376 0.3207126948775056 0.012030075187969926 0.011135857461024499
1 0.8631578947368421 0.32516703786191536 0.015037593984962405 0.013363028953229399
1 0.8751879699248121 0.32293986636971045 0.009022556390977444 0.011135857461024499
1 0.8872180451127819 0.32293986636971045 0.015037593984962405 0.011135857461024499
1 0.7864661654135339 0.3585746102449889 0.039097744360902256 0.044543429844097995
1 0.8210526315789474 0.36080178173719374 0.031578947368421054 0.0334075723830735
1 0.849624060150376 0.36525612472160357 0.021052631578947368 0.042316258351893093
1 0.8721804511278195 0.36302895322939865 0.02406015037593985 0.0467706013363029
1 0.8962406015037594 0.3585746102449889 0.02556390977443609 0.042316258351893093
1 0.9187969924812031 0.3585746102449889 0.015037593984962405 0.042316258351893093
1 0.9353383458646617 0.36080178173719374 0.019548872180451128 0.0400890868596882
0 0.8601503759398497 0.4521158129175947 0.11729323308270677 0.053452115812917596
0 0.869172932330827 0.41202672605790647 0.039097744360902256 0.008908685968819599
0 0.9263157894736842 0.42761692650334077 0.021052631578947368 0.008908685968819599
0 0.912781954887218 0.49665924276169265 0.06015037593984962 0.0066815144766146995
0 0.21654135338345865 0.45879732739420936 0.03458646616541353 0.0066815144766146995
0 0.3804511278195489 0.5189309576837416 0.04360902255639098 0.008908685968819599
0 0.3819548872180451 0.5679287305122495 0.02556390977443609 0.004454342984409799
0 0.4180451127819549 0.47216035634743875 0.04661654135338346 0.0066815144766146995
0 0.010526315789473684 0.2806236080178174 0.021052631578947368 0.017817371937639197
0 0.011278195488721804 0.24944320712694878 0.022556390977443608 0.008908685968819599
1 0.009022556390977444 0.3429844097995546 0.01804511278195489 0.013363028953229399