26,54,146,54,146,144,26,144,Minh
155,2,284,2,284,121,155,121,Hùn
22,63,142,51,143,137,23,147,Minh
153,13,284,15,284,115,153,117,Hùn
151,38,229,36,231,118,152,120,Hu
21,50,249,14,242,123,14,148,MinHỦ
83,36,233,25,235,120,86,128,nHu
80,56,142,52,143,133,81,135,nh
23,67,92,62,93,142,23,146,Mir
219,35,283,34,284,108,219,109,In
161,41,190,38,190,73,161,75,T
27,27,135,10,141,98,31,114,lưc
132,10,233,0,237,99,134,108,HH
63,53,177,46,177,129,64,136,innh
154,42,178,41,178,68,154,70,/
154,39,172,38,172,59,154,59,8
152,14,228,4,231,58,153,64,BÀ
110,49,183,42,185,122,112,126,HH
153,40,189,38,191,120,152,121,H
114,54,145,52,147,132,114,133,n
21,73,60,71,61,146,22,149,M
156,26,196,22,197,73,156,76,1
158,33,207,30,208,96,159,97,L
208,36,252,36,252,109,207,109,U
224,42,239,41,239,55,224,56,M
109,52,139,50,141,71,111,74,n
189,37,213,37,213,67,189,68,1
156,43,171,43,171,53,156,54,.
183,36,195,35,196,45,183,46,H
28,81,41,80,41,91,28,92,+
165,51,186,49,188,81,166,82,-
264,41,283,37,283,108,263,110,L
160,58,252,59,255,138,163,139,HỤ
129,76,142,75,142,131,128,132,1
80,65,101,66,103,91,81,91,VN
55,64,109,62,109,138,55,139,Tin
204,9,229,9,230,37,205,37,4
267,13,332,22,328,114,265,108,LI
287,1,296,0,297,16,287,16,THA
322,1,330,0,331,13,321,13,TƯ
314,85,324,85,324,100,314,100,T
12,33,72,14,77,80,19,97,L.
325,121,332,120,333,136,324,137,TNA
158,38,179,35,179,56,158,58,m
156,115,171,114,172,124,156,123,PHê
284,42,284,42,316,174,316,174,Trương
0,186,4,186,3,192,1,192,PV
181,19,336,16,327,134,176,127,lùng
133,21,191,10,193,56,135,63,Lon
199,44,280,41,282,130,200,130,UJ
323,82,332,82,332,96,323,97,1
322,74,334,75,334,92,322,92,H
307,128,314,128,314,145,307,145,/
0,189,2,189,1,192,1,193,Trương
303,86,313,85,313,99,303,100,Đ
9,17,179,0,183,61,17,79,LẢI
325,133,331,132,331,146,325,146,THAN
304,73,315,73,315,86,304,87,P
25,139,37,140,38,148,24,146,THƯ
205,0,287,9,288,87,205,86,rn
201,38,230,36,230,111,200,112,U
305,83,316,82,316,96,305,97,Đ+
296,82,308,82,308,96,297,97,/
320,118,333,117,334,133,320,134,Ư
180,31,198,29,199,49,180,51,r
333,188,340,186,341,192,333,188,Trương
245,101,263,99,263,109,245,110,LƯ
54,71,68,69,69,79,55,81,n
308,87,322,86,323,100,308,101,9
315,111,324,111,324,128,315,128,TƯ
27,75,41,75,42,95,27,96,2
161,59,188,62,188,98,161,96,:
314,73,324,73,324,89,314,89,SA
266,158,313,144,319,176,270,189,VMi
84,70,104,71,105,100,84,100,cảÁ
318,70,335,70,335,87,318,87,1
305,105,315,105,315,120,304,120,T
88,26,192,2,198,67,96,90,an
185,34,198,32,198,42,185,43,.
158,28,171,27,171,48,158,49,X
154,104,171,102,173,126,154,127,U
289,75,308,74,308,87,290,87,TN
312,81,325,80,325,95,313,96,5
198,49,209,46,210,60,198,62,.0
306,90,316,89,316,105,307,106,TƠơ
323,87,333,87,334,104,323,104,5
308,134,314,134,314,150,308,150,THA
291,86,306,85,307,99,292,99,H
262,35,300,34,302,126,263,122,TH
321,11,329,10,330,22,322,24,T3
257,36,340,0,341,102,265,118,Tha
283,4,311,1,310,22,282,24,R
322,102,338,102,338,119,322,119,HỌ
295,1,304,0,304,15,295,15,73
280,3,291,2,291,15,280,15,THAN
113,174,221,113,240,156,121,183,BẶC
139,39,177,38,179,107,139,108,/
90,63,101,61,103,83,93,84,YêU
293,69,307,68,308,83,293,84,T
323,3,334,1,334,16,323,17,TƯ
333,117,340,112,343,131,337,133,H
25,80,38,76,39,87,26,89,H
26,54,146,54,146,144,26,144,Minh
155,2,284,2,284,121,155,121,Hàn
22,63,142,51,143,137,23,147,Minh
153,13,284,15,284,115,153,117,Hàn
151,38,229,36,231,118,152,120,Hu
21,50,249,14,242,123,14,148,Minh
83,36,233,25,235,120,86,128,nhủ
80,56,142,52,143,133,81,135,nh
23,67,92,62,93,142,23,146,MIA
219,35,283,34,284,108,219,109,an
161,41,190,38,190,73,161,75,L
27,27,135,10,141,98,31,114,tỉnh
132,10,233,0,237,99,134,108,HỮ
63,53,177,46,177,129,64,136,inh
154,42,178,41,178,68,154,70,E
154,39,172,38,172,59,154,59,-
152,14,228,4,231,58,153,64,THAN
110,49,183,42,185,122,112,126,hi
153,40,189,38,191,120,152,121,H
114,54,145,52,147,132,114,133,h
21,73,60,71,61,146,22,149,M
156,26,196,22,197,73,156,76,L
158,33,207,30,208,96,159,97,Ho
208,36,252,36,252,109,207,109,LI
224,42,239,41,239,55,224,56,-
109,52,139,50,141,71,111,74,.
189,37,213,37,213,67,189,68,L
156,43,171,43,171,53,156,54,-
183,36,195,35,196,45,183,46,-
28,81,41,80,41,91,28,92,-
165,51,186,49,188,81,166,82,ĐI
264,41,283,37,283,108,263,110,L
160,58,252,59,255,138,163,139,HỤ
129,76,142,75,142,131,128,132,1
80,65,101,66,103,91,81,91,-
55,64,109,62,109,138,55,139,đin
204,9,229,9,230,37,205,37,4
267,13,332,22,328,114,265,108,CHÍNH
287,1,296,0,297,16,287,16,I
322,1,330,0,331,13,321,13,I
314,85,324,85,324,100,314,100,2
12,33,72,14,77,80,19,97,Trà
325,121,332,120,333,136,324,137,/
158,38,179,35,179,56,158,58,&
156,115,171,114,172,124,156,123,-
284,42,284,42,316,174,316,174,HN
0,186,4,186,3,192,1,192,THAN
181,19,336,16,327,134,176,127,Hành
133,21,191,10,193,56,135,63,TY
199,44,280,41,282,130,200,130,un
323,82,332,82,332,96,323,97,-
322,74,334,75,334,92,322,92,1
307,128,314,128,314,145,307,145,T
303,86,313,85,313,99,303,100,E
9,17,179,0,183,61,17,79,THUÊ
325,133,331,132,331,146,325,146,-
304,73,315,73,315,86,304,87,E
25,139,37,140,38,148,24,146,-
205,0,287,9,288,87,205,86,in
201,38,230,36,230,111,200,112,Ư
305,83,316,82,316,96,305,97,E
296,82,308,82,308,96,297,97,E
320,118,333,117,334,133,320,134,H
180,31,198,29,199,49,180,51,-
333,188,340,186,341,192,333,188,-
245,101,263,99,263,109,245,110,-
54,71,68,69,69,79,55,81,-
308,87,322,86,323,100,308,101,23
315,111,324,111,324,128,315,128,I
27,75,41,75,42,95,27,96,-
161,59,188,62,188,98,161,96,:
314,73,324,73,324,89,314,89,I
266,158,313,144,319,176,270,189,-
84,70,104,71,105,100,84,100,2
318,70,335,70,335,87,318,87,11
305,105,315,105,315,120,304,120,T
88,26,192,2,198,67,96,90,LINH
185,34,198,32,198,42,185,43,-
158,28,171,27,171,48,158,49,E
154,104,171,102,173,126,154,127,U
289,75,308,74,308,87,290,87,11
312,81,325,80,325,95,313,96,E
198,49,209,46,210,60,198,62,-
306,90,316,89,316,105,307,106,E
323,87,333,87,334,104,323,104,/
308,134,314,134,314,150,308,150,E
291,86,306,85,307,99,292,99,E
262,35,300,34,302,126,263,122,n
321,11,329,10,330,22,322,24,I
257,36,340,0,341,102,265,118,CHÍNH
283,4,311,1,310,22,282,24,BIDV
322,102,338,102,338,119,322,119,Chúc
295,1,304,0,304,15,295,15,I
280,3,291,2,291,15,280,15,-
113,174,221,113,240,156,121,183,CFO
139,39,177,38,179,107,139,108,K
90,63,101,61,103,83,93,84,E
293,69,307,68,308,83,293,84,T
323,3,334,1,334,16,323,17,I
333,117,340,112,343,131,337,133,E
25,80,38,76,39,87,26,89,-
