6,11,78,11,78,51,6,51,huyện
82,5,129,5,129,42,82,42,cần
134,6,181,6,181,42,134,42,Giờ
81,3,128,2,128,45,81,45,cẩn
133,2,181,3,180,43,133,44,Giờ
7,9,77,10,76,51,6,50,huyện
96,6,123,5,123,40,96,40,ẩn
81,15,97,14,97,43,81,44,C
16,3,131,0,130,48,13,51,quyenc
4,10,41,11,41,51,4,51,hu
155,7,178,6,178,39,154,39,đờ
85,5,115,4,116,36,85,37,CẦ7
133,9,153,8,153,41,133,41,G
5,33,31,32,32,55,5,55,M
108,8,125,9,125,36,107,36,in
128,1,164,0,164,19,128,21,A
38,9,77,6,76,44,38,45,vên
85,2,110,0,110,15,85,17,6i
121,3,149,1,150,15,122,17,LiI
131,18,148,17,149,42,131,42,(
97,9,182,0,184,50,95,56,ấnGid
58,13,75,13,75,42,58,42,n
71,59,158,13,168,60,75,82,TN
131,17,174,14,175,53,131,54,Gio
3,13,23,13,23,51,3,50,h
105,6,112,6,112,13,105,13,L
86,18,120,12,123,67,90,71,ran
140,0,175,0,175,18,139,18,A
16,3,65,1,66,20,16,22,Lẻa
168,9,177,9,177,17,169,17,J
111,4,124,5,124,25,111,25,I
44,10,64,11,64,48,44,47,vệ
17,42,59,28,64,67,20,81,Từ
58,11,73,11,73,27,58,27,T.
0,47,42,34,47,72,2,82,7n
30,18,42,18,42,28,30,28,m
75,17,87,14,88,37,75,41,H
84,17,111,18,111,43,84,43,Ca
61,6,89,2,89,26,63,29,THING
145,9,200,5,205,45,146,48,Giờ
83,16,96,15,96,28,83,29,H
96,14,131,13,131,56,96,54,ân
101,8,113,7,113,17,101,18,N
0,34,1,33,1,43,0,43,CHO
127,13,138,10,139,37,127,40,N
83,11,100,8,100,28,84,31,N
64,10,81,6,82,40,64,42,n
117,7,127,7,127,28,117,29,)
163,4,178,4,178,18,164,19,4
7,12,35,12,35,38,6,39,hu
134,30,152,29,153,45,134,44,ýi
165,8,180,5,180,41,165,43,Ở
79,28,98,26,99,48,79,48,V
65,13,76,12,76,31,65,32,O
127,6,146,4,148,32,129,34,NG
119,67,224,14,235,68,124,82,CHẾN
113,1,129,2,129,19,113,19,L
136,2,155,3,155,17,135,18,A
83,8,95,5,95,21,83,24,THUNG
25,18,37,18,37,27,25,28,T
79,8,105,5,106,48,79,51,cấ
73,3,100,0,100,13,74,16,THUNG
116,10,129,8,130,44,116,47,1
75,4,107,0,108,22,75,25,LHI
153,0,183,0,183,25,153,24,HÂ
12,43,25,41,25,53,12,54,SỨ
132,33,142,33,143,41,132,40,TH
70,10,91,4,92,37,71,41,TG
34,68,68,36,75,70,43,82,CH
172,12,178,11,178,18,172,19,/
164,6,174,6,174,16,164,16,4
99,23,124,21,124,45,99,44,Gin
0,28,3,26,3,43,2,43,TH
0,80,2,81,2,82,0,83,VIFON
81,35,90,35,91,44,81,44,!
4,38,15,38,15,47,3,46,!
128,21,137,20,137,32,129,33,THA
4,28,20,28,21,50,4,50,V
63,7,75,7,75,23,63,23,THUNG
174,11,181,5,180,42,175,44,,
9,52,19,51,20,62,10,63,Ld
106,9,113,9,113,15,106,16,qU
64,17,75,16,75,25,64,25,DA
0,23,9,18,11,45,0,47,NHHC
56,5,73,4,74,19,56,20,THƯNG
167,12,175,12,175,20,167,19,THẠN
57,11,78,8,77,51,56,53,sn
7,5,52,2,53,32,8,36,huu
144,23,171,13,178,66,149,72,O G
0,25,17,19,19,58,0,61,v
3,19,56,18,57,61,3,63,huYe
99,5,117,4,118,18,99,20,N
19,18,28,18,28,28,19,28,/
86,0,133,0,133,21,87,22,.
61,18,73,17,73,29,61,29,/
113,15,125,15,125,24,113,24,ĐA
11,11,38,9,39,27,12,29,kuê
108,7,114,7,114,14,108,14,L
135,35,146,35,147,43,134,41,m
95,2,121,0,122,14,95,16,A
168,7,182,5,183,18,169,22,1
121,3,132,1,131,17,123,19,Chathes
98,71,147,35,157,70,98,71,CHO
6,11,78,11,78,51,6,51,huyện
82,5,129,5,129,42,82,42,cần
134,6,181,6,181,42,134,42,Giờ
81,3,128,2,128,45,81,45,cần
133,2,181,3,180,43,133,44,Giờ
7,9,77,10,76,51,6,50,huyện
96,6,123,5,123,40,96,40,ần
81,15,97,14,97,43,81,44,C
16,3,131,0,130,48,13,51,tuyện
4,10,41,11,41,51,4,51,huy
155,7,178,6,178,39,154,39,iờ
85,5,115,4,116,36,85,37,cẩu
133,9,153,8,153,41,133,41,G
5,33,31,32,32,55,5,55,TY
108,8,125,9,125,36,107,36,n
128,1,164,0,164,19,128,21,A
38,9,77,6,76,44,38,45,vên
85,2,110,0,110,15,85,17,THAN
121,3,149,1,150,15,122,17,THAN
131,18,148,17,149,42,131,42,C
97,9,182,0,184,50,95,56,nGầi
58,13,75,13,75,42,58,42,in
71,59,158,13,168,60,75,82,Chỉ
131,17,174,14,175,53,131,54,Giờ
3,13,23,13,23,51,3,50,h
105,6,112,6,112,13,105,13,-
86,18,120,12,123,67,90,71,cần
140,0,175,0,175,18,139,18,ATM
16,3,65,1,66,20,16,22,TRIỂN
168,9,177,9,177,17,169,17,NỘI
111,4,124,5,124,25,111,25,A
44,10,64,11,64,48,44,47,VỆ
17,42,59,28,64,67,20,81,"
58,11,73,11,73,27,58,27,E
0,47,42,34,47,72,2,82,=
30,18,42,18,42,28,30,28,T
75,17,87,14,88,37,75,41,I
84,17,111,18,111,43,84,43,ca
61,6,89,2,89,26,63,29,nay
145,9,200,5,205,45,146,48,Giờ
83,16,96,15,96,28,83,29,0
96,14,131,13,131,56,96,54,ần
101,8,113,7,113,17,101,18,A
127,13,138,10,139,37,127,40,-
83,11,100,8,100,28,84,31,n
64,10,81,6,82,40,64,42,n
117,7,127,7,127,28,117,29,A
163,4,178,4,178,18,164,19,E,
7,12,35,12,35,38,6,39,hu
134,30,152,29,153,45,134,44,V
165,8,180,5,180,41,165,43,Ờ
79,28,98,26,99,48,79,48,C
65,13,76,12,76,31,65,32,n
127,6,146,4,148,32,129,34,G
119,67,224,14,235,68,124,82,Chanh
113,1,129,2,129,19,113,19,LONG
136,2,155,3,155,17,135,18,A
83,8,95,5,95,21,83,24,A
25,18,37,18,37,27,25,28,-
79,8,105,5,106,48,79,51,có
73,3,100,0,100,13,74,16,THỊ
116,10,129,8,130,44,116,47,T
75,4,107,0,108,22,75,25,THAN
153,0,183,0,183,25,153,24,Hà
12,43,25,41,25,53,12,54,R
132,33,142,33,143,41,132,40,1
70,10,91,4,92,37,71,41,CÓ
34,68,68,36,75,70,43,82,Chè
172,12,178,11,178,18,172,19,I
164,6,174,6,174,16,164,16,-
99,23,124,21,124,45,99,44,an
0,28,3,26,3,43,2,43,-
0,80,2,81,2,82,0,83,THUONG
81,35,90,35,91,44,81,44,-
4,38,15,38,15,47,3,46,-
128,21,137,20,137,32,129,33,tt
4,28,20,28,21,50,4,50,I
63,7,75,7,75,23,63,23,E
174,11,181,5,180,42,175,44,E
9,52,19,51,20,62,10,63,-
106,9,113,9,113,15,106,16,-
64,17,75,16,75,25,64,25,-
0,23,9,18,11,45,0,47,rice
56,5,73,4,74,19,56,20,9.
167,12,175,12,175,20,167,19,A
57,11,78,8,77,51,56,53,in
7,5,52,2,53,32,8,36,hình
144,23,171,13,178,66,149,72,GIỜ
0,25,17,19,19,58,0,61,LO
3,19,56,18,57,61,3,63,thuy
99,5,117,4,118,18,99,20,22
19,18,28,18,28,28,19,28,-
86,0,133,0,133,21,87,22,22
61,18,73,17,73,29,61,29,-
113,15,125,15,125,24,113,24,-
11,11,38,9,39,27,12,29,hơn
108,7,114,7,114,14,108,14,-
135,35,146,35,147,43,134,41,-
95,2,121,0,122,14,95,16,-
168,7,182,5,183,18,169,22,a,
121,3,132,1,131,17,123,19,: 8k
98,71,147,35,157,70,98,71,THAN
