78,33,148,33,148,67,78,67,0969
21,31,74,31,74,66,21,66,ĐT:
215,39,271,39,271,72,215,72,629
154,35,211,35,211,70,154,70,837
77,31,148,32,148,67,76,67,0969
155,32,208,33,208,71,154,70,837
19,28,70,29,71,67,19,66,ĐT:
215,35,271,36,271,71,214,71,629
60,35,71,35,70,70,60,69,:
142,169,157,169,157,190,142,190,.
54,88,220,79,220,189,48,193,Vó
59,83,417,62,417,179,36,185,THING
42,156,83,155,83,185,41,183,0
42,98,162,106,161,215,37,202,LUC
111,33,147,32,147,68,111,68,69
66,158,82,156,82,186,65,187,-
141,162,159,160,159,197,141,198,-
178,83,237,79,235,157,176,161,t7
95,113,163,112,163,240,95,233,Th
65,84,278,77,241,234,35,221,lướ
139,91,231,76,227,158,134,173,m7
187,35,209,34,208,71,187,71,7
213,34,234,34,234,70,213,71,6
248,38,271,37,271,70,248,70,9
333,1,408,13,408,172,329,159,CHANH
40,119,113,118,111,188,34,181,KWN
197,31,289,29,290,76,196,74,7629
77,32,112,32,112,68,76,68,09
16,28,47,29,47,65,16,65,Đ
153,32,181,33,181,70,153,70,8
140,144,159,142,159,188,140,190,hối
80,16,141,16,142,46,81,49,nhoi
11,13,68,15,70,49,13,50,h+
43,39,69,38,69,64,43,64,T
136,32,253,30,254,69,137,71,983762
158,22,206,24,206,55,158,55,9ng
61,32,80,30,81,66,61,68,:
60,143,146,137,152,240,63,237,7M
61,45,250,0,257,68,70,106,Vin
40,23,70,23,71,57,41,57,T 
65,146,114,143,116,185,66,185,3
31,40,69,36,70,76,32,78,LE
257,31,417,0,417,152,249,154,2017:
237,41,267,40,267,67,237,67,29
14,24,96,23,99,68,14,73,ĐT:0
384,7,406,14,405,161,381,155,CHING
223,24,275,25,275,61,223,58,boo
119,159,138,145,143,241,127,250,N
318,81,397,83,404,164,316,161,WKHER
118,140,156,138,158,187,118,188,/
76,229,93,226,94,245,77,248,MB
62,33,75,32,75,56,62,58,-
73,118,159,121,160,197,72,195,NẮC
65,39,77,37,77,62,65,63,2
24,41,182,8,190,52,33,90,160962 -
108,41,379,0,386,111,111,142,Pg6B
84,36,215,32,217,68,84,67,09698337
234,50,269,46,270,75,235,77,43
170,46,203,41,204,82,170,84,N
31,15,63,13,64,41,32,43,NGHI
50,29,66,30,66,47,50,47,P
383,3,416,3,417,95,383,92,S
207,84,233,80,232,156,204,157,/
42,31,59,31,59,42,42,42,H
5,22,18,22,20,66,6,65,LIVN
83,223,96,220,97,238,83,241,03/46268303
146,203,167,203,164,239,154,240,NAM
99,223,119,220,120,241,100,245,R
79,215,129,180,137,242,104,250,MMT
185,19,204,26,204,54,185,48,NGo
78,221,91,218,92,236,79,238,AN3
4,22,40,23,42,67,4,67,Đ
186,26,312,25,313,86,184,85,1629
63,40,73,36,75,76,64,77,M
106,27,156,24,156,59,106,60,TRA
82,214,97,211,97,230,82,233,ANI
162,13,199,9,201,40,163,45,đàg
156,98,262,85,264,180,152,197,Đ
209,64,408,71,414,168,199,161,TITH
167,26,230,22,230,56,169,58,2H
43,136,84,129,84,172,43,177,-
86,207,105,204,105,225,86,227,KW
68,229,87,226,88,245,68,248,RBAI
261,38,273,38,273,50,261,50,1
388,4,411,1,412,17,391,20,I
254,41,266,41,266,68,254,67,9
342,112,400,116,401,168,341,164,Ủ
224,18,265,14,266,43,225,46,THUNH
76,209,94,205,95,226,76,229,MIKI
55,215,71,213,71,233,56,236,3NB
136,157,154,154,155,180,137,182,Kh
84,228,103,225,103,245,85,248,RBBEM
182,38,232,32,233,66,182,71,376
143,172,151,172,152,196,142,196,I
142,168,159,167,160,220,145,222,THM
125,187,125,187,142,250,142,250,HAN
4,1,26,2,25,20,4,21,Vie
39,149,67,147,67,182,39,182,-
59,23,70,22,71,56,60,58,h
239,29,267,31,267,55,240,54,nn
18,57,62,44,66,74,21,86,NỘ
205,87,222,86,221,107,205,107,.
29,15,98,9,99,37,33,42,buan
78,33,148,33,148,67,78,67,0969
21,31,74,31,74,66,21,66,ĐT:
215,39,271,39,271,72,215,72,629
154,35,211,35,211,70,154,70,837
77,31,148,32,148,67,76,67,0969
155,32,208,33,208,71,154,70,837
19,28,70,29,71,67,19,66,ĐT:
215,35,271,36,271,71,214,71,629
60,35,71,35,70,70,60,69,:
142,169,157,169,157,190,142,190,.
54,88,220,79,220,189,48,193,TÍCH
59,83,417,62,417,179,36,185,TAXI
42,156,83,155,83,185,41,183,..
42,98,162,106,161,215,37,202,TRĂM
111,33,147,32,147,68,111,68,69
66,158,82,156,82,186,65,187,-
141,162,159,160,159,197,141,198,-
178,83,237,79,235,157,176,161,T
95,113,163,112,163,240,95,233,"
65,84,278,77,241,234,35,221,Từ
139,91,231,76,227,158,134,173,A
187,35,209,34,208,71,187,71,7
213,34,234,34,234,70,213,71,6
248,38,271,37,271,70,248,70,29
333,1,408,13,408,172,329,159,T
40,119,113,118,111,188,34,181,VUI
197,31,289,29,290,76,196,74,7629
77,32,112,32,112,68,76,68,09
16,28,47,29,47,65,16,65,Đ
153,32,181,33,181,70,153,70,83
140,144,159,142,159,188,140,190,C
80,16,141,16,142,46,81,49,TRẠM
11,13,68,15,70,49,13,50,ĐT:
43,39,69,38,69,64,43,64,T:
136,32,253,30,254,69,137,71,9 837 62
158,22,206,24,206,55,158,55,Canh
61,32,80,30,81,66,61,68,:
60,143,146,137,152,240,63,237,-
61,45,250,0,257,68,70,106,những
40,23,70,23,71,57,41,57,T.
65,146,114,143,116,185,66,185,Chè
31,40,69,36,70,76,32,78,ĐT:
257,31,417,0,417,152,249,154,ĐÀI
237,41,267,40,267,67,237,67,29
14,24,96,23,99,68,14,73,ĐT:
384,7,406,14,405,161,381,155,T
223,24,275,25,275,61,223,58,ĐO
119,159,138,145,143,241,127,250,7
318,81,397,83,404,164,316,161,A
118,140,156,138,158,187,118,188,.
76,229,93,226,94,245,77,248,KHI
62,33,75,32,75,56,62,58,-
73,118,159,121,160,197,72,195,T
65,39,77,37,77,62,65,63,:
24,41,182,8,190,52,33,90,ĐT:000
108,41,379,0,386,111,111,142,NGÀY
84,36,215,32,217,68,84,67,0969 837
234,50,269,46,270,75,235,77,29
170,46,203,41,204,82,170,84,37
31,15,63,13,64,41,32,43,E
50,29,66,30,66,47,50,47,-
383,3,416,3,417,95,383,92,-
207,84,233,80,232,156,204,157,7
42,31,59,31,59,42,42,42,-
5,22,18,22,20,66,6,65,: 10k
83,223,96,220,97,238,83,241,CHÍ
146,203,167,203,164,239,154,240,Trà
99,223,119,220,120,241,100,245,THỊT
79,215,129,180,137,242,104,250,TIN
185,19,204,26,204,54,185,48,A
78,221,91,218,92,236,79,238,HN
4,22,40,23,42,67,4,67,Đ
186,26,312,25,313,86,184,85,1629
63,40,73,36,75,76,64,77,:
106,27,156,24,156,59,106,60,69
82,214,97,211,97,230,82,233,HN
162,13,199,9,201,40,163,45,R
156,98,262,85,264,180,152,197,YÊN
209,64,408,71,414,168,199,161,TOÀN
167,26,230,22,230,56,169,58,350
43,136,84,129,84,172,43,177,LT
86,207,105,204,105,225,86,227,THANH
68,229,87,226,88,245,68,248,H
261,38,273,38,273,50,261,50,-
388,4,411,1,412,17,391,20,XI
254,41,266,41,266,68,254,67,G
342,112,400,116,401,168,341,164,-
224,18,265,14,266,43,225,46,TRẠM
76,209,94,205,95,226,76,229,1973
55,215,71,213,71,233,56,236,NAM
136,157,154,154,155,180,137,182,E
84,228,103,225,103,245,85,248,THANG
182,38,232,32,233,66,182,71,376
143,172,151,172,152,196,142,196,Chè
142,168,159,167,160,220,145,222,:
125,187,125,187,142,250,142,250,T
4,1,26,2,25,20,4,21,R
39,149,67,147,67,182,39,182,-
59,23,70,22,71,56,60,58,-
239,29,267,31,267,55,240,54,P.0
18,57,62,44,66,74,21,86,ĐT:
205,87,222,86,221,107,205,107,-
29,15,98,9,99,37,33,42,TÒA
