391,71,611,71,611,191,391,191,Phố
17,63,358,63,358,247,17,247,Bụi
22,33,368,42,354,242,5,230,Bụi
383,78,605,74,605,185,382,186,Phố
12,66,149,60,152,213,12,215,B
176,47,356,55,357,238,175,242,vi
62,89,102,90,103,131,62,130,-
157,46,572,12,577,171,137,189,ĐIPK
63,102,105,103,106,179,62,177,:
459,48,477,47,476,77,458,77,-
340,29,582,23,582,63,335,75,0UR
262,61,356,58,358,210,262,212,TỈ
502,49,520,48,519,70,502,71,-
162,43,182,43,183,68,161,68,-
316,38,591,31,600,157,308,164,TM
299,33,477,36,475,70,293,72,muyes
63,147,110,147,110,183,62,183,-o
26,128,203,122,211,241,28,242,D
283,47,300,47,299,70,283,70,-
315,69,358,67,359,205,316,206,I
165,96,285,91,286,247,167,247,N
262,49,279,49,279,62,262,62,-
31,152,130,139,137,232,36,245,!
245,47,280,47,280,65,245,65,TH
577,74,608,74,606,103,576,101,/
511,31,567,37,562,57,499,56,AO
440,50,457,50,457,65,439,64,-
505,76,605,72,604,183,504,185,Tố
285,47,311,46,311,67,285,67,!
5,62,85,60,87,198,4,200,:
0,41,123,52,126,213,0,200,8
503,48,536,47,536,73,503,73,1.
384,86,503,88,503,186,384,185,Ph
460,45,489,45,488,71,459,70,T
22,232,89,174,102,223,22,232,CHÍNH
480,52,495,52,495,65,480,64,-
69,105,100,106,100,132,67,131,-
606,74,611,74,611,89,607,90,1
506,44,595,46,593,68,502,69,Đuật
557,46,586,46,586,74,556,74,-
396,102,456,115,450,181,392,174,P
311,34,550,32,552,94,309,101,PHV
361,47,384,46,384,70,361,70,-
281,51,296,51,296,78,279,77,I
154,52,284,52,287,172,159,174,/
450,48,468,46,468,73,450,74,ngon
441,49,463,49,463,72,440,71,-
210,88,328,80,329,213,209,215,U
582,85,599,83,596,103,582,100,Tg
224,49,241,47,241,66,225,68,I
17,22,107,27,115,156,16,154,=
579,51,593,51,593,69,579,69,-
308,45,442,44,443,66,306,67,anm
285,53,304,53,304,80,285,79,7
47,26,230,0,252,144,58,184,:h
609,96,609,96,608,131,608,131,CHÍNH
468,42,494,41,494,63,468,63,TH
91,95,114,96,115,126,91,126,D
157,34,183,32,184,75,157,76,-
542,48,567,47,567,75,541,75,41
60,72,122,77,127,132,61,130,L
108,83,165,84,166,214,108,210,G
365,45,482,45,482,68,363,68,mic
606,64,611,63,611,83,608,84,/
82,60,148,58,151,202,82,200,2
260,67,450,47,455,193,262,216,fi
569,49,590,49,590,70,569,70,1
598,54,610,54,610,68,598,68,-
435,50,449,49,449,67,434,67,2H
456,51,469,51,468,82,455,82,I
275,53,290,53,289,77,274,76,p
75,127,105,126,106,154,76,155,TRƯỜNG
336,144,348,142,347,174,335,174,A
604,55,611,56,611,66,604,67,VINH
22,160,147,158,149,216,22,217,h
565,84,599,75,602,170,567,175,SƠNH
280,27,418,25,418,56,277,65,cH
315,77,345,67,347,120,319,135,VẬt
609,108,610,107,610,141,610,141,CHÍNH
203,230,218,230,217,242,201,241,9ản
589,91,597,88,596,110,590,111,NSM
416,114,437,113,437,138,416,138,-
424,47,488,45,488,67,421,68,3HI
251,107,285,104,286,133,251,134,n
0,244,7,245,3,254,3,254,CHÍNH
606,89,611,89,609,106,604,104,VIFt
369,52,382,52,380,81,366,79,O
579,50,607,50,607,69,579,69,-
304,137,355,134,354,212,301,213,R
486,50,508,49,508,71,486,70,!
243,43,265,41,266,65,243,67,-
506,52,523,52,522,79,504,78,PI
584,101,601,96,601,122,586,126,X
562,41,589,40,589,65,562,65,NƯING
196,172,249,183,247,240,197,236,ph
330,137,353,132,352,203,328,205,A
59,119,149,112,150,213,58,215,-
518,51,536,51,536,75,517,74,-
420,47,439,47,438,74,419,74,-
241,111,257,108,257,127,242,128,/
501,42,527,40,527,65,501,67,ÔI
391,71,611,71,611,191,391,191,Phố
17,63,358,63,358,247,17,247,Bụi
22,33,368,42,354,242,5,230,BỤI
383,78,605,74,605,185,382,186,Phố
12,66,149,60,152,213,12,215,B
176,47,356,55,357,238,175,242,ỤI
62,89,102,90,103,131,62,130,-
157,46,572,12,577,171,137,189,UPha
63,102,105,103,106,179,62,177,:
459,48,477,47,476,77,458,77,-
340,29,582,23,582,63,335,75,THANH
262,61,356,58,358,210,262,212,!
502,49,520,48,519,70,502,71,-
162,43,182,43,183,68,161,68,-
316,38,591,31,600,157,308,164,Phố
299,33,477,36,475,70,293,72,THANH
63,147,110,147,110,183,62,183,-
26,128,203,122,211,241,28,242,D
283,47,300,47,299,70,283,70,-
315,69,358,67,359,205,316,206,PHÁT
165,96,285,91,286,247,167,247,Ụ
262,49,279,49,279,62,262,62,-
31,152,130,139,137,232,36,245,D
245,47,280,47,280,65,245,65,*.
577,74,608,74,606,103,576,101,B
511,31,567,37,562,57,499,56,LONG
440,50,457,50,457,65,439,64,-
505,76,605,72,604,183,504,185,Ố
285,47,311,46,311,67,285,67,-
5,62,85,60,87,198,4,200,E
0,41,123,52,126,213,0,200,B
503,48,536,47,536,73,503,73,-
384,86,503,88,503,186,384,185,PH
460,45,489,45,488,71,459,70,-
22,232,89,174,102,223,22,232,-
480,52,495,52,495,65,480,64,-
69,105,100,106,100,132,67,131,-
606,74,611,74,611,89,607,90,-
506,44,595,46,593,68,502,69,THANH
557,46,586,46,586,74,556,74,.
396,102,456,115,450,181,392,174,P
311,34,550,32,552,94,309,101,CÔNG
361,47,384,46,384,70,361,70,.
281,51,296,51,296,78,279,77,-
154,52,284,52,287,172,159,174,T
450,48,468,46,468,73,450,74,-
441,49,463,49,463,72,440,71,-
210,88,328,80,329,213,209,215,JI
582,85,599,83,596,103,582,100,O
224,49,241,47,241,66,225,68,-
17,22,107,27,115,156,16,154,-
579,51,593,51,593,69,579,69,-
308,45,442,44,443,66,306,67,-
285,53,304,53,304,80,285,79,-
47,26,230,0,252,144,58,184,BƯ
609,96,609,96,608,131,608,131,THANH
468,42,494,41,494,63,468,63,9.
91,95,114,96,115,126,91,126,T
157,34,183,32,184,75,157,76,-
542,48,567,47,567,75,541,75,-
60,72,122,77,127,132,61,130,D
108,83,165,84,166,214,108,210,B
365,45,482,45,482,68,363,68,-
606,64,611,63,611,83,608,84,R
82,60,148,58,151,202,82,200,3
260,67,450,47,455,193,262,216,HP
569,49,590,49,590,70,569,70,-
598,54,610,54,610,68,598,68,-
435,50,449,49,449,67,434,67,-
456,51,469,51,468,82,455,82,-
275,53,290,53,289,77,274,76,T
75,127,105,126,106,154,76,155,E
336,144,348,142,347,174,335,174,Chúc
604,55,611,56,611,66,604,67,-
22,160,147,158,149,216,22,217,-
565,84,599,75,602,170,567,175,S
280,27,418,25,418,56,277,65,THƯƠNG
315,77,345,67,347,120,319,135,C
609,108,610,107,610,141,610,141,THUONG
203,230,218,230,217,242,201,241,-
589,91,597,88,596,110,590,111,-
416,114,437,113,437,138,416,138,.
424,47,488,45,488,67,421,68,-
251,107,285,104,286,133,251,134,R
0,244,7,245,3,254,3,254,THẤT
606,89,611,89,609,106,604,104,=
369,52,382,52,380,81,366,79,.
579,50,607,50,607,69,579,69,-
304,137,355,134,354,212,301,213,ULIS-
486,50,508,49,508,71,486,70,-
243,43,265,41,266,65,243,67,-
506,52,523,52,522,79,504,78,-
584,101,601,96,601,122,586,126,: 10k
562,41,589,40,589,65,562,65,T
196,172,249,183,247,240,197,236,C
330,137,353,132,352,203,328,205,Chúc
59,119,149,112,150,213,58,215,B
518,51,536,51,536,75,517,74,-
420,47,439,47,438,74,419,74,-
241,111,257,108,257,127,242,128,-
501,42,527,40,527,65,501,67,.
