354,37,487,37,487,62,354,62,Khai
12,28,168,28,168,59,12,59,Tưng
182,30,340,30,340,66,182,66,Bừng
500,36,716,36,716,67,500,67,Trương
15,23,166,29,167,62,15,58,Tưng
182,27,337,32,339,64,181,60,Bừng
352,30,487,33,488,63,352,62,Khai
496,27,721,35,721,67,496,65,Trương
20,6,160,9,162,50,24,48,ThNi
497,32,545,31,546,64,500,65,T
380,8,411,8,411,30,380,30,-
353,30,413,31,413,63,352,63,KT
469,35,486,35,486,63,469,64,1
413,45,634,15,648,36,426,67,OWE
190,4,341,6,344,38,195,44,/
643,41,715,43,713,65,643,64,na
266,33,337,33,338,65,266,64,ng
15,22,64,22,65,57,18,57,T
178,2,210,1,212,32,180,33,-
572,37,640,37,641,64,573,64,Lơ
563,39,714,41,715,65,564,63,ương
429,34,488,33,488,65,429,64,ei
98,29,165,29,166,63,98,61,ng
186,31,221,29,221,57,183,58,E
135,39,166,38,167,61,134,61,9
502,35,588,37,588,63,503,63,TrL
179,30,264,28,268,58,180,62,Bừ
364,11,472,4,477,42,367,50,Phẩm
365,46,478,45,478,67,366,67,Nạa
683,46,715,45,713,64,681,64,C
611,41,647,41,647,63,611,63,L
308,39,339,37,340,63,308,63,e
665,45,706,45,705,64,664,64,1C
175,4,197,9,181,42,165,34,VIFi
509,0,701,1,704,41,513,40,V
500,13,581,0,594,28,510,43,T
13,4,89,1,95,27,22,36,9
501,24,535,20,539,47,504,51,ĐI
231,31,670,0,684,39,242,67,Inhere
375,0,409,0,409,26,375,26,P
503,15,610,10,618,45,508,51,THI
644,44,669,44,670,63,644,65,r
388,35,425,35,425,62,388,62,t
204,48,327,49,327,67,205,67,THÀNG
270,20,332,19,334,55,270,56,HÒN
549,43,569,42,569,61,549,61,P
648,27,714,29,711,58,645,56,TS
480,23,532,0,548,19,492,40,PH
449,0,461,0,462,8,449,8,-
3,22,85,20,92,56,11,62,Tu
333,23,387,0,398,16,347,44,XP
652,43,692,43,692,64,652,64,n
489,0,501,0,501,10,489,10,-
433,8,490,8,494,37,433,36,AL
317,11,368,0,372,41,321,49,mH
323,35,345,34,346,63,324,64,1
540,42,560,41,559,63,540,64,M
229,30,262,29,262,59,229,59,L
252,0,267,0,267,4,253,6,x
249,4,324,1,329,38,253,41,P
406,7,465,5,468,32,407,33,L
298,24,337,23,338,67,299,66,O
31,48,152,49,152,67,32,67,CNV
466,29,487,27,488,67,464,67,A
279,5,319,4,323,29,280,30,,
0,58,11,54,7,74,4,73,AMCH
495,8,541,2,545,39,501,43,XI
23,11,78,11,79,47,25,47,+
61,28,138,29,138,59,62,58,Ln
521,7,543,4,547,36,524,39,chỉ
345,26,390,27,391,64,346,66,P
485,8,517,6,522,38,488,40,k
176,1,205,0,207,48,180,52,P
80,3,119,4,121,28,81,28,1
417,6,451,5,452,29,417,30,CHA
125,16,167,20,167,62,126,56,O
465,31,484,31,484,53,465,53,H
251,0,264,0,264,8,251,11,sên
126,31,164,29,165,52,126,52,.
285,37,327,36,327,62,285,61,TG
448,18,496,2,507,20,459,34,S/
589,41,625,40,625,62,589,62,Tc
51,58,414,0,414,0,51,58,Vifore
337,18,370,13,373,56,341,62,T
414,17,473,19,474,43,414,43,2I
135,52,165,49,166,61,136,62,P
643,59,719,53,720,67,642,67,64
89,30,119,30,119,57,89,58,rn
353,31,374,31,374,62,351,63,P
469,0,481,0,481,10,469,10,i
171,15,236,0,244,18,181,40,/
497,31,522,31,523,61,499,62,n
190,0,207,0,207,0,192,2,Vifore
241,9,443,0,443,0,254,45,Vifore
536,7,608,4,611,35,537,37,T
456,46,483,43,484,64,456,64,ĐL
268,1,283,2,283,28,268,28,L
647,13,705,14,702,48,643,47,ĐH
187,11,260,9,262,47,187,48,ĐnN
490,0,509,0,509,10,491,11,!
352,8,399,6,401,38,353,43,gite
724,0,732,0,731,7,725,8,1
245,30,318,32,319,62,245,60,Tn
304,32,335,28,338,50,306,51,NA
354,37,487,37,487,62,354,62,KHO
12,28,168,28,168,59,12,59,Tưng
182,30,340,30,340,66,182,66,Bừng
500,36,716,36,716,67,500,67,Trương
15,23,166,29,167,62,15,58,Tưng
182,27,337,32,339,64,181,60,Bừng
352,30,487,33,488,63,352,62,KHOI
496,27,721,35,721,67,496,65,Trương
20,6,160,9,162,50,24,48,TRẠM
497,32,545,31,546,64,500,65,T
380,8,411,8,411,30,380,30,SỐ
353,30,413,31,413,63,352,63,K
469,35,486,35,486,63,469,64,I
413,45,634,15,648,36,426,67,Bình
190,4,341,6,344,38,195,44,ATGT
643,41,715,43,713,65,643,64,TRO
266,33,337,33,338,65,266,64,no
15,22,64,22,65,57,18,57,T
178,2,210,1,212,32,180,33,-
572,37,640,37,641,64,573,64,LƯƠ
563,39,714,41,715,65,564,63,TLƠNG
429,34,488,33,488,65,429,64,-
98,29,165,29,166,63,98,61,no
186,31,221,29,221,57,183,58,E
135,39,166,38,167,61,134,61,-
502,35,588,37,588,63,503,63,Trl
179,30,264,28,268,58,180,62,BÙ
364,11,472,4,477,42,367,50,Canh
365,46,478,45,478,67,366,67,SALE
683,46,715,45,713,64,681,64,-
611,41,647,41,647,63,611,63,CỔ
308,39,339,37,340,63,308,63,O
665,45,706,45,705,64,664,64,BO
175,4,197,9,181,42,165,34,-
509,0,701,1,704,41,513,40,22/000.4
500,13,581,0,594,28,510,43,1237
13,4,89,1,95,27,22,36,CAO
501,24,535,20,539,47,504,51,L
231,31,670,0,684,39,242,67,Thanh
375,0,409,0,409,26,375,26,P
503,15,610,10,618,45,508,51,TAY
644,44,669,44,670,63,644,65,r
388,35,425,35,425,62,388,62,CH
204,48,327,49,327,67,205,67,THANH
270,20,332,19,334,55,270,56,LA
549,43,569,42,569,61,549,61,-
648,27,714,29,711,58,645,56,Minh
480,23,532,0,548,19,492,40,4.2
449,0,461,0,462,8,449,8,-
3,22,85,20,92,56,11,62,Tư
333,23,387,0,398,16,347,44,THỊT
652,43,692,43,692,64,652,64,TR
489,0,501,0,501,10,489,10,AI
433,8,490,8,494,37,433,36,HÌNH
317,11,368,0,372,41,321,49,ĐẠI
323,35,345,34,346,63,324,64,-
540,42,560,41,559,63,540,64,r
229,30,262,29,262,59,229,59,L
252,0,267,0,267,4,253,6,-
249,4,324,1,329,38,253,41,TP.
406,7,465,5,468,32,407,33,HONDA
298,24,337,23,338,67,299,66,G
31,48,152,49,152,67,32,67,TRÌNH
466,29,487,27,488,67,464,67,I
279,5,319,4,323,29,280,30,CR
0,58,11,54,7,74,4,73,E
495,8,541,2,545,39,501,43,12
23,11,78,11,79,47,25,47,T
61,28,138,29,138,59,62,58,ưn
521,7,543,4,547,36,524,39,F
345,26,390,27,391,64,346,66,K
485,8,517,6,522,38,488,40,A
176,1,205,0,207,48,180,52,P
80,3,119,4,121,28,81,28,1.9
417,6,451,5,452,29,417,30,TRANG
125,16,167,20,167,62,126,56,G
465,31,484,31,484,53,465,53,F
251,0,264,0,264,8,251,11,-
126,31,164,29,165,52,126,52,-
285,37,327,36,327,62,285,61,BC
448,18,496,2,507,20,459,34,NINH
589,41,625,40,625,62,589,62,sức
51,58,414,0,414,0,51,58,Labora
337,18,370,13,373,56,341,62,I
414,17,473,19,474,43,414,43,TRANG
135,52,165,49,166,61,136,62,-
643,59,719,53,720,67,642,67,-
89,30,119,30,119,57,89,58,T
353,31,374,31,374,62,351,63,-
469,0,481,0,481,10,469,10,-
171,15,236,0,244,18,181,40,CHÍ
497,31,522,31,523,61,499,62,T
190,0,207,0,207,0,192,2,-
241,9,443,0,443,0,254,45,CARE
536,7,608,4,611,35,537,37,TY
456,46,483,43,484,64,456,64,BÀ
268,1,283,2,283,28,268,28,r
647,13,705,14,702,48,643,47,-
187,11,260,9,262,47,187,48,CAO
490,0,509,0,509,10,491,11,AN
352,8,399,6,401,38,353,43,tiệt
724,0,732,0,731,7,725,8,-
245,30,318,32,319,62,245,60,CFO
304,32,335,28,338,50,306,51,An
