327,10,548,10,548,180,327,180,shop
55,78,62,78,62,86,55,86,nE
9,6,308,6,308,178,9,178,Bông
62,23,70,23,70,31,62,31,-
54,89,61,89,61,97,54,97,H
20,76,31,76,31,85,20,85,0
55,66,63,66,63,75,55,75,-
10,70,20,70,20,81,10,81,O
10,0,309,35,303,170,0,121,Bông
331,21,498,22,499,147,326,145,sho
0,0,185,10,187,139,0,126,Bô
197,49,302,50,305,176,196,170,w9
326,55,382,55,383,142,326,140,9
428,55,542,56,544,156,428,153,010
385,28,546,35,547,165,382,157,hop
276,56,309,50,312,171,276,173,H
213,43,361,26,364,168,214,170,ng
270,62,344,47,351,156,273,170,I
237,72,499,6,520,131,262,171,9Sho
499,58,541,54,543,157,500,164,O
369,13,444,9,446,142,367,143,che
80,14,185,16,188,132,78,131,3ô
342,26,407,14,409,140,342,146,g
99,161,269,98,282,150,115,180,VN
201,58,244,57,243,110,199,112,B42
262,33,399,11,402,147,268,161,19
131,21,187,21,189,132,130,131,b
154,29,196,29,196,135,156,132,O
285,57,300,57,300,119,285,118,MTAM
4,61,43,69,44,90,3,81,tro
360,1,380,2,380,26,359,26,-
351,67,382,67,383,126,350,126,Fee
388,46,489,54,489,146,385,143,no
250,81,295,70,299,163,256,169,9
0,1,132,0,135,93,0,94,C
361,65,379,64,381,102,363,102,8
249,72,266,69,266,97,247,100,S
493,24,501,24,501,38,493,38,2
541,17,548,16,547,33,539,35,S
469,58,548,39,546,157,477,168,DND
58,4,504,0,507,162,56,145,Bônakh
335,114,373,121,379,139,334,130,Q.1
147,27,175,26,175,43,147,44,A
439,75,462,71,460,93,437,96,A
271,29,372,11,375,46,276,60,tin
354,97,515,75,520,155,358,175,PHỤ
256,70,272,65,271,88,255,93,S
22,75,40,76,39,92,21,89,I
247,153,293,153,299,167,253,168,fM
203,37,295,24,295,85,204,97,mo
399,20,416,19,414,52,397,52,8
98,25,127,18,133,72,103,76,3
224,135,282,125,288,174,231,180,N.
308,30,377,25,380,81,314,86,CH
542,12,548,11,547,25,541,27,+
247,146,266,147,266,170,246,169,Q
409,20,500,19,504,81,411,91,LAY
31,16,41,9,39,28,29,33,SơCG
543,23,546,24,548,40,541,38,NI
40,167,52,166,52,178,42,176,#
150,23,168,22,170,36,151,37,AN
34,72,49,72,49,86,34,87,I
447,34,512,21,517,70,451,81,UY
19,78,31,80,31,94,18,90,#Ầ
62,0,242,5,246,97,64,98,DAn,
141,28,160,26,162,39,144,41,t
59,15,73,14,71,42,57,42,8
516,103,548,88,550,169,521,176,B
42,10,130,12,129,128,40,124,B
537,11,548,13,548,38,536,39,%
20,70,45,71,46,88,19,85,n
25,128,219,108,232,180,30,180,SÝ
146,28,172,27,171,53,142,54,A
35,14,35,14,33,29,26,34,THUẾ
507,38,542,45,540,72,506,65,GÀNG
272,46,356,25,361,99,279,118,1
13,82,32,85,31,98,11,93,Bằm
455,83,483,74,484,134,455,143,/
361,12,379,10,380,32,361,32,-
50,1,73,2,73,18,50,18,CỢ
81,72,104,71,105,86,82,87,G
31,74,46,76,47,93,31,92,9
78,9,155,8,160,85,81,89,)A
255,129,391,67,396,144,268,180,3ố
24,27,33,21,32,37,22,41,O
403,45,413,43,408,62,397,63,-
139,11,177,12,178,44,140,45,A
242,138,262,137,263,156,243,157,KH
334,93,366,92,369,127,333,132,&ép
543,94,548,94,547,113,544,115,ZE
301,76,319,66,320,105,301,109,C
9,107,86,75,100,127,21,155,NỘ
260,142,302,140,304,161,263,163,SA
292,56,307,56,307,75,292,75,9
59,30,73,28,69,51,54,52,8
24,79,35,79,36,96,23,94,VÀ
245,144,265,144,265,159,245,160,c
5,60,28,67,27,81,3,75,+.
497,58,517,58,517,86,496,87,8
338,45,374,49,376,82,337,79,An
155,73,184,68,185,121,155,126,SA
208,77,229,77,227,103,206,104,5
477,63,491,63,493,88,478,87,NHỚ
6,34,33,30,39,112,7,112,mItn
543,74,547,76,548,91,543,88,AV
401,53,412,52,407,70,394,71,-
33,22,41,17,38,35,31,37,MININ
523,70,548,65,547,132,525,144,M
327,10,548,10,548,180,327,180,shop
55,78,62,78,62,86,55,86,-
9,6,308,6,308,178,9,178,Bông
62,23,70,23,70,31,62,31,-
54,89,61,89,61,97,54,97,-
20,76,31,76,31,85,20,85,E
55,66,63,66,63,75,55,75,-
10,70,20,70,20,81,10,81,-
10,0,309,35,303,170,0,121,Bông
331,21,498,22,499,147,326,145,sho
0,0,185,10,187,139,0,126,Bồ
197,49,302,50,305,176,196,170,ng
326,55,382,55,383,142,326,140,S
428,55,542,56,544,156,428,153,of
385,28,546,35,547,165,382,157,hop
276,56,309,50,312,171,276,173,3
213,43,361,26,364,168,214,170,ngày
270,62,344,47,351,156,273,170,3
237,72,499,6,520,131,262,171,gshop
499,58,541,54,543,157,500,164,P
369,13,444,9,446,142,367,143,the
80,14,185,16,188,132,78,131,Bô
342,26,407,14,409,140,342,146,sl
99,161,269,98,282,150,115,180,ĐOÀN
201,58,244,57,243,110,199,112,An
262,33,399,11,402,147,268,161,SỞ
131,21,187,21,189,132,130,131,Ô
154,29,196,29,196,135,156,132,B
285,57,300,57,300,119,285,118,Chúc
4,61,43,69,44,90,3,81,AN
360,1,380,2,380,26,359,26,5
351,67,382,67,383,126,350,126,C
388,46,489,54,489,146,385,143,ho
250,81,295,70,299,163,256,169,C
0,1,132,0,135,93,0,94,O
361,65,379,64,381,102,363,102,A
249,72,266,69,266,97,247,100,-
493,24,501,24,501,38,493,38,-
541,17,548,16,547,33,539,35,E
469,58,548,39,546,157,477,168,of
58,4,504,0,507,162,56,145,Bôngh!
335,114,373,121,379,139,334,130,Q.3
147,27,175,26,175,43,147,44,A
439,75,462,71,460,93,437,96,A
271,29,372,11,375,46,276,60,CAO
354,97,515,75,520,155,358,175,snor
256,70,272,65,271,88,255,93,-
22,75,40,76,39,92,21,89,CH
247,153,293,153,299,167,253,168,QUANG
203,37,295,24,295,85,204,97,nay
399,20,416,19,414,52,397,52,8
98,25,127,18,133,72,103,76,!
224,135,282,125,288,174,231,180,L
308,30,377,25,380,81,314,86,-
542,12,548,11,547,25,541,27,E
247,146,266,147,266,170,246,169,c
409,20,500,19,504,81,411,91,LAI
31,16,41,9,39,28,29,33,NAM
543,23,546,24,548,40,541,38,-
40,167,52,166,52,178,42,176,-
150,23,168,22,170,36,151,37,AN
34,72,49,72,49,86,34,87,ED
447,34,512,21,517,70,451,81,A
19,78,31,80,31,94,18,90,/
62,0,242,5,246,97,64,98,Dam
141,28,160,26,162,39,144,41,SA
59,15,73,14,71,42,57,42,8
516,103,548,88,550,169,521,176,.
42,10,130,12,129,128,40,124,B
537,11,548,13,548,38,536,39,E
20,70,45,71,46,88,19,85,tin
25,128,219,108,232,180,30,180,THANH
146,28,172,27,171,53,142,54,R
35,14,35,14,33,29,26,34,VIFON
507,38,542,45,540,72,506,65,Trọng
272,46,356,25,361,99,279,118,10
13,82,32,85,31,98,11,93,Thành
455,83,483,74,484,134,455,143,O
361,12,379,10,380,32,361,32,P
50,1,73,2,73,18,50,18,C
81,72,104,71,105,86,82,87,Chè
31,74,46,76,47,93,31,92,E
78,9,155,8,160,85,81,89,D4
255,129,391,67,396,144,268,180,gis
24,27,33,21,32,37,22,41,E
403,45,413,43,408,62,397,63,-
139,11,177,12,178,44,140,45,A
242,138,262,137,263,156,243,157,-
334,93,366,92,369,127,333,132,S
543,94,548,94,547,113,544,115,:
301,76,319,66,320,105,301,109,HAI
9,107,86,75,100,127,21,155,T
260,142,302,140,304,161,263,163,ĐT:
292,56,307,56,307,75,292,75,-
59,30,73,28,69,51,54,52,B
24,79,35,79,36,96,23,94,I
245,144,265,144,265,159,245,160,A
5,60,28,67,27,81,3,75,+
497,58,517,58,517,86,496,87,B
338,45,374,49,376,82,337,79,A
155,73,184,68,185,121,155,126,D
208,77,229,77,227,103,206,104,HAI
477,63,491,63,493,88,478,87,A
6,34,33,30,39,112,7,112,I
543,74,547,76,548,91,543,88,1
401,53,412,52,407,70,394,71,8
33,22,41,17,38,35,31,37,E
523,70,548,65,547,132,525,144,8
