71,34,209,34,209,104,71,104,82.
2,20,72,30,78,92,4,80,B1,
80,34,151,45,156,102,83,90,B2
1,12,194,36,193,108,0,82,B1.82.8
81,27,209,45,208,111,76,88,B2C
159,43,244,48,250,116,172,108,c...
162,52,198,51,207,107,170,106,G
1,25,47,28,50,80,2,78,B
91,75,117,76,118,90,93,87,L
177,63,196,62,200,92,181,92,-
144,34,202,41,212,114,147,106,C
152,82,164,83,164,105,152,105,ụ
5,54,37,55,42,80,7,79,D
10,26,121,36,125,98,12,86,81,
12,65,38,67,39,78,13,74,LC
52,10,141,20,145,92,55,87,.82
3,26,25,29,26,47,3,45,P
105,42,150,43,152,95,105,93,12
127,46,154,45,156,101,126,99,2
155,26,191,19,199,85,164,92,Nr
43,30,73,27,77,91,44,91,1
161,57,170,54,171,62,162,63,BA
67,68,78,69,79,92,67,91,-
199,51,261,23,266,100,224,120,QUN
16,37,27,37,31,68,18,69,:
8,69,36,66,42,86,10,88,m
10,46,53,47,57,90,12,84,D
87,47,108,48,112,80,89,80,L
83,37,102,43,103,53,83,48,Rì
81,37,116,39,119,90,82,89,B
205,89,243,92,246,112,205,110,y.ng
163,55,172,52,173,59,164,62,Hà
133,108,207,91,224,124,139,132,UYNG
117,46,125,44,125,52,117,53,V
110,51,195,56,202,117,112,108,2,C
67,70,78,70,78,81,67,81,2
95,15,181,12,186,78,102,81,%
3,21,20,26,21,37,3,34,-
32,74,44,74,44,81,31,81,VIETIAN
149,71,169,70,171,110,148,110,/
92,81,114,83,115,98,92,94,-
86,55,126,55,128,97,87,94,H
36,54,100,58,103,99,38,95,U
88,41,102,44,104,64,89,62,A
94,47,103,47,105,64,96,64,1
184,69,246,87,248,125,187,110,Bq-
167,54,175,53,175,60,168,61,20
161,59,170,58,170,66,161,66,R
4,40,30,40,32,71,5,71,+
166,50,189,56,192,69,166,63,A
187,99,197,99,197,105,187,104,Lien
144,79,161,79,161,102,144,103,-
121,44,127,44,127,52,121,52,VI
54,66,77,68,78,90,53,88,Uy
164,56,174,55,174,63,164,64,/
80,40,86,37,87,46,80,48,BẢn
89,77,104,76,105,88,90,88,I
0,60,30,52,37,89,3,95,!
252,0,261,0,260,5,253,5,GH
152,83,162,83,163,92,152,93,Z
79,36,97,40,97,49,78,45,r
184,83,229,74,244,126,199,133,OOP-
223,94,244,95,245,111,224,110,Kn
0,135,4,135,5,141,0,141,sữa
173,89,198,91,199,103,174,99,Nri
176,95,240,99,244,131,180,126,Cha
15,57,33,58,36,75,16,73,D
172,69,199,70,203,119,175,114,Hnh
185,97,194,98,194,104,185,102,Đưsn
18,63,70,59,74,92,19,93,D
123,44,129,45,130,52,123,51,VI
29,67,147,54,156,99,35,101,1182
69,84,81,83,82,93,68,92,H
42,28,56,30,56,43,42,42,k
97,68,110,68,112,87,98,85,1
0,140,2,141,1,141,0,142,Trương
39,34,50,33,51,41,40,41,V
248,1,257,2,256,9,248,6,TH
58,31,108,34,110,89,58,85,,,
68,75,79,74,80,100,68,100,p
66,66,79,66,80,100,66,96,-
233,97,244,97,244,110,233,109,:
172,54,176,54,177,61,173,60,mi
148,48,193,48,194,102,148,102,f
81,39,88,37,89,46,82,47,0
32,78,44,76,44,83,32,84,đom
70,73,81,73,81,88,70,88,)
163,61,170,60,170,69,163,70,RAV
158,59,167,55,168,63,159,64,KH
49,28,65,26,68,78,50,78,,
89,81,109,81,110,93,90,93,-
166,30,209,10,215,55,179,75,TIỀN
182,96,191,97,191,103,181,100,THc
17,70,38,70,40,82,18,78,il
147,67,219,72,225,118,150,115,ĐỒ,
47,33,54,33,54,41,47,41,-
152,74,161,76,162,98,153,97,-V
253,137,261,137,261,141,253,140,lướng
4,24,11,24,12,33,4,33,-
10,23,30,31,30,40,10,32,VIS
164,136,217,106,226,123,164,136,Trương
71,34,209,34,209,104,71,104,82.0
2,20,72,30,78,92,4,80,B1,
80,34,151,45,156,102,83,90,B2
1,12,194,36,193,108,0,82,Đ1.62,
81,27,209,45,208,111,76,88,B2.0
159,43,244,48,250,116,172,108,C.
162,52,198,51,207,107,170,106,C
1,25,47,28,50,80,2,78,BI
91,75,117,76,118,90,93,87,TY
177,63,196,62,200,92,181,92,H
144,34,202,41,212,114,147,106,.0,
152,82,164,83,164,105,152,105,,
5,54,37,55,42,80,7,79,O
10,26,121,36,125,98,12,86,81,8
12,65,38,67,39,78,13,74,TAY
52,10,141,20,145,92,55,87,LB2
3,26,25,29,26,47,3,45,AN
105,42,150,43,152,95,105,93,2
127,46,154,45,156,101,126,99,2
155,26,191,19,199,85,164,92,C
43,30,73,27,77,91,44,91,A,
161,57,170,54,171,62,162,63,-
67,68,78,69,79,92,67,91,.
199,51,261,23,266,100,224,120,29B
16,37,27,37,31,68,18,69,:
8,69,36,66,42,86,10,88,-
10,46,53,47,57,90,12,84,ĐẠI
87,47,108,48,112,80,89,80,P
83,37,102,43,103,53,83,48,-
81,37,116,39,119,90,82,89,B
205,89,243,92,246,112,205,110,TIÊN
163,55,172,52,173,59,164,62,-
133,108,207,91,224,124,139,132,THANH
117,46,125,44,125,52,117,53,-
110,51,195,56,202,117,112,108,2,C
67,70,78,70,78,81,67,81,-
95,15,181,12,186,78,102,81,5,
3,21,20,26,21,37,3,34,-
32,74,44,74,44,81,31,81,-
149,71,169,70,171,110,148,110,,
92,81,114,83,115,98,92,94,-
86,55,126,55,128,97,87,94,B
36,54,100,58,103,99,38,95,Đ,
88,41,102,44,104,64,89,62,-
94,47,103,47,105,64,96,64,-
184,69,246,87,248,125,187,110,6,0m
167,54,175,53,175,60,168,61,-
161,59,170,58,170,66,161,66,E
4,40,30,40,32,71,5,71,C
166,50,189,56,192,69,166,63,3
187,99,197,99,197,105,187,104,-
144,79,161,79,161,102,144,103,Cy
121,44,127,44,127,52,121,52,-
54,66,77,68,78,90,53,88,A,
164,56,174,55,174,63,164,64,+
80,40,86,37,87,46,80,48,-
89,77,104,76,105,88,90,88,-
0,60,30,52,37,89,3,95,0
252,0,261,0,260,5,253,5,CHO
152,83,162,83,163,92,152,93,-
79,36,97,40,97,49,78,45,-
184,83,229,74,244,126,199,133,Đại
223,94,244,95,245,111,224,110,-
0,135,4,135,5,141,0,141,THUONG
173,89,198,91,199,103,174,99,-
176,95,240,99,244,131,180,126,TRẦN
15,57,33,58,36,75,16,73,I
172,69,199,70,203,119,175,114,G
185,97,194,98,194,104,185,102,-
18,63,70,59,74,92,19,93,C
123,44,129,45,130,52,123,51,-
29,67,147,54,156,99,35,101,1,B2
69,84,81,83,82,93,68,92,L
42,28,56,30,56,43,42,42,n
97,68,110,68,112,87,98,85,1
0,140,2,141,1,141,0,142,THẤT
39,34,50,33,51,41,40,41,-
248,1,257,2,256,9,248,6,A
58,31,108,34,110,89,58,85,LB
68,75,79,74,80,100,68,100,T
66,66,79,66,80,100,66,96,,
233,97,244,97,244,110,233,109,E
172,54,176,54,177,61,173,60,-
148,48,193,48,194,102,148,102,.C
81,39,88,37,89,46,82,47,-
32,78,44,76,44,83,32,84,-
70,73,81,73,81,88,70,88,5
163,61,170,60,170,69,163,70,Chúc
158,59,167,55,168,63,159,64,E
49,28,65,26,68,78,50,78,Z
89,81,109,81,110,93,90,93,-
166,30,209,10,215,55,179,75,Chè
182,96,191,97,191,103,181,100,-
17,70,38,70,40,82,18,78,-
147,67,219,72,225,118,150,115,16,
47,33,54,33,54,41,47,41,-
152,74,161,76,162,98,153,97,-
253,137,261,137,261,141,253,140,THẤT
4,24,11,24,12,33,4,33,-
10,23,30,31,30,40,10,32,-
164,136,217,106,226,123,164,136,THẤT
