28,124,101,126,101,158,27,156,BÁNH
15,24,107,18,107,114,15,120,Sco
7,33,66,33,66,122,6,123,ĐC
86,132,98,131,98,159,85,159,)
61,50,105,51,100,108,57,107,Đó
19,6,121,0,123,61,19,69,PUỐC
25,65,102,60,101,119,24,123,TGy
63,129,98,130,98,158,62,157,NH
0,30,73,23,74,101,0,99,Ngêt
52,5,110,0,110,99,54,103,chan
31,126,62,125,63,155,31,155,BÁ
110,1,121,1,121,32,109,33,-
55,29,157,0,157,93,46,118,CH
86,134,94,134,94,149,86,150,!
23,39,74,34,74,98,23,100,NHE
49,126,80,127,80,157,49,156,ĂN
35,34,100,31,102,91,35,93,SEM
69,8,121,1,120,70,69,75,Hong
28,120,80,118,81,146,28,149,RẦN
31,132,44,132,44,156,31,155,B
18,64,34,63,34,119,16,122,C
49,76,102,72,100,109,49,113,uy
7,73,38,68,39,129,8,132,+
76,131,85,131,85,141,76,141,2
86,131,96,131,96,143,86,143,n
0,46,39,43,41,110,0,104,Mo
25,9,79,4,79,51,25,57,Wừlc
69,80,94,80,94,98,69,98,hJU
63,129,80,130,80,157,63,157,N
55,29,70,28,71,54,56,56,3
66,29,107,28,108,85,66,87,H
13,115,28,116,27,158,12,155,/S
1,52,14,52,15,60,1,60,lNG
0,89,31,84,33,112,4,118,H
0,13,64,15,66,90,0,85,ĐE
87,138,95,137,95,155,87,156,/
81,9,119,0,120,34,83,48,T
57,41,71,41,72,56,57,56,-
61,117,79,119,79,137,62,134,AÂ.
0,134,33,121,38,152,0,160,VNH
57,49,74,49,75,76,58,78,-
15,35,61,30,61,77,15,82,ri
70,131,78,132,78,139,71,139,lư
57,26,77,22,78,48,57,52,TI
66,134,78,133,78,150,66,150,N
81,132,93,132,93,144,81,145,/
44,56,59,52,60,80,46,83,X
53,9,77,8,77,59,53,62,C#I
69,56,103,53,104,81,71,81,C
68,133,77,132,77,142,68,143,/
84,64,157,63,156,132,80,127,PHA
77,133,84,133,84,146,77,146,D
74,130,82,130,82,139,74,139,3
47,24,82,20,85,80,47,82,IH
80,138,92,137,92,151,80,152,G
17,134,33,129,33,156,17,157,THỆP
50,8,72,5,72,30,51,32,M
16,74,66,71,67,125,16,128,P
29,52,51,51,51,81,29,82,I
5,109,28,107,30,151,6,150,t
1,59,14,58,14,74,2,75,39
36,54,43,53,43,69,36,70,Iên
28,140,45,139,45,158,28,158,t
89,132,101,132,101,143,89,143,n
2,54,15,54,16,64,2,64,P
39,95,96,91,96,108,41,113,C
86,144,98,143,98,160,86,160,L
76,83,87,83,88,96,76,96,/
79,128,101,129,100,160,78,157,G
51,126,62,127,62,135,51,135,3
45,129,66,128,67,157,45,157,Á
52,9,96,0,97,49,53,57,C*F
5,124,75,123,77,155,5,156,NBÂN
107,157,157,120,157,174,107,157,CẦU
0,160,3,160,2,164,1,164,kEM
83,83,91,82,90,94,83,95,q
18,83,33,82,34,113,18,116,H
25,79,86,81,87,112,25,113,Tày
90,14,101,14,101,23,89,23,Nướn
35,50,46,48,46,76,34,77,I
79,134,89,134,89,147,79,148,T.
56,38,70,38,70,69,57,69,via
53,115,86,105,88,121,56,127,C
56,115,74,116,75,131,56,131,THƯN
25,88,92,74,92,156,24,162,húc
36,162,51,162,51,162,36,162,CẦU
60,130,69,130,69,138,60,138,V
94,2,119,1,119,27,95,28,Th
17,58,22,58,21,72,16,72,MIỆN
20,136,66,131,67,156,20,161,BA
39,66,59,64,61,85,40,86,Ph
71,133,80,133,80,145,71,146,/
78,75,97,74,95,96,78,96,//
65,52,72,53,72,76,66,77,1103
35,156,93,152,93,162,35,162,Xể
70,66,102,67,100,95,70,95,LH
43,162,58,162,58,162,43,162,CẦU
111,3,120,3,120,16,111,17,-
109,7,123,5,123,38,108,41,E
28,124,101,126,101,158,27,156,BÁNH
15,24,107,18,107,114,15,120,C
7,33,66,33,66,122,6,123,2
86,132,98,131,98,159,85,159,H
61,50,105,51,100,108,57,107,30
19,6,121,0,123,61,19,69,ATGT
25,65,102,60,101,119,24,123,CGV
63,129,98,130,98,158,62,157,NH
0,30,73,23,74,101,0,99,Chúc
52,5,110,0,110,99,54,103,R
31,126,62,125,63,155,31,155,BÀ
110,1,121,1,121,32,109,33,-
55,29,157,0,157,93,46,118,PHẦN
86,134,94,134,94,149,86,150,LA
23,39,74,34,74,98,23,100,R
49,126,80,127,80,157,49,156,ẦN
35,34,100,31,102,91,35,93,hai
69,8,121,1,120,70,69,75,5
28,120,80,118,81,146,28,149,BÁN
31,132,44,132,44,156,31,155,B
18,64,34,63,34,119,16,122,a
49,76,102,72,100,109,49,113,Sân
7,73,38,68,39,129,8,132,:
76,131,85,131,85,141,76,141,Chúc
86,131,96,131,96,143,86,143,T
0,46,39,43,41,110,0,104,PHÁT
25,9,79,4,79,51,25,57,PERSO
69,80,94,80,94,98,69,98,4G
63,129,80,130,80,157,63,157,N
55,29,70,28,71,54,56,56,F
66,29,107,28,108,85,66,87,R
13,115,28,116,27,158,12,155,T
1,52,14,52,15,60,1,60,-
0,89,31,84,33,112,4,118,A
0,13,64,15,66,90,0,85,8
87,138,95,137,95,155,87,156,H
81,9,119,0,120,34,83,48,C
57,41,71,41,72,56,57,56,-
61,117,79,119,79,137,62,134,a
0,134,33,121,38,152,0,160,T
57,49,74,49,75,76,58,78,:
15,35,61,30,61,77,15,82,2
70,131,78,132,78,139,71,139,CỔ
57,26,77,22,78,48,57,52,Chúc
66,134,78,133,78,150,66,150,N
81,132,93,132,93,144,81,145,TƯ
44,56,59,52,60,80,46,83,ĐI
53,9,77,8,77,59,53,62,Chè
69,56,103,53,104,81,71,81,CĐ
68,133,77,132,77,142,68,143,T
84,64,157,63,156,132,80,127,-
77,133,84,133,84,146,77,146,T
74,130,82,130,82,139,74,139,1
47,24,82,20,85,80,47,82,-
80,138,92,137,92,151,80,152,E
17,134,33,129,33,156,17,157,T
50,8,72,5,72,30,51,32,Từ
16,74,66,71,67,125,16,128,N
29,52,51,51,51,81,29,82,R
5,109,28,107,30,151,6,150,-
1,59,14,58,14,74,2,75,10
36,54,43,53,43,69,36,70,-
28,140,45,139,45,158,28,158,B
89,132,101,132,101,143,89,143,TY
2,54,15,54,16,64,2,64,-
39,95,96,91,96,108,41,113,VAN
86,144,98,143,98,160,86,160,1
76,83,87,83,88,96,76,96,4
79,128,101,129,100,160,78,157,H
51,126,62,127,62,135,51,135,AN
45,129,66,128,67,157,45,157,Á
52,9,96,0,97,49,53,57,H
5,124,75,123,77,155,5,156,TBÂN
107,157,157,120,157,174,107,157,ĐẠI
0,160,3,160,2,164,1,164,Chúc
83,83,91,82,90,94,83,95,-
18,83,33,82,34,113,18,116,Ba
25,79,86,81,87,112,25,113,NAM
90,14,101,14,101,23,89,23,-
35,50,46,48,46,76,34,77,đá
79,134,89,134,89,147,79,148,E
56,38,70,38,70,69,57,69,ám
53,115,86,105,88,121,56,127,Trang
56,115,74,116,75,131,56,131,R
25,88,92,74,92,156,24,162,ANDREWS
60,130,69,130,69,138,60,138,-
94,2,119,1,119,27,95,28,F
17,58,22,58,21,72,16,72,T
20,136,66,131,67,156,20,161,BA
39,66,59,64,61,85,40,86,)
71,133,80,133,80,145,71,146,T
78,75,97,74,95,96,78,96,Ư
65,52,72,53,72,76,66,77,2
35,156,93,152,93,162,35,162,TRẦNG
70,66,102,67,100,95,70,95,LAI
111,3,120,3,120,16,111,17,-
109,7,123,5,123,38,108,41,C
