77,73,254,73,254,221,77,221,TEA
72,64,247,70,251,224,73,216,TEA
96,29,442,0,414,213,75,209,TEITT
18,123,58,122,58,163,17,163,.
74,69,187,68,188,181,76,184,TE
293,4,414,11,412,212,292,211,NHINH
356,20,406,15,402,200,355,207,T
0,64,136,67,140,208,0,205,-1
17,117,56,114,57,144,18,146,-
179,12,316,0,321,182,183,194,1
153,89,246,82,249,206,153,208,AA
8,116,63,116,63,179,8,178,-
10,81,64,77,66,165,12,164,-
75,92,145,90,147,213,77,214,T
157,117,182,119,181,178,156,174,-
0,80,73,84,76,199,0,197,-
85,73,120,73,120,93,85,91,M
23,132,49,130,49,158,22,159,Y
20,137,57,135,58,177,20,175,-VNG
196,76,234,77,235,100,196,100,-
145,35,278,18,280,201,147,211,EA
16,78,109,66,111,162,17,168,-
89,193,120,192,121,227,89,224,-
204,29,410,27,412,233,202,230,NHT
130,129,262,130,258,239,123,232,CA
135,68,214,71,213,166,134,164,C
209,74,244,70,246,195,209,195,n
39,104,60,99,61,139,39,142,Lâô
152,82,196,77,197,194,152,197,:
28,127,56,124,56,137,29,138,A
100,88,114,88,115,108,101,108,VIETTEL
84,114,190,111,190,216,83,216,EE
32,129,56,128,56,155,32,155,V
18,103,58,96,59,133,20,136,THẦN
90,16,259,11,253,167,76,159,REn
73,69,122,70,124,178,75,178,1
193,73,243,71,244,147,194,148,LI
210,87,219,86,220,110,210,110,VIETTEL
85,77,126,76,127,108,87,109,L
41,102,76,93,77,131,42,138,1à
156,104,183,104,183,152,156,154,E
106,24,246,8,252,80,113,98,X1
87,181,116,181,118,215,87,215,PY
35,116,60,111,61,153,35,155,-
12,112,112,101,116,192,12,194,-
0,135,39,123,41,160,0,168,ĐA
25,146,192,120,198,217,27,241,ĐE
93,199,117,199,117,216,91,215,Xy
205,90,216,89,217,110,205,111,VIETTEL
79,79,132,79,132,137,81,138,/
65,21,81,21,81,37,65,37,LVNH
326,148,392,104,402,251,352,241,THI
195,65,232,68,233,95,194,91,m2
242,4,274,3,274,74,242,77,I
95,85,111,86,111,103,95,102,HINH
371,55,412,52,409,128,369,134,%
76,66,113,69,114,91,76,87,mà
193,104,252,100,252,218,189,217,A
78,102,102,102,102,151,79,152,-
59,44,76,43,76,57,59,58,THING
7,14,29,13,29,30,7,31,AN
60,22,75,22,75,36,60,36,THƯNG
86,182,97,183,97,197,85,194,.0
359,65,379,63,379,90,359,92,VN
155,77,183,79,184,135,154,133,-
124,65,182,63,184,113,125,115,I
199,92,212,89,212,107,199,108,R
200,88,212,86,212,99,200,100,RƯỜNG
247,3,325,4,326,86,247,85,mET
46,42,64,41,64,55,46,56,HAN
66,28,80,27,80,43,66,43,R
44,127,56,127,56,153,44,152,oo
61,34,176,33,181,144,65,150,P-
11,129,58,116,63,217,10,232,S
77,83,89,82,89,97,76,97,THBẾN
197,11,291,0,296,122,202,130,T
155,21,174,20,174,37,155,37,ngn
7,21,29,20,29,36,7,37,cAng
227,76,242,77,242,93,226,93,đ
161,35,181,33,181,49,161,50,LANG
238,0,383,6,382,156,237,152,Ming
125,21,144,20,144,36,125,37,HAN
100,159,241,163,245,231,101,229,4
181,86,315,87,314,232,184,224,AE
60,29,74,27,74,43,60,43,R
45,110,88,103,90,144,46,150,TỜN
390,15,408,14,408,34,390,34,9
212,86,223,86,223,105,212,104,VIETTEL
140,21,159,21,158,36,139,37,R
465,238,481,235,481,241,466,241,mên
47,122,62,122,63,141,47,142,1
134,190,178,192,179,218,133,216,Y
50,38,67,36,68,50,50,51,tầng
70,23,89,22,89,39,71,40,Trọn
319,44,455,0,468,168,314,211,Trăinh
81,31,100,29,100,45,81,45,R
136,99,190,99,191,211,134,210,E
62,34,76,32,76,46,63,47,R
229,8,245,11,246,24,229,20,HEn:
42,38,59,37,59,51,43,51,R
307,155,351,151,351,236,306,235,ONG
77,73,254,73,254,221,77,221,TEA
72,64,247,70,251,224,73,216,TEA
96,29,442,0,414,213,75,209,TEAL:
18,123,58,122,58,163,17,163,-
74,69,187,68,188,181,76,184,TE
293,4,414,11,412,212,292,211,LA
356,20,406,15,402,200,355,207,TRƯNG
0,64,136,67,140,208,0,205,-T
17,117,56,114,57,144,18,146,-
179,12,316,0,321,182,183,194,A
153,89,246,82,249,206,153,208,EA
8,116,63,116,63,179,8,178,-
10,81,64,77,66,165,12,164,-
75,92,145,90,147,213,77,214,T
157,117,182,119,181,178,156,174,-
0,80,73,84,76,199,0,197,-
85,73,120,73,120,93,85,91,-
23,132,49,130,49,158,22,159,-
20,137,57,135,58,177,20,175,-
196,76,234,77,235,100,196,100,-
145,35,278,18,280,201,147,211,ĐẠI
16,78,109,66,111,162,17,168,.1
89,193,120,192,121,227,89,224,-
204,29,410,27,412,233,202,230,AN
130,129,262,130,258,239,123,232,EA
135,68,214,71,213,166,134,164,E
209,74,244,70,246,195,209,195,A
39,104,60,99,61,139,39,142,-
152,82,196,77,197,194,152,197,E
28,127,56,124,56,137,29,138,-
100,88,114,88,115,108,101,108,: 10k
84,114,190,111,190,216,83,216,TE
32,129,56,128,56,155,32,155,-
18,103,58,96,59,133,20,136,R
90,16,259,11,253,167,76,159,TEA
73,69,122,70,124,178,75,178,T
193,73,243,71,244,147,194,148,-
210,87,219,86,220,110,210,110,Trà
85,77,126,76,127,108,87,109,R
41,102,76,93,77,131,42,138,:
156,104,183,104,183,152,156,154,-
106,24,246,8,252,80,113,98,ĐỘNG
87,181,116,181,118,215,87,215,-
35,116,60,111,61,153,35,155,-
12,112,112,101,116,192,12,194,-
0,135,39,123,41,160,0,168,I
25,146,192,120,198,217,27,241,TIE
93,199,117,199,117,216,91,215,-
205,90,216,89,217,110,205,111,: 10k
79,79,132,79,132,137,81,138,T
65,21,81,21,81,37,65,37,Chúc
326,148,392,104,402,251,352,241,L
195,65,232,68,233,95,194,91,-
242,4,274,3,274,74,242,77,L
95,85,111,86,111,103,95,102,: 8k
371,55,412,52,409,128,369,134,TY
76,66,113,69,114,91,76,87,-
193,104,252,100,252,218,189,217,A
78,102,102,102,102,151,79,152,1
59,44,76,43,76,57,59,58,Chúc
7,14,29,13,29,30,7,31,Chúc
60,22,75,22,75,36,60,36,Chúc
86,182,97,183,97,197,85,194,-
359,65,379,63,379,90,359,92,B
155,77,183,79,184,135,154,133,-
124,65,182,63,184,113,125,115,-
199,92,212,89,212,107,199,108,-
200,88,212,86,212,99,200,100,A
247,3,325,4,326,86,247,85,I
46,42,64,41,64,55,46,56,Chúc
66,28,80,27,80,43,66,43,THUONG
44,127,56,127,56,153,44,152,-
61,34,176,33,181,144,65,150,TE
11,129,58,116,63,217,10,232,:
77,83,89,82,89,97,76,97,-
197,11,291,0,296,122,202,130,A
155,21,174,20,174,37,155,37,Chúc
7,21,29,20,29,36,7,37,Chúc
227,76,242,77,242,93,226,93,-
161,35,181,33,181,49,161,50,Chúc
238,0,383,6,382,156,237,152,T
125,21,144,20,144,36,125,37,Chúc
100,159,241,163,245,231,101,229,LEA
181,86,315,87,314,232,184,224,A
60,29,74,27,74,43,60,43,THUONG
45,110,88,103,90,144,46,150,: 10k
390,15,408,14,408,34,390,34,4
212,86,223,86,223,105,212,104,: 10k
140,21,159,21,158,36,139,37,Chúc
465,238,481,235,481,241,466,241,NAM
47,122,62,122,63,141,47,142,-
134,190,178,192,179,218,133,216,NHA
50,38,67,36,68,50,50,51,Chúc
70,23,89,22,89,39,71,40,Chúc
319,44,455,0,468,168,314,211,T
81,31,100,29,100,45,81,45,Chúc
136,99,190,99,191,211,134,210,E
62,34,76,32,76,46,63,47,THUONG
229,8,245,11,246,24,229,20,E
42,38,59,37,59,51,43,51,THAN
307,155,351,151,351,236,306,235,Chanh
