33,48,232,48,232,123,33,123,THE
715,15,1088,15,1088,104,715,104,eQUCH
543,29,679,29,679,111,543,111,GIỆ
257,36,535,36,535,121,257,121,ORAN
710,28,1092,20,1096,98,711,104,QQUCH
32,48,227,49,228,124,32,124,THE
251,40,677,36,682,117,252,118,ORANGE
621,30,676,29,677,117,621,119,C
260,46,394,45,396,121,261,121,OR
475,38,538,35,539,107,475,110,N
404,36,464,36,469,117,401,119,A
341,46,392,44,393,113,341,115,R
1016,18,1079,12,1087,83,1018,88,H
260,46,329,45,331,118,261,118,e
715,29,881,30,885,103,718,104,CỘI
575,29,669,31,681,121,583,116,QIỆ
171,47,224,46,224,125,171,126,E
715,29,778,27,779,99,715,100,e
476,35,674,33,677,116,478,115,NGH
549,36,608,34,608,106,548,106,G
405,38,520,32,527,110,403,117,AN
868,29,930,22,933,81,870,86,n
942,17,1074,15,1091,90,949,91,CH
339,50,424,39,444,107,343,120,R
264,37,484,33,489,116,265,118,ORA
279,9,660,5,664,90,285,88,ĐRN
101,54,161,52,162,121,101,123,H
31,45,92,46,93,125,32,124,T
790,30,860,28,863,99,789,100,O
620,43,649,19,647,118,647,118,MATE
1024,24,1068,15,1071,38,1027,47,THƯG
97,70,214,65,217,117,98,122,HE
24,24,185,27,185,94,19,92,"H
628,36,665,35,667,52,628,53,NướNG
754,11,967,5,975,73,758,81,LM
1005,4,1059,6,1065,41,1009,39,Tà
943,20,1003,19,1004,91,942,91,e
500,47,533,40,535,89,502,95,S
370,53,570,51,582,115,374,118,CAN
727,7,854,0,861,65,737,77,na
614,16,666,23,667,75,614,69,Vm
160,32,214,40,216,101,159,94,ĐI
977,8,1069,6,1073,72,981,75,xh
88,78,298,22,336,64,109,127,NE,
874,30,921,24,923,51,876,58,ng
52,97,201,91,201,127,53,127,TỊỊ
630,81,672,79,673,113,629,113,ỐỐ
58,8,183,1,188,58,61,65,1
80,79,397,0,440,53,108,127,M8,
269,82,321,89,320,120,267,112,N
1012,23,1015,21,1016,46,1015,47,-VCOV
869,26,986,17,990,86,873,93,Ue
801,58,846,61,848,102,799,97,Q
304,6,474,0,485,50,316,66,Y
493,47,524,41,526,73,495,81,XỨ
1095,39,1121,18,1123,88,1115,94,AC
1114,27,1121,24,1119,62,1119,62,MATE
820,94,824,95,825,106,817,103,-
915,0,1064,0,1068,49,918,49,Lan
1109,0,1121,0,1120,11,1111,12,..
893,29,930,25,931,69,894,72,n
809,74,835,78,837,103,809,97,LiFoF
818,90,825,92,828,105,817,101,TX
626,34,669,33,670,65,626,67,m
44,42,150,40,151,92,45,97,TL
110,23,218,32,227,94,110,83,LẺ
792,31,922,20,925,87,795,101,ÔU
1028,17,1067,9,1069,26,1032,34,UNA
583,13,658,23,658,64,583,57,#NG
735,91,1048,67,1051,127,741,127,thtynh
418,41,457,39,458,86,417,88,A
413,98,453,92,464,115,410,119,H
416,74,457,74,466,114,415,115,N
460,0,633,0,641,55,472,57,DÀY
1058,18,1081,13,1086,82,1063,87,1
775,0,921,0,929,33,782,52,AM
347,98,388,92,396,115,349,119,H4.
560,0,645,3,657,57,571,47,PHA
975,0,1053,4,1055,26,979,21,s.
513,45,534,42,535,79,515,81,n
0,127,5,127,2,136,1,137,15.08.19
338,103,654,83,657,127,342,127,Trọn
643,57,674,57,677,115,643,115,TA
110,100,163,95,165,122,109,122,!
0,117,26,116,26,127,3,130,09A.
91,85,613,53,630,120,103,127,NGVvn
164,43,272,9,289,37,164,43,MATE
337,47,370,47,371,107,337,107,R
876,59,914,59,919,97,876,95,N
628,120,680,90,696,119,632,127,Á
262,62,304,63,303,117,259,116,C
571,59,607,59,608,108,570,108,BÍ
301,125,362,108,369,116,301,125,MATE
179,49,210,48,216,62,182,63,Yia
64,122,136,110,141,122,64,122,MATE
623,36,623,36,622,85,622,85,MATE
134,17,203,37,202,75,131,56,LUNG
153,79,236,55,259,91,158,115,L
519,48,545,41,548,75,522,84,T
544,49,544,49,545,83,541,86,MATE
466,63,530,52,540,125,472,127,BN
487,30,586,20,594,83,491,93,VLG
273,106,368,93,376,113,277,125,TL
1072,35,1121,0,1115,58,1072,35,MATE
33,48,232,48,232,123,33,123,THE
715,15,1088,15,1088,104,715,104,CỊCH
543,29,679,29,679,111,543,111,GẸ
257,36,535,36,535,121,257,121,ORAN
710,28,1092,20,1096,98,711,104,CỌCH
32,48,227,49,228,124,32,124,THE
251,40,677,36,682,117,252,118,ORANG
621,30,676,29,677,117,621,119,E
260,46,394,45,396,121,261,121,OR
475,38,538,35,539,107,475,110,N
404,36,464,36,469,117,401,119,A
341,46,392,44,393,113,341,115,R
1016,18,1079,12,1087,83,1018,88,H
260,46,329,45,331,118,261,118,O
715,29,881,30,885,103,718,104,CỌC
575,29,669,31,681,121,583,116,GE
171,47,224,46,224,125,171,126,E
715,29,778,27,779,99,715,100,C
476,35,674,33,677,116,478,115,NGE
549,36,608,34,608,106,548,106,G
405,38,520,32,527,110,403,117,AN
868,29,930,22,933,81,870,86,J
942,17,1074,15,1091,90,949,91,CH
339,50,424,39,444,107,343,120,RA
264,37,484,33,489,116,265,118,ORA
279,9,660,5,664,90,285,88,OPANG
101,54,161,52,162,121,101,123,H
31,45,92,46,93,125,32,124,T
790,30,860,28,863,99,789,100,O
620,43,649,19,647,118,647,118,E
1024,24,1068,15,1071,38,1027,47,LA
97,70,214,65,217,117,98,122,HE
24,24,185,27,185,94,19,92,THI
628,36,665,35,667,52,628,53,-
754,11,967,5,975,73,758,81,LONG
1005,4,1059,6,1065,41,1009,39,TY
943,20,1003,19,1004,91,942,91,C
500,47,533,40,535,89,502,95,N
370,53,570,51,582,115,374,118,RANG
727,7,854,0,861,65,737,77,CÓ
614,16,666,23,667,75,614,69,L
160,32,214,40,216,101,159,94,E
977,8,1069,6,1073,72,981,75,PH
88,78,298,22,336,64,109,127,HEO
874,30,921,24,923,51,876,58,1A
52,97,201,91,201,127,53,127,TP.
630,81,672,79,673,113,629,113,-
58,8,183,1,188,58,61,65,THAN
80,79,397,0,440,53,108,127,HEORA
269,82,321,89,320,120,267,112,VUI
1012,23,1015,21,1016,46,1015,47,I
869,26,986,17,990,86,873,93,UC
801,58,846,61,848,102,799,97,ỌC
304,6,474,0,485,50,316,66,TRẦN
493,47,524,41,526,73,495,81,A
1095,39,1121,18,1123,88,1115,94,E
1114,27,1121,24,1119,62,1119,62,29B
820,94,824,95,825,106,817,103,-
915,0,1064,0,1068,49,918,49,TATM
1109,0,1121,0,1120,11,1111,12,TP.
893,29,930,25,931,69,894,72,đ
809,74,835,78,837,103,809,97,Chúc
818,90,825,92,828,105,817,101,,
626,34,669,33,670,65,626,67,-
44,42,150,40,151,92,45,97,TƯ
110,23,218,32,227,94,110,83,HE
792,31,922,20,925,87,795,101,0Ụ
1028,17,1067,9,1069,26,1032,34,alto
583,13,658,23,658,64,583,57,THAN
735,91,1048,67,1051,127,741,127,TRƯƠNG
418,41,457,39,458,86,417,88,A
413,98,453,92,464,115,410,119,-
416,74,457,74,466,114,415,115,A
460,0,633,0,641,55,472,57,TRƯỜNG
1058,18,1081,13,1086,82,1063,87,A
775,0,921,0,929,33,782,52,Minh
347,98,388,92,396,115,349,119,-
560,0,645,3,657,57,571,47,ĐẠI
975,0,1053,4,1055,26,979,21,THANH
513,45,534,42,535,79,515,81,I
338,103,654,83,657,127,342,127,NAM
643,57,674,57,677,115,643,115,1
110,100,163,95,165,122,109,122,-
0,117,26,116,26,127,3,130,TRẦN
91,85,613,53,630,120,103,127,HEGORA
164,43,272,9,289,37,164,43,Trương
337,47,370,47,371,107,337,107,R
876,59,914,59,919,97,876,95,O
628,120,680,90,696,119,632,127,KHI
262,62,304,63,303,117,259,116,C
571,59,607,59,608,108,570,108,GÀ
301,125,362,108,369,116,301,125,HANOI
179,49,210,48,216,62,182,63,nay
64,122,136,110,141,122,64,122,Chúc
623,36,623,36,622,85,622,85,Riêu
134,17,203,37,202,75,131,56,Trà
153,79,236,55,259,91,158,115,IEI
519,48,545,41,548,75,522,84,L
544,49,544,49,545,83,541,86,Chat.
466,63,530,52,540,125,472,127,N
487,30,586,20,594,83,491,93,NG
273,106,368,93,376,113,277,125,VỊ
1072,35,1121,0,1115,58,1072,35,PHẦN
