57,77,453,77,453,179,57,179,POZAA
50,71,451,66,451,174,40,182,POZAA
0,231,448,225,451,286,0,294,CGV
45,81,272,81,274,183,46,185,POZ
404,259,445,258,444,300,404,300,!
213,228,448,236,444,299,205,286,KORA
75,29,293,26,297,93,71,100,Trdơt
74,333,94,334,93,358,73,358,-
188,359,207,356,206,380,185,382,G
273,80,447,71,454,163,277,174,AA
2,255,34,254,34,270,1,271,-
19,62,49,60,49,71,19,72,Ầ
126,34,421,23,428,112,120,119,POUAN
430,40,451,40,451,70,430,70,1
314,19,429,28,438,92,316,84,Bì
256,39,289,36,290,46,257,48,SHI
20,241,248,244,244,292,3,285,SH
318,36,450,37,452,69,317,69,tmii
404,235,445,234,445,252,404,251,-
398,236,445,234,444,303,397,302,h
428,236,446,236,446,250,428,249,-
349,225,446,228,442,279,343,273,-
368,78,436,70,451,163,377,169,A
117,203,448,200,447,279,113,276,LIỆT
378,263,397,264,397,279,378,279,-
288,54,306,54,306,76,288,77,6
278,229,444,230,442,265,270,260,QUA
380,356,395,356,395,371,380,370,-
300,77,348,73,369,165,283,169,A
408,42,450,41,450,69,408,70,Ti
378,330,397,329,398,348,379,347,KEÁM
338,331,358,331,360,347,340,346,Z
347,332,371,330,373,347,348,346,ZEM
268,56,303,54,303,77,268,77,1
182,43,387,15,401,54,186,79,Trà
139,79,278,67,277,170,141,177,02
68,43,215,46,216,77,64,77,VỞG
325,332,347,330,350,346,327,347,200
210,61,348,59,358,169,208,172,2A
243,13,293,18,296,58,244,53,YÊN
185,287,257,282,260,391,182,396,ĐHM
427,258,445,258,444,293,426,291,M
359,332,379,330,380,347,359,347,khêt
11,245,112,245,108,268,3,269,Niê
20,62,49,58,48,85,24,87,NH
377,255,442,253,441,299,375,299,p
0,231,181,232,183,272,0,273,muM
51,252,91,252,91,267,51,267,-
389,331,413,329,414,348,389,347,Zênh
31,79,45,78,45,88,32,88,-
373,329,390,326,392,344,375,344,VI
145,36,288,34,287,73,139,75,MỚI
407,238,443,237,443,269,406,265,RD
314,332,338,331,340,346,316,347,Z
275,59,293,57,292,89,275,89,VIGOR
361,234,444,233,444,253,360,253,L.
63,276,103,275,103,294,62,293,-
124,55,150,53,151,61,125,63,-
30,199,227,191,228,261,27,264,CẦU
4,249,44,248,44,268,4,269,1
197,314,262,313,263,395,196,396,M
104,307,119,306,117,318,101,318,-
354,264,375,265,375,280,354,280,-
179,364,202,349,208,375,187,389,G
305,242,321,242,321,254,305,254,-
101,71,115,71,114,82,101,82,a
329,241,346,241,346,253,329,253,-
283,211,439,209,440,252,276,253,LẦC
403,237,422,237,422,250,403,250,-
240,60,273,60,273,77,240,77,C
100,251,145,250,145,264,99,264,8
336,51,357,51,356,71,335,71,f
219,80,279,78,276,161,221,166,Z
159,246,197,245,196,262,159,262,-
4,280,34,278,31,312,2,313,P
0,193,139,177,150,249,0,263,TN
354,239,379,239,379,252,354,252,-
267,59,283,59,283,78,267,77,-
62,90,131,104,123,179,54,172,P
281,240,319,239,319,256,281,256,-
164,270,204,269,203,294,163,293,-
64,53,182,53,184,82,63,83,NG
119,163,429,131,433,234,123,256,GYNG
330,266,348,266,348,280,330,279,-
420,220,446,224,445,291,419,282,:
133,160,157,167,154,179,128,175,ĐI
429,260,445,260,445,280,428,278,-
330,239,369,238,369,254,329,254,-
329,335,357,335,358,353,330,351,SỬ
378,239,412,238,412,252,378,252,-
286,57,295,57,295,91,285,89,Vi
400,331,420,329,422,348,400,348,Rằêt
354,263,391,263,391,281,354,280,-
375,233,443,233,442,265,375,265,P
79,72,115,71,115,84,79,84,k
379,239,395,239,395,251,379,251,-
55,246,193,245,191,271,47,270,3#
306,197,440,194,444,277,306,272,kuớc
74,40,160,16,169,53,83,79,GÀO
405,257,443,255,443,279,406,281,-
186,272,205,271,205,289,186,290,-
57,77,453,77,453,179,57,179,POZA
50,71,451,66,451,174,40,182,POZA
0,231,448,225,451,286,0,294,NHANH
45,81,272,81,274,183,46,185,POZ
404,259,445,258,444,300,404,300,T
213,228,448,236,444,299,205,286,TRƯƠNG
75,29,293,26,297,93,71,100,NHẬN
74,333,94,334,93,358,73,358,-
188,359,207,356,206,380,185,382,G
273,80,447,71,454,163,277,174,A
2,255,34,254,34,270,1,271,-
19,62,49,60,49,71,19,72,ANH
126,34,421,23,428,112,120,119,THƯƠNG
430,40,451,40,451,70,430,70,0
314,19,429,28,438,92,316,84,TIỆT
256,39,289,36,290,46,257,48,-
20,241,248,244,244,292,3,285,CHẤT
318,36,450,37,452,69,317,69,CHANH
404,235,445,234,445,252,404,251,-
398,236,445,234,444,303,397,302,:
428,236,446,236,446,250,428,249,-
349,225,446,228,442,279,343,273,: :
368,78,436,70,451,163,377,169,A
117,203,448,200,447,279,113,276,LƯỢNG
378,263,397,264,397,279,378,279,-
288,54,306,54,306,76,288,77,-
278,229,444,230,442,265,270,260,-
380,356,395,356,395,371,380,370,-
300,77,348,73,369,165,283,169,A
408,42,450,41,450,69,408,70,-
378,330,397,329,398,348,379,347,-
338,331,358,331,360,347,340,346,-
347,332,371,330,373,347,348,346,-
268,56,303,54,303,77,268,77,-
182,43,387,15,401,54,186,79,Thành
139,79,278,67,277,170,141,177,02
68,43,215,46,216,77,64,77,SALE
325,332,347,330,350,346,327,347,-
210,61,348,59,358,169,208,172,2A
243,13,293,18,296,58,244,53,A
185,287,257,282,260,391,182,396,-
427,258,445,258,444,293,426,291,-
359,332,379,330,380,347,359,347,-
11,245,112,245,108,268,3,269,-
20,62,49,58,48,85,24,87,E
377,255,442,253,441,299,375,299,ng
0,231,181,232,183,272,0,273,....
51,252,91,252,91,267,51,267,-
389,331,413,329,414,348,389,347,-
31,79,45,78,45,88,32,88,THAN
373,329,390,326,392,344,375,344,-
145,36,288,34,287,73,139,75,ĐẠNH
407,238,443,237,443,269,406,265,-
314,332,338,331,340,346,316,347,-
275,59,293,57,292,89,275,89,-
361,234,444,233,444,253,360,253,-
63,276,103,275,103,294,62,293,-
124,55,150,53,151,61,125,63,-
30,199,227,191,228,261,27,264,Thành
4,249,44,248,44,268,4,269,-
197,314,262,313,263,395,196,396,-
104,307,119,306,117,318,101,318,-
354,264,375,265,375,280,354,280,-
179,364,202,349,208,375,187,389,G
305,242,321,242,321,254,305,254,-
101,71,115,71,114,82,101,82,-
329,241,346,241,346,253,329,253,-
283,211,439,209,440,252,276,253,Trương
403,237,422,237,422,250,403,250,-
240,60,273,60,273,77,240,77,-
100,251,145,250,145,264,99,264,-
336,51,357,51,356,71,335,71,-
219,80,279,78,276,161,221,166,Z
159,246,197,245,196,262,159,262,-
4,280,34,278,31,312,2,313,&
0,193,139,177,150,249,0,263,THỊ
354,239,379,239,379,252,354,252,-
267,59,283,59,283,78,267,77,-
62,90,131,104,123,179,54,172,P
281,240,319,239,319,256,281,256,-
164,270,204,269,203,294,163,293,-
64,53,182,53,184,82,63,83,AQUAFINA
119,163,429,131,433,234,123,256,VIETNAM
330,266,348,266,348,280,330,279,-
420,220,446,224,445,291,419,282,F
133,160,157,167,154,179,128,175,-
429,260,445,260,445,280,428,278,-
330,239,369,238,369,254,329,254,-
329,335,357,335,358,353,330,351,THỊ
378,239,412,238,412,252,378,252,-
286,57,295,57,295,91,285,89,-
400,331,420,329,422,348,400,348,-
354,263,391,263,391,281,354,280,-
375,233,443,233,442,265,375,265,-
79,72,115,71,115,84,79,84,An
379,239,395,239,395,251,379,251,-
55,246,193,245,191,271,47,270,-
306,197,440,194,444,277,306,272,THANH
74,40,160,16,169,53,83,79,ĐẠI
405,257,443,255,443,279,406,281,-
186,272,205,271,205,289,186,290,-
