38,9,188,9,188,104,38,104,BẰNG
195,9,308,11,308,103,193,103,MÁY
34,15,205,18,203,105,24,103,BẰNG
68,12,313,7,306,103,62,104,ÀNGHÁY
34,35,96,35,97,103,33,103,BÀ
108,34,182,30,183,100,109,103,NG
195,31,261,26,262,99,195,102,M
44,9,126,5,129,102,42,103,BẰN
36,35,68,35,67,102,36,103,B
237,11,293,10,294,95,235,94,VÁ
275,33,307,31,305,101,274,103,Y
136,24,273,21,273,102,138,104,GMÁ
196,34,223,32,222,101,194,102,n
67,40,99,39,99,101,66,102,A
244,13,274,11,275,87,244,87,Á
86,34,142,32,143,103,85,103,IN
131,39,143,39,143,55,130,55,:
159,47,166,45,166,55,159,56,/ƯỢNG
256,17,308,22,307,105,257,103,ÁY
251,20,270,20,270,53,251,54,A
90,11,184,12,186,88,91,90,N
208,14,271,10,271,82,209,85,AÁ
152,32,193,30,193,97,151,97,CP
73,5,84,4,84,17,73,17,:
170,32,221,31,220,101,169,101,H
259,20,270,17,269,31,257,34,N
37,13,89,4,92,46,39,55,T
170,66,182,66,182,102,170,102,/
153,73,185,73,185,105,153,102,lu
158,49,165,48,164,60,158,61,ĐẦU
72,10,87,5,94,31,77,37,&
294,40,302,39,303,51,295,52,NHH
286,32,297,31,297,42,288,43,C
162,50,166,50,166,62,161,62,TH
16,14,80,10,84,85,17,82,B
39,49,65,48,65,85,39,86,+-
223,30,275,27,276,101,223,102,1À
292,40,299,38,299,49,294,50,CH
279,32,290,32,290,45,279,45,N
115,38,141,38,142,65,117,64,TNỆ
181,32,194,31,195,43,183,44,C
296,38,305,37,305,48,297,49,/
217,80,228,80,228,95,216,96,H
200,37,212,35,213,46,200,48,AI
128,37,142,37,142,67,128,68,AI
103,38,122,38,123,63,103,63,H
124,40,139,40,139,54,124,55,1
164,49,168,48,167,60,163,61,BIONG
39,49,153,42,155,107,39,113,BAN
170,67,183,67,183,80,170,81,.
174,39,183,39,183,53,173,52,.
277,34,285,34,286,46,277,47,Z
179,34,188,33,189,47,179,48,TN
232,14,270,12,270,56,232,60,TH
156,52,164,51,163,63,155,63,II
307,32,314,32,314,46,306,45,TNUN
158,32,179,31,180,52,158,52,SÀ
41,26,64,28,64,50,41,49,Nd.
76,50,91,48,92,60,76,62,N
4,35,66,32,66,99,3,102,B
55,45,65,45,66,58,55,58,73
272,27,317,25,316,104,275,107,Y
211,65,233,63,233,96,210,98,V
170,31,181,31,182,54,169,53,-
267,11,274,9,274,22,267,24,HÚC
166,43,190,45,189,79,164,79,S.
288,38,298,36,299,47,291,49,CHN
134,36,147,33,147,45,134,47,T
177,31,186,30,187,43,178,44,THENG
35,38,47,36,48,47,35,49,+
166,23,181,23,182,48,166,46,L.
122,66,141,63,143,98,127,99,N
183,36,196,35,197,47,185,48,CHO
172,43,185,43,185,54,172,54,H
158,42,164,40,165,51,159,52,-
280,14,295,13,295,24,280,25,C
158,42,179,42,179,79,157,79,#ì
162,47,168,45,168,57,161,58,SỬ
160,63,198,59,199,103,160,105,.ù
260,13,271,11,271,23,261,25,/
71,7,91,3,93,62,73,66,O
280,6,294,6,295,17,280,18,NG
0,115,6,115,6,120,0,120,Y
301,33,312,32,312,44,301,45,TU
42,71,64,74,64,101,41,100,L.
139,35,149,34,150,45,139,46,THUN
176,36,186,36,186,51,176,51,-
227,41,241,40,241,50,227,51,L
300,51,317,45,316,85,301,94,MỀ
306,116,317,116,317,120,306,120,CẦU
294,37,300,36,301,45,296,46,Gi
154,23,176,22,178,46,155,47,.
202,39,215,39,215,51,201,52,/
172,31,185,30,185,44,173,44,A.
192,14,205,14,205,24,192,24,TING
255,28,269,27,270,42,255,43,:
153,50,163,47,163,58,153,59,K
96,16,152,5,159,21,105,40,Ch
270,10,274,9,274,20,271,21,lượng
198,22,245,13,246,64,199,71,AÀ
226,33,238,31,239,43,229,46,I
38,9,188,9,188,104,38,104,BẰNG
195,9,308,11,308,103,193,103,MÁY
34,15,205,18,203,105,24,103,BẰNG
68,12,313,7,306,103,62,104,ẦM
34,35,96,35,97,103,33,103,BA
108,34,182,30,183,100,109,103,NG
195,31,261,26,262,99,195,102,MI
44,9,126,5,129,102,42,103,BÁN
36,35,68,35,67,102,36,103,B
237,11,293,10,294,95,235,94,LẤY
275,33,307,31,305,101,274,103,Y
136,24,273,21,273,102,138,104,GMÁ
196,34,223,32,222,101,194,102,AN
67,40,99,39,99,101,66,102,A
244,13,274,11,275,87,244,87,Á
86,34,142,32,143,103,85,103,ÁN
131,39,143,39,143,55,130,55,:
159,47,166,45,166,55,159,56,F
256,17,308,22,307,105,257,103,ÁY
251,20,270,20,270,53,251,54,A
90,11,184,12,186,88,91,90,NG
208,14,271,10,271,82,209,85,MA
152,32,193,30,193,97,151,97,C
73,5,84,4,84,17,73,17,.
170,32,221,31,220,101,169,101,CẤM
259,20,270,17,269,31,257,34,/
37,13,89,4,92,46,39,55,A
170,66,182,66,182,102,170,102,/
153,73,185,73,185,105,153,102,A,
158,49,165,48,164,60,158,61,29B
72,10,87,5,94,31,77,37,5
294,40,302,39,303,51,295,52,Y
286,32,297,31,297,42,288,43,E
162,50,166,50,166,62,161,62,R
16,14,80,10,84,85,17,82,R
39,49,65,48,65,85,39,86,-
223,30,275,27,276,101,223,102,LÁI
292,40,299,38,299,49,294,50,Trà
279,32,290,32,290,45,279,45,-
115,38,141,38,142,65,117,64,AI
181,32,194,31,195,43,183,44,ES
296,38,305,37,305,48,297,49,/
217,80,228,80,228,95,216,96,Y
200,37,212,35,213,46,200,48,.
128,37,142,37,142,67,128,68,T
103,38,122,38,123,63,103,63,k
124,40,139,40,139,54,124,55,1
164,49,168,48,167,60,163,61,-
39,49,153,42,155,107,39,113,BAN
170,67,183,67,183,80,170,81,-
174,39,183,39,183,53,173,52,"
277,34,285,34,286,46,277,47,-
179,34,188,33,189,47,179,48,E
232,14,270,12,270,56,232,60,Y
156,52,164,51,163,63,155,63,E
307,32,314,32,314,46,306,45,E
158,32,179,31,180,52,158,52,phẩm,
41,26,64,28,64,50,41,49,-
76,50,91,48,92,60,76,62,R
4,35,66,32,66,99,3,102,B
55,45,65,45,66,58,55,58,-
272,27,317,25,316,104,275,107,Y
211,65,233,63,233,96,210,98,V
170,31,181,31,182,54,169,53,1,
267,11,274,9,274,22,267,24,,
166,43,190,45,189,79,164,79,-
288,38,298,36,299,47,291,49,Trà
134,36,147,33,147,45,134,47,-
177,31,186,30,187,43,178,44,E
35,38,47,36,48,47,35,49,-
166,23,181,23,182,48,166,46,E
122,66,141,63,143,98,127,99,N
183,36,196,35,197,47,185,48,Chúc
172,43,185,43,185,54,172,54,T
158,42,164,40,165,51,159,52,-
280,14,295,13,295,24,280,25,THÀNH
158,42,179,42,179,79,157,79,-
162,47,168,45,168,57,161,58,PHẦN
160,63,198,59,199,103,160,105,/
260,13,271,11,271,23,261,25,T
71,7,91,3,93,62,73,66,A
280,6,294,6,295,17,280,18,THÀNH
0,115,6,115,6,120,0,120,Chúc
301,33,312,32,312,44,301,45,-
42,71,64,74,64,101,41,100,D
139,35,149,34,150,45,139,46,E
176,36,186,36,186,51,176,51,R
227,41,241,40,241,50,227,51,A
300,51,317,45,316,85,301,94,A
306,116,317,116,317,120,306,120,Trần
294,37,300,36,301,45,296,46,: 8k
154,23,176,22,178,46,155,47,..
202,39,215,39,215,51,201,52,L
172,31,185,30,185,44,173,44,R
192,14,205,14,205,24,192,24,-
255,28,269,27,270,42,255,43,R
153,50,163,47,163,58,153,59,F
96,16,152,5,159,21,105,40,ĐÀO
270,10,274,9,274,20,271,21,Trà
198,22,245,13,246,64,199,71,M
226,33,238,31,239,43,229,46,-
