5,4,60,18,60,65,3,47,cachoat
4,6,32,13,33,51,4,46,các
29,15,60,19,60,72,28,68,Loại
21,2,111,14,104,82,15,59,Ichanh
14,18,37,18,37,50,14,48,đc
33,16,45,15,45,49,32,50,/
44,21,60,24,60,73,44,71,ại
6,36,11,37,12,41,5,40,10
23,24,30,24,31,56,23,53,e
14,32,30,33,30,48,14,44,44
5,25,30,26,31,55,5,52,Tac
48,27,61,25,61,60,48,60,ai
12,32,57,34,57,75,10,67,trng
6,34,12,34,12,40,5,39,1,
24,16,43,15,44,52,24,51,CẢ
5,38,12,39,12,43,5,42,:
30,23,55,23,55,58,29,57,Came
0,11,19,14,20,42,0,38,(a
44,38,80,36,81,80,40,73,411
41,9,76,3,76,54,41,58,-
34,16,60,14,60,46,34,49,lbe
22,39,30,39,30,55,22,55,I
19,34,29,36,30,60,19,57,SỐ
23,31,30,32,30,48,23,48,L
14,25,30,24,31,42,14,42,60
7,9,24,8,24,21,7,22,A
53,26,59,26,59,47,53,47,!
144,12,149,12,149,19,144,20,ĐING
23,45,30,44,30,50,23,50,Ti
106,0,111,0,110,7,106,7,HI
35,42,59,40,59,70,35,72,NHI
51,42,59,42,59,60,51,60,U
8,20,33,33,34,70,8,54,TAOT
8,36,13,37,13,41,7,40,đ.
103,1,109,0,109,7,103,7,HANG
25,27,30,27,30,45,25,45,Ụ
0,1,37,16,36,53,0,37,các
34,19,43,18,43,37,34,37,/
1,25,7,26,8,45,1,44,phẩm
16,42,30,41,31,54,16,53,Mừ
40,27,59,26,59,41,40,42,.
18,38,29,38,30,50,18,48,C*
12,40,18,40,18,45,11,44,CHN
136,49,141,48,141,56,136,56,ST
143,18,149,17,149,23,143,24,S
32,49,39,49,39,53,32,52,THIẾT
119,47,124,46,124,53,119,53,Bi
22,44,27,44,28,49,21,48,CH
101,0,105,0,105,8,101,7,TIỀNG
137,59,144,58,144,66,137,66,SA
34,36,49,35,48,52,33,51,K
80,24,86,23,86,30,80,31,THUNH
4,8,25,4,25,32,5,34,aả
131,47,135,46,135,53,131,53,CHC
43,23,72,23,72,75,43,73,hing
99,73,103,72,103,79,99,79,CH
135,63,140,62,140,69,135,70,SI
94,26,156,12,153,69,90,78,25.100
50,11,94,4,94,60,51,65,Thà
1,24,14,23,14,45,0,45,093
1,30,3,31,4,46,1,45,HỘ
35,17,41,17,41,23,35,23,n
24,37,30,37,30,51,24,51,-
108,0,115,0,115,6,108,6,13 464
134,60,140,60,140,67,134,68,HANG
134,47,141,46,141,53,134,54,LI
136,0,140,0,140,6,136,6,TH
141,47,146,47,146,54,141,55,THUNH
143,59,148,59,148,66,143,66,STING
129,71,133,71,133,79,129,79,HSơ
128,34,132,34,131,41,127,41,ST
117,1,122,1,122,6,117,6,SÙ
80,52,86,52,86,57,80,57,THƯƠNG
64,1,70,0,70,8,65,8,HANH
24,41,29,42,30,49,24,48,Đ.
24,18,41,17,41,33,24,34,n
111,33,119,32,119,39,111,39,.INH
39,21,45,19,46,36,39,37,A
0,78,2,78,3,82,0,81,LIN
132,58,140,58,140,65,132,66,SI
99,62,104,61,104,67,99,67,TAN
105,2,110,2,110,8,105,9,HƯ
80,1,88,0,88,7,80,8,NHỚN
7,43,15,43,15,50,8,50,-
139,61,145,60,145,68,139,68,Sả
118,49,124,48,124,54,118,55,SH
142,11,149,10,149,17,142,18,CHV
7,19,22,20,22,38,7,38,C
6,6,28,2,30,19,8,22,À.
131,58,134,58,134,65,131,66,STING
92,59,95,59,95,66,92,66,THƯỜNG
26,43,29,43,30,50,26,50,VV
94,7,142,9,142,59,95,60,7MM
7,41,13,41,13,48,7,48,Z
117,73,123,73,123,80,118,80,SAIGON
133,31,137,30,137,37,133,37,SIUG
40,16,67,13,68,38,41,40,áo
131,36,137,35,137,41,131,42,S
137,26,143,26,143,33,137,34,SO
123,72,127,71,128,78,123,79,TH
5,4,60,18,60,65,3,47,-
4,6,32,13,33,51,4,46,các
29,15,60,19,60,72,28,68,Phụi
21,2,111,14,104,82,15,59,*4LE
14,18,37,18,37,50,14,48,4c
33,16,45,15,45,49,32,50,I
44,21,60,24,60,73,44,71,nại
6,36,11,37,12,41,5,40,-
23,24,30,24,31,56,23,53,C
14,32,30,33,30,48,14,44,4C
5,25,30,26,31,55,5,52,###
48,27,61,25,61,60,48,60,ai
12,32,57,34,57,75,10,67,TRANG
6,34,12,34,12,40,5,39,-
24,16,43,15,44,52,24,51,tel
5,38,12,39,12,43,5,42,-
30,23,55,23,55,58,29,57,Chu
0,11,19,14,20,42,0,38,Chúc
44,38,80,36,81,80,40,73,97
41,9,76,3,76,54,41,58,NGHĨA
34,16,60,14,60,46,34,49,lai
22,39,30,39,30,55,22,55,T
19,34,29,36,30,60,19,57,-
23,31,30,32,30,48,23,48,C
14,25,30,24,31,42,14,42,do
7,9,24,8,24,21,7,22,VÀ
53,26,59,26,59,47,53,47,4
144,12,149,12,149,19,144,20,R
23,45,30,44,30,50,23,50,Trà
106,0,111,0,110,7,106,7,-
35,42,59,40,59,70,35,72,"SỨC
51,42,59,42,59,60,51,60,L
8,20,33,33,34,70,8,54,*
8,36,13,37,13,41,7,40,-
103,1,109,0,109,7,103,7,-
25,27,30,27,30,45,25,45,C
0,1,37,16,36,53,0,37,chia
34,19,43,18,43,37,34,37,L
1,25,7,26,8,45,1,44,8
16,42,30,41,31,54,16,53,NU
40,27,59,26,59,41,40,42,VUI
18,38,29,38,30,50,18,48,VỤ
12,40,18,40,18,45,11,44,C
136,49,141,48,141,56,136,56,-
143,18,149,17,149,23,143,24,E
32,49,39,49,39,53,32,52,-
119,47,124,46,124,53,119,53,-
22,44,27,44,28,49,21,48,C
101,0,105,0,105,8,101,7,A
137,59,144,58,144,66,137,66,E
34,36,49,35,48,52,33,51,Wil
80,24,86,23,86,30,80,31,R
4,8,25,4,25,32,5,34,chỉ
131,47,135,46,135,53,131,53,-
43,23,72,23,72,75,43,73,NGHỈ
99,73,103,72,103,79,99,79,-
135,63,140,62,140,69,135,70,E
94,26,156,12,153,69,90,78,PHÒNG
50,11,94,4,94,60,51,65,Từ
1,24,14,23,14,45,0,45,C
1,30,3,31,4,46,1,45,Chat.
35,17,41,17,41,23,35,23,-
24,37,30,37,30,51,24,51,T
108,0,115,0,115,6,108,6,-
134,60,140,60,140,67,134,68,Chúc
134,47,141,46,141,53,134,54,-
136,0,140,0,140,6,136,6,-
141,47,146,47,146,54,141,55,T
143,59,148,59,148,66,143,66,T
129,71,133,71,133,79,129,79,-
128,34,132,34,131,41,127,41,A
117,1,122,1,122,6,117,6,-
80,52,86,52,86,57,80,57,R
64,1,70,0,70,8,65,8,: 8k
24,41,29,42,30,49,24,48,r
24,18,41,17,41,33,24,34,ni
111,33,119,32,119,39,111,39,-
39,21,45,19,46,36,39,37,LONG
0,78,2,78,3,82,0,81,THUONG
132,58,140,58,140,65,132,66,E
99,62,104,61,104,67,99,67,-
105,2,110,2,110,8,105,9,I
80,1,88,0,88,7,80,8,ES
7,43,15,43,15,50,8,50,E
139,61,145,60,145,68,139,68,T
118,49,124,48,124,54,118,55,-
142,11,149,10,149,17,142,18,R
7,19,22,20,22,38,7,38,CƠ
6,6,28,2,30,19,8,22,VÀ
131,58,134,58,134,65,131,66,E
92,59,95,59,95,66,92,66,-
26,43,29,43,30,50,26,50,PH
94,7,142,9,142,59,95,60,5400
7,41,13,41,13,48,7,48,I
117,73,123,73,123,80,118,80,T
133,31,137,30,137,37,133,37,F
40,16,67,13,68,38,41,40,R
131,36,137,35,137,41,131,42,F
137,26,143,26,143,33,137,34,-
123,72,127,71,128,78,123,79,T
