56,39,429,39,429,218,56,218,MẮT
486,74,615,74,615,199,486,199,K
67,55,420,34,409,215,44,223,MẮT
482,79,606,72,608,192,483,197,K
58,93,284,71,282,212,56,222,MA
213,40,324,35,325,186,211,190,VÀ
171,42,615,36,615,199,156,204,ẤTK
192,7,379,13,376,194,172,197,Tro
327,105,367,105,369,178,331,178,InT
311,86,395,83,396,201,309,203,0
324,63,600,55,605,200,324,213,TÌK
62,103,203,99,206,212,65,217,M
238,39,414,40,414,213,235,209,ẮT
174,14,285,17,280,125,161,108,MER
482,85,531,78,532,192,481,201,I
127,96,251,86,256,208,127,210,TNG
154,89,405,87,409,219,153,221,LÃI
333,105,411,103,412,180,334,179,1
83,37,241,17,254,131,83,144,NH
287,181,335,177,344,208,289,210,YN
492,170,540,169,543,199,491,199,L
58,103,133,104,133,218,55,220,H
197,54,205,55,205,69,196,67,7S
493,134,503,130,501,152,491,155,H
370,96,382,95,384,110,372,111,Phơ
552,76,607,75,605,183,551,184,V
486,140,531,135,537,203,484,208,L
484,139,600,137,609,200,484,204,N
107,107,125,106,126,133,108,133,T
252,40,313,38,309,97,245,103,C
152,97,194,100,194,128,151,126,-
168,107,187,106,188,118,169,119,20
46,31,67,30,67,37,47,39,-
0,70,237,25,250,188,0,195,VAM
336,85,444,78,443,202,335,204,T
538,28,562,27,564,105,530,106,Mi
261,4,312,7,307,112,242,109,Fden
28,11,172,25,183,202,23,190,TN
488,86,542,86,542,125,487,125,TH
357,169,402,168,405,205,352,205,LAI
541,19,541,19,571,193,551,208,THƯƠNG
276,65,374,71,376,196,275,193,19
362,93,378,91,382,106,366,107,-ẦU
84,112,103,113,105,126,86,125,WEM
271,28,278,24,265,65,264,65,NAT
241,21,264,23,266,75,242,73,monh
12,25,122,25,125,52,19,53,Sâ
535,87,616,84,619,173,537,186,i
114,29,128,28,129,44,114,44,P
488,90,507,85,509,107,492,112,ng
260,41,305,40,303,80,257,83,i
496,130,509,126,508,150,495,152,Pre
327,95,365,95,366,137,327,139,.
502,179,558,141,581,204,519,231,/
110,31,123,32,122,50,109,48,N
170,117,180,115,179,146,170,148,G0à
374,92,386,92,390,108,377,107,-VCEVNG
487,100,515,98,516,170,487,170,10
248,21,282,26,284,79,249,76,TUUNG
279,80,304,79,305,107,279,106,V
329,113,364,111,365,150,333,151,N00
357,96,371,94,374,108,361,110,VIFON
173,105,191,103,194,115,175,117,-VU
276,162,393,154,397,212,278,217,L4
594,227,615,226,613,233,594,231,Yyu
502,130,513,126,513,148,502,151,c.
97,31,121,31,121,48,97,48,V
228,108,351,98,360,200,229,212,A
0,225,7,227,4,236,2,236,NAM
524,101,592,102,597,168,525,166,7
263,59,303,52,306,103,268,110,SI
170,109,194,109,193,131,170,131,3
65,29,76,28,76,38,65,38,L
192,99,213,99,213,122,193,123,-100
492,144,501,138,500,159,490,163,CH
582,185,605,185,606,196,583,196,Zên
220,53,242,47,243,63,222,67,GÀ
515,85,528,84,530,97,517,98,-ICS
289,193,335,189,340,219,290,221,7êm
250,78,301,75,306,132,254,134,ÀÀ
374,98,384,97,386,117,376,118,S03
198,55,209,56,210,76,197,72,Trà
448,23,575,28,580,160,440,160,H
115,200,133,203,134,217,113,214,l
492,124,502,118,501,144,491,147,/
585,224,615,216,621,238,585,224,THƯƠNG
368,90,380,89,386,104,373,105,PLUS
78,113,98,113,99,132,80,131,R5ơH
393,108,411,107,410,131,393,130,P
610,7,615,7,614,26,610,28,m
145,113,164,108,165,127,148,131,/
196,52,209,51,210,66,197,65,P
494,90,509,85,512,99,499,103,2IlE
172,116,189,112,189,146,172,148,TI
493,73,533,78,534,109,493,102,LIOU
610,14,615,14,615,33,610,36,A
49,27,78,26,79,38,49,39,án
278,49,310,48,312,122,279,121,2017
296,108,365,109,366,180,296,182,3
364,98,377,95,379,112,366,115,50.
253,50,276,46,277,64,253,68,Trà
56,39,429,39,429,218,56,218,MẮT
486,74,615,74,615,199,486,199,K
67,55,420,34,409,215,44,223,MẮT
482,79,606,72,608,192,483,197,K
58,93,284,71,282,212,56,222,MÀ
213,40,324,35,325,186,211,190,ĂN
171,42,615,36,615,199,156,204,LẮT
192,7,379,13,376,194,172,197,TXC
327,105,367,105,369,178,331,178,-
311,86,395,83,396,201,309,203,1
324,63,600,55,605,200,324,213,TK
62,103,203,99,206,212,65,217,M
238,39,414,40,414,213,235,209,ẮT
174,14,285,17,280,125,161,108,AN
482,85,531,78,532,192,481,201,H
127,96,251,86,256,208,127,210,MA
154,89,405,87,409,219,153,221,HÀT
333,105,411,103,412,180,334,179,1
83,37,241,17,254,131,83,144,CHÍNH
287,181,335,177,344,208,289,210,ELEARNING
492,170,540,169,543,199,491,199,canh
58,103,133,104,133,218,55,220,A
197,54,205,55,205,69,196,67,T
493,134,503,130,501,152,491,155,Trà
370,96,382,95,384,110,372,111,: 8k
552,76,607,75,605,183,551,184,Z
486,140,531,135,537,203,484,208,LONG
484,139,600,137,609,200,484,204,N
107,107,125,106,126,133,108,133,-
252,40,313,38,309,97,245,103,G
152,97,194,100,194,128,151,126,-
168,107,187,106,188,118,169,119,-
46,31,67,30,67,37,47,39,-
0,70,237,25,250,188,0,195,IM
336,85,444,78,443,202,335,204,T
538,28,562,27,564,105,530,106,P
261,4,312,7,307,112,242,109,G
28,11,172,25,183,202,23,190,M
488,86,542,86,542,125,487,125,KỸ
357,169,402,168,405,205,352,205,2
541,19,541,19,571,193,551,208,ANCORA
276,65,374,71,376,196,275,193,ÁT
362,93,378,91,382,106,366,107,-
84,112,103,113,105,126,86,125,-
271,28,278,24,265,65,264,65,Chat.
241,21,264,23,266,75,242,73,T
12,25,122,25,125,52,19,53,ZASA
535,87,616,84,619,173,537,186,K
114,29,128,28,129,44,114,44,T
488,90,507,85,509,107,492,112,/
260,41,305,40,303,80,257,83,A
496,130,509,126,508,150,495,152,E
327,95,365,95,366,137,327,139,I
502,179,558,141,581,204,519,231,P
110,31,123,32,122,50,109,48,T
170,117,180,115,179,146,170,148,: 10k
374,92,386,92,390,108,377,107,-
487,100,515,98,516,170,487,170,Chè
248,21,282,26,284,79,249,76,Chúc
279,80,304,79,305,107,279,106,/
329,113,364,111,365,150,333,151,I
357,96,371,94,374,108,361,110,-
173,105,191,103,194,115,175,117,-
276,162,393,154,397,212,278,217,-
594,227,615,226,613,233,594,231,SAIGON
502,130,513,126,513,148,502,151,: 10k
97,31,121,31,121,48,97,48,VIỆT
228,108,351,98,360,200,229,212,A
0,225,7,227,4,236,2,236,THUONG
524,101,592,102,597,168,525,166,K
263,59,303,52,306,103,268,110,S
170,109,194,109,193,131,170,131,TY
65,29,76,28,76,38,65,38,-
192,99,213,99,213,122,193,123,-
492,144,501,138,500,159,490,163,Chúc
582,185,605,185,606,196,583,196,-
220,53,242,47,243,63,222,67,ES
515,85,528,84,530,97,517,98,-
289,193,335,189,340,219,290,221,-
250,78,301,75,306,132,254,134,X
374,98,384,97,386,117,376,118,: 10k
198,55,209,56,210,76,197,72,Trà
448,23,575,28,580,160,440,160,TY
115,200,133,203,134,217,113,214,-
492,124,502,118,501,144,491,147,Trà
585,224,615,216,621,238,585,224,THẤT
368,90,380,89,386,104,373,105,E
78,113,98,113,99,132,80,131,-
393,108,411,107,410,131,393,130,R
610,7,615,7,614,26,610,28,A
145,113,164,108,165,127,148,131,/
196,52,209,51,210,66,197,65,T
494,90,509,85,512,99,499,103,-
172,116,189,112,189,146,172,148,Trà
493,73,533,78,534,109,493,102,-
610,14,615,14,615,33,610,36,E
49,27,78,26,79,38,49,39,Sơn
278,49,310,48,312,122,279,121,Z
296,108,365,109,366,180,296,182,C
364,98,377,95,379,112,366,115,:
253,50,276,46,277,64,253,68,-
