286,35,503,35,503,110,286,110,LÀM
22,33,255,33,255,106,22,106,NHÀ
355,114,423,114,423,140,355,140,vân
431,115,502,115,502,145,431,145,Nga
162,110,348,110,348,144,162,144,15/10ư6ng
18,33,252,30,253,106,17,106,NHÀ
280,30,503,31,505,110,281,109,LÀM
233,109,346,112,347,143,233,141,Dương
356,112,421,111,422,141,356,142,vân
431,113,503,116,503,144,430,144,Nga
158,109,226,110,227,138,158,138,157
207,109,227,110,225,139,206,139,7
161,109,178,108,178,138,160,138,1
426,48,500,46,502,108,427,109,M
283,39,335,39,337,108,283,108,L
184,111,203,111,203,137,183,138,5
39,27,503,27,511,109,41,114,NHÂLÂN
19,36,100,38,102,108,20,108,N
189,31,239,27,250,102,184,104,À
104,40,175,40,175,106,104,106,H
289,50,323,49,323,73,289,74,/
349,32,403,31,417,107,350,109,À
379,112,411,112,411,138,379,138,ôT
481,119,501,119,501,141,481,141,C
353,112,379,111,379,151,353,152,V
68,43,96,42,97,70,69,70,+
302,114,348,114,348,144,302,143,ng
459,121,475,120,475,144,458,144,9
261,81,337,80,339,123,262,123,L
226,123,445,88,465,130,239,161,NGV
401,116,423,116,423,142,401,143,n
354,113,372,112,372,138,354,138,V
267,112,467,107,470,138,268,143,iemgwvênh
429,112,466,113,466,146,428,146,Ng
72,111,216,66,237,124,87,159,Cị
288,14,408,19,412,98,288,98,TÀ
387,90,416,89,419,106,387,106,Y
328,116,347,116,347,143,327,143,9
153,111,275,113,277,139,154,139,151011
393,110,426,111,426,151,393,150,ln
164,110,199,110,200,135,164,135,1S
478,114,503,114,503,155,477,153,e
110,123,330,77,356,124,124,158,0))20.
170,46,390,18,396,100,184,120,ALA
444,117,473,118,473,142,443,142,4g
357,64,489,57,491,106,359,110,AM
200,32,224,32,225,51,202,51,.
562,21,568,21,568,36,562,37,.
368,85,474,75,476,110,371,116,7
510,25,529,23,531,42,510,41,X
218,87,255,81,259,104,219,107,1
459,42,534,12,536,101,467,122,L
186,111,220,110,220,136,186,137,51
198,35,226,33,228,63,201,65,P
510,13,562,9,563,101,510,108,B0nh
246,96,400,95,400,135,246,133,aueriene
295,55,406,49,416,110,298,113,LA
179,75,244,66,258,105,185,109,N
367,35,391,35,392,54,369,54,.
215,33,244,23,256,99,228,106,10
175,43,282,18,285,91,188,108,À
109,38,229,32,230,103,109,105,HÀ
234,109,292,109,292,140,234,140,Dưc
380,115,397,115,397,140,379,140,ả
561,103,568,103,567,118,560,120,43
366,38,393,36,395,69,369,70,P
385,72,502,67,507,142,387,141,mM
28,124,188,60,210,131,49,161,V
355,117,366,116,366,146,355,146,IẾ
302,115,402,111,402,140,302,143,ngvà
352,115,496,105,500,142,355,150,VÔNg
361,74,406,64,416,109,365,114,u
137,43,175,42,175,105,137,105,h
234,108,259,108,259,138,234,139,D
430,110,455,110,455,136,430,137,N
290,81,338,78,341,108,289,108,NG
561,81,568,80,567,95,559,97,M
288,50,323,44,324,61,290,64,o
412,115,427,115,427,140,412,140,1
109,46,138,45,139,64,110,65,p
419,103,512,93,523,145,420,155,NGG
360,94,413,90,419,118,363,120,T
190,94,261,90,268,111,195,113,IU
220,94,250,93,253,105,220,105,Qy
561,71,567,70,567,85,560,88,H
207,116,222,116,222,150,206,150,V
259,115,280,114,280,139,259,139,LI
562,125,568,124,567,141,560,144,LƯỢNG
561,91,568,91,567,105,560,107,HƯƠNG
143,46,170,45,171,68,144,68,12
385,78,416,77,420,112,384,112,.
437,81,503,74,504,122,439,125,4
370,115,458,111,461,137,371,140,ăần
137,31,170,34,171,63,137,61,NHÂN
295,80,401,75,407,117,297,121,vf
304,52,344,51,345,108,303,107,L
561,113,567,112,567,128,560,130,15
561,27,568,27,568,42,560,44,3
460,119,487,119,487,145,460,144,9C
518,28,531,26,532,45,519,44,Zolt
27,51,172,44,175,106,28,111,NH
173,15,190,14,192,29,174,30,IING
222,23,325,18,330,86,232,94,T
477,114,500,114,500,127,477,127,p
286,35,503,35,503,110,286,110,LÀM
22,33,255,33,255,106,22,106,NHÀ
355,114,423,114,423,140,355,140,văn
431,115,502,115,502,145,431,145,Nga
162,110,348,110,348,144,162,144,151Dương
18,33,252,30,253,106,17,106,NHÀ
280,30,503,31,505,110,281,109,LÀM
233,109,346,112,347,143,233,141,Dương
356,112,421,111,422,141,356,142,văn
431,113,503,116,503,144,430,144,Nga
158,109,226,110,227,138,158,138,151
207,109,227,110,225,139,206,139,T
161,109,178,108,178,138,160,138,1
426,48,500,46,502,108,427,109,M
283,39,335,39,337,108,283,108,L
184,111,203,111,203,137,183,138,5
39,27,503,27,511,109,41,114,NHÀM
19,36,100,38,102,108,20,108,N
189,31,239,27,250,102,184,104,À
104,40,175,40,175,106,104,106,H
289,50,323,49,323,73,289,74,-
349,32,403,31,417,107,350,109,À
379,112,411,112,411,138,379,138,ăn
481,119,501,119,501,141,481,141,ai
353,112,379,111,379,151,353,152,V
68,43,96,42,97,70,69,70,.
302,114,348,114,348,144,302,143,ng
459,121,475,120,475,144,458,144,G
261,81,337,80,339,123,262,123,L
226,123,445,88,465,130,239,161,Đường
401,116,423,116,423,142,401,143,n
354,113,372,112,372,138,354,138,V
267,112,467,107,470,138,268,143,ương
429,112,466,113,466,146,428,146,Ng
72,111,216,66,237,124,87,159,THẾ
288,14,408,19,412,98,288,98,LÀ
387,90,416,89,419,106,387,106,Cần
328,116,347,116,347,143,327,143,g
153,111,275,113,277,139,154,139,151D1
393,110,426,111,426,151,393,150,in
164,110,199,110,200,135,164,135,15
478,114,503,114,503,155,477,153,-
110,123,330,77,356,124,124,158,Hoàng
170,46,390,18,396,100,184,120,ÀLÀ
444,117,473,118,473,142,443,142,Ng
357,64,489,57,491,106,359,110,AM
200,32,224,32,225,51,202,51,-
562,21,568,21,568,36,562,37,-
368,85,474,75,476,110,371,116,ALV
510,25,529,23,531,42,510,41,-
218,87,255,81,259,104,219,107,-
459,42,534,12,536,101,467,122,A
186,111,220,110,220,136,186,137,51
198,35,226,33,228,63,201,65,I
510,13,562,9,563,101,510,108,R
246,96,400,95,400,135,246,133,Sường
295,55,406,49,416,110,298,113,LA
179,75,244,66,258,105,185,109,A
367,35,391,35,392,54,369,54,-
215,33,244,23,256,99,228,106,2
175,43,282,18,285,91,188,108,A
109,38,229,32,230,103,109,105,HÀ
234,109,292,109,292,140,234,140,Dưc
380,115,397,115,397,140,379,140,À
561,103,568,103,567,118,560,120,-
366,38,393,36,395,69,369,70,I
385,72,502,67,507,142,387,141,AM
28,124,188,60,210,131,49,161,NH
355,117,366,116,366,146,355,146,1
302,115,402,111,402,140,302,143,ngày
352,115,496,105,500,142,355,150,vàng
542,30,566,25,567,90,543,107,T
361,74,406,64,416,109,365,114,A
137,43,175,42,175,105,137,105,I
234,108,259,108,259,138,234,139,D
430,110,455,110,455,136,430,137,N
290,81,338,78,341,108,289,108,L
561,81,568,80,567,95,559,97,-
288,50,323,44,324,61,290,64,-
412,115,427,115,427,140,412,140,1
109,46,138,45,139,64,110,65,-
419,103,512,93,523,145,420,155,Nga
360,94,413,90,419,118,363,120,TP.
190,94,261,90,268,111,195,113,SINCE
220,94,250,93,253,105,220,105,CHỚP
561,71,567,70,567,85,560,88,-
207,116,222,116,222,150,206,150,7
259,115,280,114,280,139,259,139,ư
562,125,568,124,567,141,560,144,-
561,91,568,91,567,105,560,107,-
143,46,170,45,171,68,144,68,-
385,78,416,77,420,112,384,112,LA
437,81,503,74,504,122,439,125,VI
370,115,458,111,461,137,371,140,An
137,31,170,34,171,63,137,61,-
295,80,401,75,407,117,297,121,LA
304,52,344,51,345,108,303,107,L
561,113,567,112,567,128,560,130,-
561,27,568,27,568,42,560,44,:
460,119,487,119,487,145,460,144,g
518,28,531,26,532,45,519,44,Trà
27,51,172,44,175,106,28,111,NH
173,15,190,14,192,29,174,30,-
222,23,325,18,330,86,232,94,in
477,114,500,114,500,127,477,127,nam
