55,90,347,90,347,195,55,195,Balán
35,50,348,80,331,199,9,170,Barie
38,69,123,70,120,174,28,182,18
135,106,233,104,234,181,135,179,CT
237,134,343,148,346,197,233,184,can
250,30,299,23,296,129,251,137,Xa
234,136,294,138,297,190,234,188,Cồ
217,17,325,0,327,123,218,137,ĐA
167,8,311,23,311,114,163,110,QUA
135,99,291,96,290,189,137,180,diẻ
197,116,326,129,327,196,195,185,lér
137,37,263,33,269,138,141,146,AN
42,63,160,67,145,185,18,188,1B
211,108,230,107,230,183,210,180,/
176,47,344,1,337,133,176,152,HÀ
301,57,314,57,315,91,301,91,=
298,144,340,142,345,191,299,189,n
66,82,128,84,128,165,64,165,b
51,72,232,81,239,186,48,170,Bối
205,92,346,83,346,180,205,171,LẨm
273,14,334,0,336,117,272,128,9ỜT
43,67,85,65,82,157,39,159,7
222,38,234,37,234,59,222,59,:
236,38,250,37,251,71,236,71,-
251,38,296,38,296,103,250,105,LỊ
256,43,289,41,290,86,256,88,SÂ
84,34,187,19,191,132,85,145,To
207,35,249,35,249,65,207,64,M
243,112,281,109,282,167,244,171,hón
237,88,311,95,315,174,237,173,SA
270,146,288,145,294,184,274,184,8
208,40,216,40,216,61,207,62,-
243,85,258,85,258,103,243,103,A
147,25,188,13,188,107,151,119,R
237,45,248,45,248,67,237,67,-
39,28,119,27,120,144,42,150,A
144,16,253,17,255,92,144,98,Lại
299,4,337,3,337,93,299,95,T
261,108,283,105,278,134,254,136,C
288,93,298,92,298,110,288,111,R
231,45,281,43,281,117,232,120,h
206,185,320,173,326,196,211,205,9
255,164,329,166,331,199,255,193,21
201,29,275,32,275,86,200,83,HX
129,49,148,48,149,63,130,64,A
221,59,287,43,288,143,224,157,Duty
272,46,287,43,287,86,271,88,4
258,88,322,54,324,104,259,137,ph3
198,76,215,77,215,95,197,94,A
237,141,285,141,287,171,238,170,fị
46,71,60,72,60,82,46,81,7
288,131,339,127,347,192,294,192,n
284,36,296,35,298,49,287,49,20
84,22,98,21,98,32,84,33,MATE
330,1,347,1,347,15,330,16,Ty
243,87,256,85,257,123,246,124,xÊm
359,89,377,88,377,100,360,101,HỘ
192,37,200,36,200,55,193,56,1000
328,163,344,161,345,196,328,196,I
108,35,123,35,123,46,108,46,TRANG
113,30,127,30,127,40,113,41,MATE
79,23,93,23,93,34,80,34,MATE
86,27,100,26,100,37,86,38,MATE
70,146,117,145,120,163,65,166,đut
213,109,230,109,230,124,213,125,.
110,27,124,26,124,37,110,38,MATE
113,37,127,37,127,47,113,48,MATE
115,34,128,33,128,44,115,44,FORENG
237,36,250,36,250,53,238,53,A
113,24,126,23,127,34,113,34,MATE
263,50,270,50,269,69,262,69,V
124,64,138,64,140,76,125,75,0y
240,40,249,39,249,63,240,64,3
141,17,172,5,172,90,142,98,SA
93,18,106,18,107,29,93,29,NHO
106,30,121,29,121,41,106,41,MATE
88,19,101,18,101,29,88,29,MATE
194,85,280,73,281,131,197,140,NG
359,94,377,93,377,105,359,106,CHA
330,19,364,0,382,83,278,163,K9
321,146,346,143,349,197,324,198,1
350,89,367,88,367,100,350,101,CHA
128,45,145,43,146,57,128,58,LIFE
103,18,117,17,117,29,103,29,MATE
207,115,275,112,276,184,207,184,lẻ
119,155,322,169,323,212,118,209,THÔNG
92,4,107,3,107,17,92,18,A
90,23,103,23,103,34,90,34,MATE
359,78,376,75,377,88,360,89,chem
110,20,123,19,123,30,110,31,MATE
275,48,310,46,313,86,277,87,L
89,30,103,29,103,40,89,41,MATE
238,142,257,141,256,158,234,160,C
103,24,117,23,117,34,103,34,Z
81,19,95,18,95,29,81,29,MATE
103,33,118,33,118,44,103,44,HAT
359,55,377,54,377,66,359,67,HỘ
60,186,162,169,175,186,68,206,X
79,28,93,28,93,39,79,39,MATE
96,22,110,21,110,32,96,32,MATE
113,15,127,14,127,25,113,26,MATE
55,90,347,90,347,195,55,195,Bán
35,50,348,80,331,199,9,170,Baks
38,69,123,70,120,174,28,182,B
135,106,233,104,234,181,135,179,al
237,134,343,148,346,197,233,184,an
250,30,299,23,296,129,251,137,MI
234,136,294,138,297,190,234,188,A
217,17,325,0,327,123,218,137,PgUp
167,8,311,23,311,114,163,110,Today
135,99,291,96,290,189,137,180,alá
197,116,326,129,327,196,195,185,lár
137,37,263,33,269,138,141,146,AN
42,63,160,67,145,185,18,188,B
211,108,230,107,230,183,210,180,/
176,47,344,1,337,133,176,152,R
301,57,314,57,315,91,301,91,.
298,144,340,142,345,191,299,189,n
66,82,128,84,128,165,64,165,B
51,72,232,81,239,186,48,170,Bai
205,92,346,83,346,180,205,171,lác
273,14,334,0,336,117,272,128,AN
43,67,85,65,82,157,39,159,/
222,38,234,37,234,59,222,59,2
236,38,250,37,251,71,236,71,A
251,38,296,38,296,103,250,105,T
256,43,289,41,290,86,256,88,AI
84,34,187,19,191,132,85,145,thác
207,35,249,35,249,65,207,64,AN
243,112,281,109,282,167,244,171,&
237,88,311,95,315,174,237,173,át
270,146,288,145,294,184,274,184,:
208,40,216,40,216,61,207,62,-
243,85,258,85,258,103,243,103,H
147,25,188,13,188,107,151,119,/
237,45,248,45,248,67,237,67,-
39,28,119,27,120,144,42,150,T.
144,16,253,17,255,92,144,98,Lam
299,4,337,3,337,93,299,95,THI
261,108,283,105,278,134,254,136,/
288,93,298,92,298,110,288,111,E
231,45,281,43,281,117,232,120,/
206,185,320,173,326,196,211,205,THANH
255,164,329,166,331,199,255,193,22
201,29,275,32,275,86,200,83,an
129,49,148,48,149,63,130,64,Chúc
221,59,287,43,288,143,224,157,-
272,46,287,43,287,86,271,88,4
258,88,322,54,324,104,259,137,R
198,76,215,77,215,95,197,94,H
237,141,285,141,287,171,238,170,3
46,71,60,72,60,82,46,81,-
288,131,339,127,347,192,294,192,n
284,36,296,35,298,49,287,49,-
84,22,98,21,98,32,84,33,Chúc
330,1,347,1,347,15,330,16,-
243,87,256,85,257,123,246,124,1
359,89,377,88,377,100,360,101,THAN
192,37,200,36,200,55,193,56,E
328,163,344,161,345,196,328,196,I
108,35,123,35,123,46,108,46,THAN
113,30,127,30,127,40,113,41,Chúc
79,23,93,23,93,34,80,34,Chúc
86,27,100,26,100,37,86,38,Chúc
70,146,117,145,120,163,65,166,AQUAFINA
213,109,230,109,230,124,213,125,.
110,27,124,26,124,37,110,38,Chúc
113,37,127,37,127,47,113,48,Chúc
115,34,128,33,128,44,115,44,Chúc
237,36,250,36,250,53,238,53,H
113,24,126,23,127,34,113,34,Chúc
263,50,270,50,269,69,262,69,A
124,64,138,64,140,76,125,75,3
240,40,249,39,249,63,240,64,2
141,17,172,5,172,90,142,98,Y
93,18,106,18,107,29,93,29,Chúc
106,30,121,29,121,41,106,41,THAN
88,19,101,18,101,29,88,29,Chúc
194,85,280,73,281,131,197,140,TA
359,94,377,93,377,105,359,106,THAN
330,19,364,0,382,83,278,163,PHẦN
321,146,346,143,349,197,324,198,1
350,89,367,88,367,100,350,101,THAN
128,45,145,43,146,57,128,58,Chúc
103,18,117,17,117,29,103,29,Chúc
207,115,275,112,276,184,207,184,lá
119,155,322,169,323,212,118,209,HANOI
92,4,107,3,107,17,92,18,Chúc
90,23,103,23,103,34,90,34,Chúc
359,78,376,75,377,88,360,89,THAN
110,20,123,19,123,30,110,31,Chúc
275,48,310,46,313,86,277,87,E
89,30,103,29,103,40,89,41,Chúc
238,142,257,141,256,158,234,160,T
103,24,117,23,117,34,103,34,Chúc
81,19,95,18,95,29,81,29,Chúc
103,33,118,33,118,44,103,44,THAN
359,55,377,54,377,66,359,67,THAN
60,186,162,169,175,186,68,206,HOÀNG
79,28,93,28,93,39,79,39,Chúc
96,22,110,21,110,32,96,32,Chúc
113,15,127,14,127,25,113,26,Chúc
