17,72,104,72,104,172,17,172,XE
111,6,233,6,233,161,111,161,AN
20,75,99,72,102,169,21,170,XE
46,65,215,6,229,111,41,169,BAN
106,0,222,1,231,125,108,127,ÂN
108,0,150,0,154,140,107,141,ON
112,9,131,6,134,30,113,35,A
91,15,162,0,169,145,92,160,HÀY
27,74,152,47,154,151,23,172,XEA
164,9,217,13,219,106,165,103,N
47,35,132,3,138,111,49,128,-
86,12,140,6,140,100,83,101,tất
27,120,98,118,102,172,31,172,XE
115,65,196,49,207,127,114,156,AI
21,95,62,93,67,167,26,169,Y
149,48,221,34,228,114,156,132,N
69,90,98,90,100,163,70,163,:
103,8,142,4,144,66,104,70,P
118,83,160,73,171,136,117,152,P
21,90,69,79,71,132,26,140,V
149,7,201,4,207,65,152,68,.
21,85,89,69,91,120,23,127,VT
128,73,141,69,144,104,130,109,/
53,75,93,71,95,134,54,135,T
229,157,234,158,235,167,229,168,THANG
145,63,193,60,198,123,146,132,T
21,97,55,86,58,117,31,126,T
110,4,200,3,206,76,110,77,An
178,46,221,43,229,105,184,108,PHA
194,24,234,31,233,105,205,103,TH
79,126,100,127,103,158,80,159,-
72,93,92,93,95,122,74,124,-
0,171,4,172,2,175,1,175,KE
116,83,141,79,141,146,114,153,PH
80,83,139,75,141,142,82,146,xo
223,155,233,154,234,169,222,170,/
33,141,100,140,103,168,35,169,A
173,17,234,4,234,82,180,98,N
161,70,222,63,229,114,165,127,1
36,99,46,95,45,108,37,109,15B:
124,75,144,69,149,123,126,130,Ị
194,5,222,4,223,63,195,60,HAN
43,98,48,95,49,109,43,109,KH
184,3,205,2,207,64,185,63,xIng
195,65,223,64,227,95,201,95,TH
201,162,210,161,211,172,201,171,k
125,45,145,44,147,105,127,108,THT
40,101,47,97,48,110,41,112,TỔN
0,111,78,85,87,161,0,172,XI
49,94,59,92,58,109,48,109,TNH
22,104,58,102,61,136,28,137,DNHH
205,9,215,8,215,21,206,21,TINH
186,7,197,7,197,20,186,20,T
76,103,92,103,96,138,80,138,c
226,169,234,169,233,175,226,172,LƯỢNG
70,79,86,74,90,107,73,111,p
30,47,91,29,89,92,28,109,NỘ
227,156,234,157,234,173,226,172,0
78,73,78,73,77,85,77,85,HỘ
49,89,57,85,58,92,50,97,-US
41,95,58,87,59,118,47,122,/
86,11,135,6,135,52,85,57,I
114,73,119,72,118,84,113,84,CHON
79,11,128,4,129,30,76,31,cH
114,17,130,12,134,43,117,49,I
24,98,35,93,37,102,26,106,ĐIU
28,154,85,149,90,165,31,169,TANG
36,148,43,147,41,157,34,158,H
159,62,167,61,168,72,160,73,CHAC
224,76,234,77,234,91,223,89,Y9
56,172,76,172,76,172,56,172,HỘ
230,154,234,154,235,161,231,161,IÀ
109,0,169,0,173,41,108,41,N
58,20,130,5,130,70,53,73,TH
221,171,234,164,233,173,221,172,T
224,71,234,72,233,85,223,83,2A
114,66,119,65,118,77,113,77,á.
41,98,47,93,48,103,42,106,:
114,79,118,78,118,88,113,89,CHC
185,11,195,11,196,24,186,23,908
223,161,233,161,234,172,225,174,/
205,3,215,3,216,16,206,16,Vd
114,118,120,116,120,126,113,128,CHVC
225,64,233,64,232,76,224,75,KIẾN
114,101,120,99,120,111,113,112,CHAN
197,87,215,76,227,104,206,118,TY
222,53,233,53,232,65,222,65,A C
65,134,101,131,104,165,66,167,h
197,164,208,163,209,172,197,172,l
225,153,232,151,232,163,226,164,P
151,83,157,83,158,94,153,94,H
113,62,119,61,118,73,112,73,KHON
140,31,186,39,190,115,139,112,đ9
181,66,191,65,191,78,182,79,N
230,85,234,81,237,99,234,101,H
223,58,233,58,232,71,222,70,A
51,101,60,100,60,111,51,111,TNH
228,0,234,0,235,6,229,5,Vi
37,102,48,98,49,114,38,117,Y
113,55,119,54,118,66,112,67,CH
158,58,166,57,166,68,159,69,9. 0
17,72,104,72,104,172,17,172,XE
111,6,233,6,233,161,111,161,AN
20,75,99,72,102,169,21,170,XE
46,65,215,6,229,111,41,169,CAN
106,0,222,1,231,125,108,127,AN
108,0,150,0,154,140,107,141,ÀN
112,9,131,6,134,30,113,35,A
91,15,162,0,169,145,92,160,ÂN
27,74,152,47,154,151,23,172,XEO
164,9,217,13,219,106,165,103,N
47,35,132,3,138,111,49,128,CÀ
86,12,140,6,140,100,83,101,THAN
27,120,98,118,102,172,31,172,XE
115,65,196,49,207,127,114,156,AN
21,95,62,93,67,167,26,169,X
149,48,221,34,228,114,156,132,N
69,90,98,90,100,163,70,163,E
103,8,142,4,144,66,104,70,P
118,83,160,73,171,136,117,152,A
21,90,69,79,71,132,26,140,VÌ
149,7,201,4,207,65,152,68,N
21,85,89,69,91,120,23,127,VỀ
128,73,141,69,144,104,130,109,2
53,75,93,71,95,134,54,135,E
229,157,234,158,235,167,229,168,R
145,63,193,60,198,123,146,132,AN
21,97,55,86,58,117,31,126,VI
110,4,200,3,206,76,110,77,AN
178,46,221,43,229,105,184,108,N
194,24,234,31,233,105,205,103,Chúc
79,126,100,127,103,158,80,159,A
72,93,92,93,95,122,74,124,=
0,171,4,172,2,175,1,175,SAUCE
116,83,141,79,141,146,114,153,P
80,83,139,75,141,142,82,146,E
223,155,233,154,234,169,222,170,-
33,141,100,140,103,168,35,169,AN
173,17,234,4,234,82,180,98,N
161,70,222,63,229,114,165,127,N
36,99,46,95,45,108,37,109,Chè
124,75,144,69,149,123,126,130,/
194,5,222,4,223,63,195,60,A
43,98,48,95,49,109,43,109,Chúc
184,3,205,2,207,64,185,63,-
195,65,223,64,227,95,201,95,E
201,162,210,161,211,172,201,171,-
125,45,145,44,147,105,127,108,N
40,101,47,97,48,110,41,112,Y
0,111,78,85,87,161,0,172,XE
49,94,59,92,58,109,48,109,E
22,104,58,102,61,136,28,137,VI
205,9,215,8,215,21,206,21,T
186,7,197,7,197,20,186,20,-
76,103,92,103,96,138,80,138,A
226,169,234,169,233,175,226,172,-
70,79,86,74,90,107,73,111,-
30,47,91,29,89,92,28,109,T
227,156,234,157,234,173,226,172,A
78,73,78,73,77,85,77,85,Chat.
49,89,57,85,58,92,50,97,Vifon
41,95,58,87,59,118,47,122,/
86,11,135,6,135,52,85,57,-
114,73,119,72,118,84,113,84,Chat.
79,11,128,4,129,30,76,31,THAN
114,17,130,12,134,43,117,49,O
24,98,35,93,37,102,26,106,-
28,154,85,149,90,165,31,169,-
36,148,43,147,41,157,34,158,Chúc
159,62,167,61,168,72,160,73,-
224,76,234,77,234,91,223,89,/
230,154,234,154,235,161,231,161,-
109,0,169,0,173,41,108,41,A
58,20,130,5,130,70,53,73,E
221,171,234,164,233,173,221,172,-
224,71,234,72,233,85,223,83,/
114,66,119,65,118,77,113,77,Chat.
41,98,47,93,48,103,42,106,Chúc
114,79,118,78,118,88,113,89,:
185,11,195,11,196,24,186,23,-
223,161,233,161,234,172,225,174,-
205,3,215,3,216,16,206,16,T
114,118,120,116,120,126,113,128,Chat.
225,64,233,64,232,76,224,75,: 10k
114,101,120,99,120,111,113,112,: 8k
197,87,215,76,227,104,206,118,VIFON
222,53,233,53,232,65,222,65,E
65,134,101,131,104,165,66,167,LA
197,164,208,163,209,172,197,172,LÊ
225,153,232,151,232,163,226,164,-
151,83,157,83,158,94,153,94,-
113,62,119,61,118,73,112,73,Chat.
140,31,186,39,190,115,139,112,A
181,66,191,65,191,78,182,79,A
230,85,234,81,237,99,234,101,Trà
223,58,233,58,232,71,222,70,Trà
51,101,60,100,60,111,51,111,-
228,0,234,0,235,6,229,5,-
37,102,48,98,49,114,38,117,N
113,55,119,54,118,66,112,67,Chat.
158,58,166,57,166,68,159,69,-
