250,47,819,47,819,274,250,274,Tuyết
699,198,818,178,819,242,699,271,Ca
251,31,801,21,789,234,219,242,Tuyế
262,53,379,57,375,255,263,255,T
252,39,511,48,511,251,254,249,Tuu
24,17,642,54,624,275,0,246,LTu
10,78,247,77,243,290,13,290,CẢp
632,46,807,36,805,197,633,203,C
120,16,166,16,166,32,118,32,-
499,84,811,35,809,226,492,277,Vit
7,37,161,36,160,237,5,248,MẠNH
55,14,100,15,100,34,54,32,-
19,199,251,184,248,282,22,294,Đ
764,194,817,181,816,242,761,254,ạt
425,95,574,93,574,255,418,249,VT
190,15,226,15,225,32,188,32,-HSC
386,93,527,92,526,230,380,234,UI
93,54,134,53,135,81,93,82,O
386,69,719,58,713,265,380,267,UyC
519,99,715,77,718,226,518,260,VC
614,99,646,99,639,136,609,136,T
123,178,263,161,247,264,109,273,ĐP
702,49,737,48,733,82,693,82,A
115,9,169,8,169,38,115,39,-
385,82,451,76,450,221,381,226,1
358,16,390,16,390,32,357,31,-
517,90,626,82,621,266,505,276,LV
399,100,442,99,441,140,399,142,n
489,103,528,102,527,139,488,140,m
527,15,560,15,560,33,526,33,-
295,15,336,15,337,31,295,30,kI
533,100,563,100,563,126,533,127,n
250,80,404,68,414,279,241,296,22
60,169,333,128,324,251,52,291,TIAN
485,103,529,103,509,220,464,216,/
58,50,162,42,164,166,62,179,CcN
174,170,330,149,327,262,167,285,PL
286,142,351,143,343,259,274,262,L
218,242,252,241,248,275,213,275,/
95,51,149,50,152,112,98,112,S
598,97,646,95,636,159,593,162,/
748,40,776,42,770,79,741,77,/
392,103,444,100,438,187,384,191,T
445,16,479,17,480,33,444,32,-
256,64,333,64,334,130,256,132,Ố7
750,47,806,46,806,125,751,129,L
261,50,421,47,421,116,262,125,T7
525,29,708,0,712,66,519,92,THẠ
483,104,527,101,526,169,481,174,/
819,176,823,176,824,202,821,204,-
242,15,282,16,282,33,240,32,m
614,96,646,95,645,118,613,120,n
382,163,516,151,518,234,383,243,Ci
12,87,70,88,71,135,12,136,C
639,167,723,170,725,199,637,196,g
68,52,140,51,144,125,71,125,de
252,51,335,55,337,207,253,204,97
256,59,318,61,318,103,255,104,-
497,91,567,90,569,131,498,134,n
581,98,636,94,631,201,585,199,/
343,58,411,57,412,84,343,80,Ấ
707,193,765,188,763,253,704,262,0
727,193,766,190,764,233,723,234,O
19,244,87,243,90,288,21,285,-
774,191,818,187,818,230,774,233,nL
507,128,522,128,516,165,502,164,/
399,15,435,15,434,32,398,31,-
489,16,518,16,518,30,489,29,-
655,122,807,100,806,236,653,257,Sal
607,112,635,116,623,158,599,152,7
481,97,547,94,547,143,480,149,T
341,109,356,108,350,135,335,136,/
700,217,720,217,718,261,697,262,(
528,96,558,96,560,116,529,117,P
111,57,138,56,139,86,112,86,9
187,113,340,88,336,240,184,253,Đng
206,234,256,231,249,288,197,289,2
264,22,403,23,410,173,265,179,Từ
201,173,263,164,255,234,189,238,p
733,47,806,40,803,189,732,192,TG
497,119,524,119,517,166,492,164,/
168,84,200,74,205,101,172,111,.
497,243,555,243,552,267,489,270,C
776,188,812,186,812,205,776,206,V
187,42,218,41,219,70,187,71,THIẾT
695,203,730,201,730,265,694,268,(
193,26,341,19,348,50,195,57,THƯTG
30,54,320,46,318,213,39,216,B,N
602,14,638,15,639,31,602,30,-
160,214,253,203,244,287,150,289,MI
185,13,212,12,211,37,183,37,-
403,113,439,112,434,159,398,158,/
123,4,156,4,157,29,124,30,YUUN
209,251,245,251,241,282,204,279,TIẾt
674,65,747,49,747,124,675,137,s
405,101,442,96,443,120,405,125,H
569,173,601,164,602,201,572,207,V
295,180,348,181,341,247,279,249,L
517,180,605,179,591,261,497,266,ý
118,63,141,62,142,99,120,101,hạt
0,290,15,292,10,299,3,300,IG
250,47,819,47,819,274,250,274,Tuyển
699,198,818,178,819,242,699,271,Co
251,31,801,21,789,234,219,242,Tuyển
262,53,379,57,375,255,263,255,T
252,39,511,48,511,251,254,249,Từ
24,17,642,54,624,275,0,246,Tuy
10,78,247,77,243,290,13,290,E
632,46,807,36,805,197,633,203,ết
120,16,166,16,166,32,118,32,-
499,84,811,35,809,226,492,277,vất
7,37,161,36,160,237,5,248,2
55,14,100,15,100,34,54,32,-
19,199,251,184,248,282,22,294,OL
764,194,817,181,816,242,761,254,a
425,95,574,93,574,255,418,249,Jy
190,15,226,15,225,32,188,32,-
386,93,527,92,526,230,380,234,/
93,54,134,53,135,81,93,82,G
386,69,719,58,713,265,380,267,uyên
519,99,715,77,718,226,518,260,ya
614,99,646,99,639,136,609,136,T
123,178,263,161,247,264,109,273,22
702,49,737,48,733,82,693,82,n
115,9,169,8,169,38,115,39,-
385,82,451,76,450,221,381,226,U
358,16,390,16,390,32,357,31,-
517,90,626,82,621,266,505,276,Y
399,100,442,99,441,140,399,142,17
489,103,528,102,527,139,488,140,T
527,15,560,15,560,33,526,33,-
295,15,336,15,337,31,295,30,NAM
533,100,563,100,563,126,533,127,C
250,80,404,68,414,279,241,296,T
60,169,333,128,324,251,52,291,Son
485,103,529,103,509,220,464,216,/
58,50,162,42,164,166,62,179,CAO
174,170,330,149,327,262,167,285,el
286,142,351,143,343,259,274,262,I
218,242,252,241,248,275,213,275,/
95,51,149,50,152,112,98,112,9
598,97,646,95,636,159,593,162,/
748,40,776,42,770,79,741,77,/
392,103,444,100,438,187,384,191,/
445,16,479,17,480,33,444,32,-
256,64,333,64,334,130,256,132,T
750,47,806,46,806,125,751,129,flan
261,50,421,47,421,116,262,125,TP.
525,29,708,0,712,66,519,92,THAN
483,104,527,101,526,169,481,174,T
819,176,823,176,824,202,821,204,P
242,15,282,16,282,33,240,32,-
614,96,646,95,645,118,613,120,T
382,163,516,151,518,234,383,243,VUI
12,87,70,88,71,135,12,136,C
639,167,723,170,725,199,637,196,OILVER
68,52,140,51,144,125,71,125,Co
252,51,335,55,337,207,253,204,T
256,59,318,61,318,103,255,104,-
497,91,567,90,569,131,498,134,tin
581,98,636,94,631,201,585,199,/
343,58,411,57,412,84,343,80,-
707,193,765,188,763,253,704,262,e
727,193,766,190,764,233,723,234,O
19,244,87,243,90,288,21,285,C
774,191,818,187,818,230,774,233,đ
507,128,522,128,516,165,502,164,/
399,15,435,15,434,32,398,31,-
489,16,518,16,518,30,489,29,-
655,122,807,100,806,236,653,257,Các
607,112,635,116,623,158,599,152,/
481,97,547,94,547,143,480,149,TY
341,109,356,108,350,135,335,136,/
700,217,720,217,718,261,697,262,C
528,96,558,96,560,116,529,117,-
111,57,138,56,139,86,112,86,3
187,113,340,88,336,240,184,253,có
206,234,256,231,249,288,197,289,/
264,22,403,23,410,173,265,179,T
201,173,263,164,255,234,189,238,P
733,47,806,40,803,189,732,192,2
497,119,524,119,517,166,492,164,/
168,84,200,74,205,101,172,111,E
497,243,555,243,552,267,489,270,C
776,188,812,186,812,205,776,206,tinh
187,42,218,41,219,70,187,71,-
695,203,730,201,730,265,694,268,C
193,26,341,19,348,50,195,57,TRƯỜNG
30,54,320,46,318,213,39,216,Eat
602,14,638,15,639,31,602,30,-
160,214,253,203,244,287,150,289,22
185,13,212,12,211,37,183,37,-
403,113,439,112,434,159,398,158,/
123,4,156,4,157,29,124,30,-
209,251,245,251,241,282,204,279,-
674,65,747,49,747,124,675,137,A
405,101,442,96,443,120,405,125,C
569,173,601,164,602,201,572,207,V
295,180,348,181,341,247,279,249,/
517,180,605,179,591,261,497,266,Y
118,63,141,62,142,99,120,101,P
0,290,15,292,10,299,3,300,CÔNG
